ID_PACIENTE;ID_ATENDIMENTO;IC_SEXO;aa_nascimento;DT_ATENDIMENTO;DT_DESFECHO;DE_DESFECHO;DAYS;DT_COLETA;DE_ORIGEM;DE_EXAME;DE_ANALITO;DE_RESULTADO;CD_UNIDADE;DE_VALOR_REFERENCIA;OUTLIERS
05221029190B109C8BAC4474F9D639BC;B614C68D29EBBF4134D42E8735C57C7D;F;1972;2020-05-20;2020-06-02;Alta medica curado;13;2020-05-20;Pronto Socorro;Acido Urico;Acido Urico;4.2;mg/dL;2,4 a 5,7;False
1DD3B4985DA07D6595B36ADC8B3E3134;3B550366687F0856D19D222810C44C02;F;1981;2020-06-22;2020-06-26;Alta Administrativa;4;2020-06-22;Endoscopia;Acido Urico;Acido Urico;3.2;mg/dL;2,4 a 5,7;False
2A0E6B30B8AA6E95D9BEA6B7FD56EB5C;7C37D07D733773021137A7290A76F64B;F;1978;2020-05-26;2020-05-28;Alta medica melhorado;2;2020-05-27;Unidades de Internacao;Acido Urico;Acido Urico;3.8;mg/dL;2,4 a 5,7;False
43585341FB560D7A74608A5F244ECCD2;B2C48F1E7CFF7E8DEFED07FE5777D510;F;1977;2020-06-04;2020-06-08;Alta Administrativa;4;2020-06-04;Endoscopia;Acido Urico, soro;Acido Urico;6.2;mg/dL;2,4 a 5,7;False
48F950E1BB5D08CC479E6D02D9ABFF78;4D8BE118532CF35AF5218E2DB571A86E;F;1998;2020-11-30;2020-12-02;Alta Administrativa;2;2020-11-30;Radiologia Geral;Acido Urico, soro;Acido Urico;5.5;mg/dL;2,4 a 5,7;False
5128C5C92AAC18D0533970579E2471AB;C22B43DEFC01E13F73C56280D62D1D3A;F;1994;2020-12-01;2020-12-06;Alta medica melhorado;5;2020-12-01;Unidades de Internacao;Acido Urico;Acido Urico;3.4;mg/dL;2,4 a 5,7;False
5A80D6253DEFE6E608426618C9083FD3;774B1B00C0E680A953D8C8452ECB05DD;F;1973;2020-08-28;2020-09-02;Alta Administrativa;5;2020-08-28;Ultrassonografia - Jardins;Acido Urico, soro;Acido Urico;4.4;mg/dL;2,4 a 5,7;False
6F0A6A0E0839924AD125035171DD456F;8868FDC3A0E8F33E56A81745A733E82B;F;1972;2020-04-08;2020-04-24;Alta medica melhorado;16;2020-04-12;UTI;Acido Urico;Acido Urico;1.4;mg/dL;2,4 a 5,7;True
70CF6011E358D309D29147124AA84538;23480096D535C9D7465057C84A813708;F;1976;2020-07-02;2020-07-04;Alta Administrativa;2;2020-07-02;Pronto Socorro;Acido Urico;Acido Urico;5.0;mg/dL;2,4 a 5,7;False
893EBDEA581022CFF9667B078860BF80;8E3675CABAD64EC8A852E5F5594E1DA8;F;1988;2020-12-03;2020-12-11;Alta medica melhorado;8;2020-12-04;Unidades de Internacao;Acido Urico;Acido Urico;3.7;mg/dL;2,4 a 5,7;False
8B55D53773292E31269ED7CB8F8B8457;98FBB41D14B647290D7BC68B0325B075;F;1984;2020-05-20;2020-05-22;Alta Administrativa;2;2020-05-20;Ultrassonografia;Acido Urico, soro;Acido Urico;5.2;mg/dL;2,4 a 5,7;False
92D97A438C6077DEEC7624134EA7C9D5;4F961CC5F1B2578F029EC93FC3B5D8DB;F;1979;2020-08-31;2020-09-02;Alta Administrativa;2;2020-09-02;Check Up - Itaim;Acido Urico, soro;Acido Urico;3.7;mg/dL;2,4 a 5,7;False
94D3FC92C242927FC6F8C6CD290CF80F;8721945CA57A918A02BB8F5882885356;F;1979;2020-07-28;2020-07-31;Alta Administrativa;3;2020-07-28;Ultrassonografia;Acido Urico, soro;Acido Urico;3.6;mg/dL;2,4 a 5,7;False
C86EB9BAFEEDB686D59461EFBD3AFE26;000A53FD5C1243D786DB1D91A5EDD59F;F;1972;2020-05-22;2020-05-27;Alta Administrativa;5;2020-05-22;Recepcao do Centro Diagnostico;Acido Urico;Acido Urico;5.1;mg/dL;2,4 a 5,7;False
D0C85DCA4A73D3299DBC6ADC46C6118D;34708D2132FBA524F137CD4A341AF9ED;F;1976;2020-04-16;2020-04-22;Alta medica melhorado;6;2020-04-17;Unidades de Internacao;Acido Urico;Acido Urico;3.6;mg/dL;2,4 a 5,7;False
D26DF56D570571922CB87FDA33FB42C3;FB7791F5C9349F498192252D34F933B1;F;1997;2020-05-21;2020-05-26;Alta medica melhorado;5;2020-05-23;Unidades de Internacao;Acido Urico;Acido Urico;1.9;mg/dL;2,4 a 5,7;False
DB70843F11316AE07A957B6D88BF3FB4;7EC72258125F483A54B327F5161F5BE7;F;1987;2020-11-12;2020-11-18;Alta medica melhorado;6;2020-11-12;Unidades de Internacao;Acido Urico;Acido Urico;4.0;mg/dL;2,4 a 5,7;False
E31F663EE708A81F7C5E20755C3CA3AD;9BA637E09A33D8EFBE78187AB5121CD4;F;1979;2020-05-28;2020-06-01;Alta Administrativa;4;2020-05-28;Recepcao do Centro Diagnostico;Acido Urico;Acido Urico;3.2;mg/dL;2,4 a 5,7;False
E82231DF6F6D85038055CDA9A1CA03E5;46A911EF3A14A51A8F1AD65B04966A70;F;1993;2020-11-30;2020-12-11;Alta medica melhorado;11;2020-12-02;Unidades de Internacao;Acido Urico;Acido Urico;4.4;mg/dL;2,4 a 5,7;False
