ID_PACIENTE;ID_ATENDIMENTO;IC_SEXO;aa_nascimento;DT_ATENDIMENTO;DT_DESFECHO;DE_DESFECHO;DAYS;DT_COLETA;DE_ORIGEM;DE_EXAME;DE_ANALITO;DE_RESULTADO;CD_UNIDADE;DE_VALOR_REFERENCIA;OUTLIERS
047309D42D5FEFCFF0AD823EF648E5A2;3C531986319155AD2387CD7D90967E34;M;1992;2020-11-01;2020-11-15;Alta medica melhorado;14;2020-11-01;UTI;Antigeno, Influenza, Teste Rapido (AGINFLU);Influenza A e B - teste rapido;;ng/mL;Negativo;False
049DEE3F068A7E296D556378A6731806;AD3033D4AE8FE0E12DA6869F5DF24829;M;1978;2020-03-24;2020-03-31;Alta por abandono;7;2020-03-27;Unidades de Internacao;Antigeno, Influenza, Teste Rapido (AGINFLU);Influenza A e B - teste rapido;;ng/mL;Negativo;False
0D990EB4DE4DF4E4F588EB482C20DEEB;029CCBF36D29D45399F9D8FFC6E9A110;M;1986;2020-05-09;2020-05-14;Alta medica melhorado;5;2020-05-09;Unidades de Internacao;Antigeno, Influenza, Teste Rapido (AGINFLU);Influenza A e B - teste rapido;;ng/mL;Negativo;False
140377202F1D39D035D73CD231B45D66;BDFC47FAC9C7B50DBBF6B8B286A7F88D;M;1982;2020-04-28;2020-04-30;Alta medica melhorado;2;2020-04-28;Pronto Socorro;Antigeno, Influenza, Teste Rapido (AGINFLU);Influenza A e B - teste rapido;;ng/mL;Negativo;False
2549E5ABD0488101B439882D9DDD282E;CEC4297F5F7F173F41782B050CD27111;M;1996;2020-05-01;2020-05-05;Alta Administrativa;4;2020-05-01;Pronto Socorro;Antigeno, Influenza, Teste Rapido (AGINFLU);Influenza A e B - teste rapido;;ng/mL;Negativo;False
6CC37FC2FED9C431823BB9D6CA40798B;AF9223B5C832C3498379D7C86A207AF5;M;1973;2020-03-19;2020-03-29;Alta medica melhorado;10;2020-03-19;Unidades de Internacao;Antigeno, Influenza, Teste Rapido (AGINFLU);Influenza A e B - teste rapido;;ng/mL;Negativo;False
8D418771A4DC9248AE8E04F451A121F8;D722B5972B89C8688F6AC3178A1617C8;M;1975;2020-07-06;2020-07-13;Alta medica melhorado;7;2020-07-06;Unidades de Internacao;Antigeno, Influenza, Teste Rapido (AGINFLU);Influenza A e B - teste rapido;;ng/mL;Negativo;False
BA8ABA92F34E232FB03FD7628DF87109;AB1848C6A4B66BF02C1E064D18B6E659;M;1981;2020-06-22;2020-07-06;Alta medica melhorado;14;2020-06-22;UTI;Antigeno, Influenza, Teste Rapido (AGINFLU);Influenza A e B - teste rapido;;ng/mL;Negativo;False
BBA5D8471F18BD84FB3A53144B607466;E18058A6D14D4ED6943B3D433BCAC634;M;1972;2020-03-24;2020-04-15;Alta medica melhorado;22;2020-03-24;Unidades de Internacao;Antigeno, Influenza, Teste Rapido (AGINFLU);Influenza A e B - teste rapido;;ng/mL;Negativo;False
D0A8C7D4EE47551EF25B7C43CAED7559;6E12C2392850DE74734F2A47D6C81A6C;M;1987;2020-06-16;2020-06-22;Alta medica melhorado;6;2020-06-16;UTI;Antigeno, Influenza, Teste Rapido (AGINFLU);Influenza A e B - teste rapido;;ng/mL;Negativo;False
D320205DD4E0A8F541DCC04B31BD0C1D;28295886807DB0B36B213D6B88C13136;M;1976;2020-05-06;2020-05-13;Alta medica melhorado;7;2020-05-06;Unidades de Internacao;Antigeno, Influenza, Teste Rapido (AGINFLU);Influenza A e B - teste rapido;;ng/mL;Negativo;False
D9833C43AE13CFD23AD5B0D688F7D31C;980B1244A379800E6489BC1B61D2E591;M;1984;2020-05-01;2020-05-21;Alta medica melhorado;20;2020-05-01;Unidades de Internacao;Antigeno, Influenza, Teste Rapido (AGINFLU);Influenza A e B - teste rapido;;ng/mL;Negativo;False
E32857191989417E4C36C129E3371E05;F7ED5454C58913A6A68E7A9F697475CA;M;1977;2020-06-20;2020-06-26;Alta medica melhorado;6;2020-06-20;Unidades de Internacao;Antigeno, Influenza, Teste Rapido (AGINFLU);Influenza A e B - teste rapido;;ng/mL;Negativo;False
F5147DBA5349666CCE2338A816632097;10A970AEC46B190442D6DDA0114F45B0;M;1975;2020-04-01;2020-04-04;Alta medica melhorado;3;2020-04-01;Unidades de Internacao;Antigeno, Influenza, Teste Rapido (AGINFLU);Influenza A e B - teste rapido;;ng/mL;Negativo;False
