ID_PACIENTE;ID_ATENDIMENTO;IC_SEXO;aa_nascimento;DT_ATENDIMENTO;DT_DESFECHO;DE_DESFECHO;DAYS;DT_COLETA;DE_ORIGEM;DE_EXAME;DE_ANALITO;DE_RESULTADO;CD_UNIDADE;DE_VALOR_REFERENCIA;OUTLIERS
48A1D78BCD7DE2A9CFB9C7FE73B864DE;DE86144CFD4BCB64B9A53FC82AC80BF4;M;1994;2020-04-21;2020-04-23;Alta medica melhorado;2;2020-04-21;Unidades de Internacao;Citomegalovirus (CMV), Sorologia IgG;CMV, IgG;;UA/mL;Ver resultado tradicional;False
52D08F816B29ABCD4FA05EFA0A4B5E22;62B7D13B05955A300AB147EB611784D9;M;1993;2020-03-04;2020-03-07;Alta medica melhorado;3;2020-03-04;Unidades de Internacao;Citomegalovirus (CMV), Sorologia IgG;CMV, IgG;32.0;UA/mL;Ver resultado tradicional;False
5380C23D74E7A745698CADE7FB218456;FF21301DFD82DF0337BBA028988A4762;M;1996;2020-11-14;2020-11-29;Alta medica melhorado;15;2020-11-18;UTI;Citomegalovirus (CMV), Sorologia IgG;CMV, IgG;210.0;UA/mL;Ver resultado tradicional;False
5F5AC03DB40564B6907DFADE9FE2AC10;7647BCD7701A31BA311B2E3FA34B55FD;M;1986;2020-03-20;2020-04-22;Alta medica melhorado;33;2020-04-20;Unidades de Internacao;Citomegalovirus (CMV), Sorologia IgG;CMV, IgG;107.0;UA/mL;Ver resultado tradicional;False
AF513D11AFDA9E48A94836A3F587D9EA;5902E52764E9CBD360069CB5F4B14A3A;M;1981;2020-05-11;2020-05-26;Alta medica melhorado;15;2020-05-16;Unidades de Internacao;Citomegalovirus (CMV), Sorologia IgG;CMV, IgG;200.0;UA/mL;Ver resultado tradicional;False
BC55696360C76C7F68F1CC4C0B8A5F0D;A5A242D0C4884F891108CB51E6FEB585;M;1982;2020-04-27;2020-05-12;Alta medica melhorado;15;2020-04-29;Unidades de Internacao;Citomegalovirus (CMV), Sorologia IgG;CMV, IgG;109.0;UA/mL;Ver resultado tradicional;False
C5478CEF54EF7D3C0AEC5E7C5E942D10;F9B06A7CA110254BAFE448C04F3778A5;M;1975;2020-03-19;2020-04-01;Alta medica melhorado;13;2020-03-19;Unidades de Internacao;Citomegalovirus (CMV), Sorologia IgG;CMV, IgG;68.0;UA/mL;Ver resultado tradicional;False
FDE1E9704B82A4A9F559332B31425EA0;327A240322A89CA0BDB871E95B4A4B90;M;1975;2020-06-26;2020-06-28;Alta medica melhorado;2;2020-06-26;Unidades de Internacao;Citomegalovirus (CMV), Sorologia IgG;CMV, IgG;;UA/mL;Ver resultado tradicional;False
