ID_PACIENTE;ID_ATENDIMENTO;IC_SEXO;aa_nascimento;DT_ATENDIMENTO;DT_DESFECHO;DE_DESFECHO;DAYS;DT_COLETA;DE_ORIGEM;DE_EXAME;DE_ANALITO;DE_RESULTADO;CD_UNIDADE;DE_VALOR_REFERENCIA;OUTLIERS
7CA0608C6989825E7116093AB0CEE6AE;F8A52CF40EB3E2CBCD5AFFAE87F166D7;F;1981;2020-11-15;2020-11-17;Alta medica melhorado;2;2020-11-15;Pronto Socorro;COVID-19-Sorologia IgM e IgG por quimiluminescencia, soro;Covid 19, Anticorpos IgM, Quimiolumin.-Indice;2.3;UA/mL;inferior a 0,8;True
83625D12E4833153D4F62BCD554E6535;A64427064BA09B083D982AB28CED96A3;F;1989;2020-07-29;2020-08-04;Alta medica melhorado;6;2020-08-03;Unidades de Internacao;COVID-19-Sorologia IgM e IgG por quimiluminescencia, soro;Covid 19, Anticorpos IgM, Quimiolumin.-Indice;0.6;UA/mL;inferior a 0,8;False
C24704952B98401BA9F8C9062F81E7FF;E2FD953989F4381155AB27C71729A1FE;F;1972;2020-09-26;2020-10-03;Alta medica melhorado;7;2020-09-26;Unidades de Internacao;COVID-19-Sorologia IgM e IgG por quimiluminescencia, soro;Covid 19, Anticorpos IgM, Quimiolumin.-Indice;0.6;UA/mL;inferior a 0,8;False
CCDE79E1D8F1954DCE5359C7BF22A24C;F03AE0968F51552AB8670BDB5FC0560E;F;1993;2020-11-05;2020-11-11;Alta medica melhorado;6;2020-11-06;Unidades de Internacao;COVID-19-Sorologia IgM e IgG por quimiluminescencia, soro;Covid 19, Anticorpos IgM, Quimiolumin.-Indice;0.8;UA/mL;inferior a 0,8;False
D0CE703784E9C40CCECDF98D4C43AEA8;FD2D3605FAEB2F444906AD09B4D3CC97;F;1975;2020-12-04;2020-12-06;Alta medica melhorado;2;2020-12-04;Unidades de Internacao;COVID-19-Sorologia IgM e IgG por quimiluminescencia, soro;Covid 19, Anticorpos IgM, Quimiolumin.-Indice;0.7;UA/mL;inferior a 0,8;False
E4A97ACABA540D8FF37E1AE2A787FFEF;DA0FB783995FAC0E8D99FFF0ADEE12BE;F;1974;2020-12-10;2020-12-13;Alta medica melhorado;3;2020-12-12;Unidades de Internacao;COVID-19-Sorologia IgM e IgG por quimiluminescencia, soro;Covid 19, Anticorpos IgM, Quimiolumin.-Indice;0.6;UA/mL;inferior a 0,8;False
