ID_PACIENTE;ID_ATENDIMENTO;IC_SEXO;aa_nascimento;DT_ATENDIMENTO;DT_DESFECHO;DE_DESFECHO;DAYS;DT_COLETA;DE_ORIGEM;DE_EXAME;DE_ANALITO;DE_RESULTADO;CD_UNIDADE;DE_VALOR_REFERENCIA;OUTLIERS
047309D42D5FEFCFF0AD823EF648E5A2;3C531986319155AD2387CD7D90967E34;M;1992;2020-11-01;2020-11-15;Alta medica melhorado;14;2020-11-01;UTI;COVID-19-Sorologia IgM e IgG por quimiluminescencia, soro;Covid 19, Anticorpos IgG, Quimiolumin.-Indice;0.1;UA/mL;inferior a 0,8;False
0E1D650DCF4B3778BF749E7D0AEAD337;2CEEBA6C4DDA2A2181967FDA75A5684D;M;1978;2020-09-16;2020-09-24;Alta medica melhorado;8;2020-09-24;Unidades de Internacao;COVID-19-Sorologia IgM e IgG por quimiluminescencia, soro;Covid 19, Anticorpos IgG, Quimiolumin.-Indice;17.3;UA/mL;inferior a 0,8;False
359A0501785DCA37B0C9EB14E72CB191;5D368BE8BF8743102626618C57208DED;M;1974;2020-07-31;2020-08-17;Alta medica melhorado;17;2020-08-17;UTI;COVID-19-Sorologia IgM e IgG por quimiluminescencia, soro;Covid 19, Anticorpos IgG, Quimiolumin.-Indice;29.8;UA/mL;inferior a 0,8;False
3E9A2A991A04F37261A3AAED18DC5DC1;533659910FF867FA0D0E64BCE2C83307;M;1977;2020-11-21;2020-11-29;Alta medica melhorado;8;2020-11-23;Unidades de Internacao;COVID-19-Sorologia IgM e IgG por quimiluminescencia, soro;Covid 19, Anticorpos IgG, Quimiolumin.-Indice;18.7;UA/mL;inferior a 0,8;False
3FC618E35CE334C0BB939DCA3819CBD5;7F74737C9274988A6641ED16F14999CE;M;1988;2020-09-24;2020-10-05;Alta medica melhorado;11;2020-10-01;UTI;COVID-19-Sorologia IgM e IgG por quimiluminescencia, soro;Covid 19, Anticorpos IgG, Quimiolumin.-Indice;0.6;UA/mL;inferior a 0,8;False
5380C23D74E7A745698CADE7FB218456;FF21301DFD82DF0337BBA028988A4762;M;1996;2020-11-14;2020-11-29;Alta medica melhorado;15;2020-11-18;UTI;COVID-19-Sorologia IgM e IgG por quimiluminescencia, soro;Covid 19, Anticorpos IgG, Quimiolumin.-Indice;0.1;UA/mL;inferior a 0,8;False
65A1797670A470119E8A2909164BBD0C;CAEC7A3644E047A5226D0AF1B34DABF9;M;1973;2020-08-10;2020-08-21;Alta medica melhorado;11;2020-08-20;UTI;COVID-19-Sorologia IgM e IgG por quimiluminescencia, soro;Covid 19, Anticorpos IgG, Quimiolumin.-Indice;19.1;UA/mL;inferior a 0,8;False
71A95C40D67FC91FFED0098A3627ABB3;C170DA0CCFFF3310662B047AE1ED6BCC;M;2000;2020-11-30;2020-12-04;Alta Administrativa;4;2020-12-04;Centro de Oncologia;COVID-19-Sorologia IgM e IgG por quimiluminescencia, soro;Covid 19, Anticorpos IgG, Quimiolumin.-Indice;0.1;UA/mL;inferior a 0,8;False
723853572406F1C41DC38DDFD184D428;D3524E8AB15060A0B2B54C19725DF7B4;M;1983;2020-08-17;2020-08-20;Alta medica melhorado;3;2020-08-18;Unidades de Internacao;COVID-19-Sorologia IgM e IgG por quimiluminescencia, soro;Covid 19, Anticorpos IgG, Quimiolumin.-Indice;1.2;UA/mL;inferior a 0,8;False
8C1CCAC70235541BCE271FA2EB28D797;E4FEECFF2FF0D891EE8EFAF1EFC05192;M;1972;2020-08-17;2020-08-27;Alta medica melhorado;10;2020-08-27;UTI;COVID-19-Sorologia IgM e IgG por quimiluminescencia, soro;Covid 19, Anticorpos IgG, Quimiolumin.-Indice;11.2;UA/mL;inferior a 0,8;False
8D80443957B88EB53A5072036AD6488A;31E1B03E21E9F9FD4561AD7FB139E94F;M;1990;2020-11-08;2020-11-11;Alta medica melhorado;3;2020-11-10;Unidades de Internacao;COVID-19-Sorologia IgM e IgG por quimiluminescencia, soro;Covid 19, Anticorpos IgG, Quimiolumin.-Indice;1.2;UA/mL;inferior a 0,8;False
9F0062E1BD4A5603EBAF4593C7866332;A13779924543E5A8F2125C7B4DF07940;M;1985;2020-07-18;2020-07-22;Alta medica melhorado;4;2020-07-21;UTI;COVID-19-Sorologia IgM e IgG por quimiluminescencia, soro;Covid 19, Anticorpos IgG, Quimiolumin.-Indice;33.6;UA/mL;inferior a 0,8;False
BEBA451E2C91A4D869D14EE790FE78FD;F00A8B071066A41020B80A1F2F590663;M;1972;2020-05-30;2020-06-01;Alta medica melhorado;2;2020-05-31;UTI;COVID-19-Sorologia IgM e IgG por quimiluminescencia, soro;Covid 19, Anticorpos IgG, Quimiolumin.-Indice;0.1;UA/mL;inferior a 0,8;False
C4DD39FE77D86BE0C208033AF918795A;98D8710E06AFD9CD4CB8DD68FD31549E;M;1993;2020-04-29;2020-05-23;Alta medica melhorado;24;2020-05-22;Unidades de Internacao;COVID-19-Sorologia IgM e IgG por quimiluminescencia, soro;Covid 19, Anticorpos IgG, Quimiolumin.-Indice;10.4;UA/mL;inferior a 0,8;False
C7B5F4F4EA9F6E8A25056B097827FB07;0F9972F88FF390325B06986CBFF311FC;M;1973;2020-09-17;2020-09-19;Alta medica melhorado;2;2020-09-17;Unidades de Internacao;COVID-19-Sorologia IgM e IgG por quimiluminescencia, soro;Covid 19, Anticorpos IgG, Quimiolumin.-Indice;0.1;UA/mL;inferior a 0,8;False
CB38AD7D77DBB0AA017BFF94916FC74B;4F4BAADFC703DC0EB5734CA5ADDBA415;M;1973;2020-05-26;2020-06-05;Alta medica melhorado;10;2020-06-04;Unidades de Internacao;COVID-19-Sorologia IgM e IgG por quimiluminescencia, soro;Covid 19, Anticorpos IgG, Quimiolumin.-Indice;11.2;UA/mL;inferior a 0,8;False
