ID_PACIENTE;ID_ATENDIMENTO;IC_SEXO;aa_nascimento;DT_ATENDIMENTO;DT_DESFECHO;DE_DESFECHO;DAYS;DT_COLETA;DE_ORIGEM;DE_EXAME;DE_ANALITO;DE_RESULTADO;CD_UNIDADE;DE_VALOR_REFERENCIA;OUTLIERS
035DBD28881B01653BB23C5EC4EB78B5;209DC473A96FA8B356F8F0CF340058BA;M;1972;2020-11-13;2020-11-18;Alta medica melhorado;5;2020-11-13;Unidades de Internacao;Creatinofosfoquinase - CK-MB;CK-MB;1.0;ng/mL;inferior a 5,0;False
03F88C460CB54521F2310AB3663708F2;040A11F1E0218F09BBF2A7298E7BA49B;M;1976;2020-05-11;2020-05-18;Alta medica melhorado;7;2020-05-12;Unidades de Internacao;Creatinofosfoquinase - CK-MB;CK-MB;1.1;ng/mL;inferior a 5,0;False
047309D42D5FEFCFF0AD823EF648E5A2;F01BA36F5423E8E6BA23B0CFEAAF618B;M;1992;2020-10-17;2020-10-24;Alta medica melhorado;7;2020-10-17;Unidades de Internacao;Creatinofosfoquinase - CK-MB;CK-MB;0.7;ng/mL;inferior a 5,0;False
0B13120E7B38BC22BA4E127465B9CCB0;9FE813AA4DBE64E947EA0A71F87881DE;M;1973;2020-08-01;2020-09-16;Alta medica melhorado;46;2020-08-01;UTI;Creatinofosfoquinase - CK-MB;CK-MB;1.9;ng/mL;inferior a 5,0;False
0D4733F052B0260DB660884992D7402A;1511DBC83E99C22B39086BD8D2A22B0A;M;1975;2020-11-11;2020-11-23;Alta medica melhorado;12;2020-11-11;Unidades de Internacao;Creatinofosfoquinase - CK-MB;CK-MB;0.4;ng/mL;inferior a 5,0;False
0D990EB4DE4DF4E4F588EB482C20DEEB;029CCBF36D29D45399F9D8FFC6E9A110;M;1986;2020-05-09;2020-05-14;Alta medica melhorado;5;2020-05-09;Unidades de Internacao;Creatinofosfoquinase - CK-MB;CK-MB;2.5;ng/mL;inferior a 5,0;True
10357584BCAB138E5845DA86DA057AE0;47B0DF6DC6A718AAF4EFC9D4EAECD0CB;M;1981;2020-10-22;2020-10-26;Alta medica melhorado;4;2020-10-22;UTI;Creatinofosfoquinase - CK-MB;CK-MB;0.3;ng/mL;inferior a 5,0;False
10357584BCAB138E5845DA86DA057AE0;47B0DF6DC6A718AAF4EFC9D4EAECD0CB;M;1981;2020-10-22;2020-10-26;Alta medica melhorado;4;2020-10-25;UTI;Creatinofosfoquinase - CK-MB;CK-MB;0.6;ng/mL;inferior a 5,0;False
10F6983D71BEA947C8E6BCE14A54D954;BF9762B1CC13AFB3C2C56370BB395620;M;1985;2020-05-30;2020-06-06;Alta medica melhorado;7;2020-05-31;Unidades de Internacao;Creatinofosfoquinase - CK-MB;CK-MB;0.4;ng/mL;inferior a 5,0;False
1860793E563F51F9C54FCBEC136AC212;E210808343F3E1DBEA929CFE42C26652;M;1977;2020-12-16;2020-12-23;Alta medica melhorado;7;2020-12-16;Unidades de Internacao;Creatinofosfoquinase - CK-MB;CK-MB;1.2;ng/mL;inferior a 5,0;False
1A9847F95F2853E73C897185CEB46A9E;118A2E7A5EFF07C553A317FD68616536;M;1982;2020-12-04;2020-12-18;Alta medica melhorado;14;2020-12-16;UTI;Creatinofosfoquinase - CK-MB;CK-MB;1.4;ng/mL;inferior a 5,0;False
1BB3B4F98ECF181E3E71EBD2743E69A7;A973EE096F5A17E5EAA6778939355926;M;1972;2020-11-10;2020-11-22;Alta medica melhorado;12;2020-11-11;UTI;Creatinofosfoquinase - CK-MB;CK-MB;0.8;ng/mL;inferior a 5,0;False
28BD41C4D960AE0D4860DF69F55FFE8E;339CE234AC95D2AF6C6E1B228DC8D602;M;1991;2020-04-24;2020-04-27;Alta medica melhorado;3;2020-04-25;Unidades de Internacao;Creatinofosfoquinase - CK-MB;CK-MB;1.1;ng/mL;inferior a 5,0;False
2A3EC7F278955348DD9FAF23BA680B49;8CEB3B36089FFB12026FFB729774A538;M;1978;2020-10-20;2020-11-04;Alta medica melhorado;15;2020-10-25;UTI;Creatinofosfoquinase - CK-MB;CK-MB;0.6;ng/mL;inferior a 5,0;False
312C3ACC5DF34BF537CBA7F3F02F27DD;414A0F1839C73C251014B9418E3DC86D;M;1977;2020-10-10;2020-10-18;Alta medica melhorado;8;2020-10-13;Unidades de Internacao;Creatinofosfoquinase - CK-MB;CK-MB;0.8;ng/mL;inferior a 5,0;False
3400179DE31CD28E6DD1D2368A7304DC;A5D6E758FF32B7CB34C9AF628636FA81;M;1974;2020-12-07;2020-12-09;Alta medica melhorado;2;2020-12-07;Unidades de Internacao;Creatinofosfoquinase - CK-MB;CK-MB;0.7;ng/mL;inferior a 5,0;False
388775F5D2E2345159A6B175C0B0949C;0DD26CB1CC068B4EB7939CB34C643245;M;1979;2020-09-18;2020-09-26;Alta medica melhorado;8;2020-09-20;UTI;Creatinofosfoquinase - CK-MB;CK-MB;7.8;ng/mL;inferior a 5,0;True
4395F383378570313D3D90E53EE5FF97;D4F5BBBFDABF682F7B111BB2A3352346;M;1981;2020-11-23;2020-11-25;Alta medica melhorado;2;2020-11-23;Unidades de Internacao;Creatinofosfoquinase - CK-MB;CK-MB;1.2;ng/mL;inferior a 5,0;False
4AD7B823E33E91F464EC0B3C88EA42E5;84E6AA481402E87E8CAB9C4C2326E407;M;1975;2020-06-30;2020-07-11;Alta medica melhorado;11;2020-06-30;Unidades de Internacao;Creatinofosfoquinase - CK-MB;CK-MB;0.7;ng/mL;inferior a 5,0;False
4DB65F4B4507E342776AB2282B3A3C3B;1523ECA203CF3E32898A31CEA25A9DAF;M;1986;2020-07-07;2020-07-27;Alta medica melhorado;20;2020-07-07;Unidades de Internacao;Creatinofosfoquinase - CK-MB;CK-MB;4.9;ng/mL;inferior a 5,0;True
4DB65F4B4507E342776AB2282B3A3C3B;E2BF4EFB54EF96394C5316AC9053B734;M;1986;2020-09-14;2020-09-19;Alta Administrativa;5;2020-09-19;Hemodialise;Creatinofosfoquinase - CK-MB;CK-MB;2.1;ng/mL;inferior a 5,0;False
512D9396798DD0172B614F4CBC4BCA26;CC6817534979A6C65DA83A9CAC00FBB6;M;1974;2020-03-27;2020-04-04;Alta medica melhorado;8;2020-04-02;Unidades de Internacao;Creatinofosfoquinase - CK-MB;CK-MB;0.5;ng/mL;inferior a 5,0;False
512D9396798DD0172B614F4CBC4BCA26;CC6817534979A6C65DA83A9CAC00FBB6;M;1974;2020-03-27;2020-04-04;Alta medica melhorado;8;2020-03-29;Unidades de Internacao;Creatinofosfoquinase - CK-MB;CK-MB;0.5;ng/mL;inferior a 5,0;False
5380C23D74E7A745698CADE7FB218456;FF21301DFD82DF0337BBA028988A4762;M;1996;2020-11-14;2020-11-29;Alta medica melhorado;15;2020-11-17;Unidades de Internacao;Creatinofosfoquinase - CK-MB;CK-MB;0.6;ng/mL;inferior a 5,0;False
663F7565BD4CEE5358C77AE85156C70C;8A68C618213C65A53CF98F98CC2BE8EA;M;1995;2020-06-05;2020-06-11;Alta medica melhorado;6;2020-06-05;Pronto Socorro;Creatinofosfoquinase - CK-MB;CK-MB;1.0;ng/mL;inferior a 5,0;False
6A0F152CFA8FC4FCC3B316344AE1D921;24B33251FB66EC9CD1CB595CB8D234AC;M;1981;2020-10-28;2020-10-30;Alta medica melhorado;2;2020-10-28;Unidades de Internacao;Creatinofosfoquinase - CK-MB;CK-MB;0.8;ng/mL;inferior a 5,0;False
6CC37FC2FED9C431823BB9D6CA40798B;AF9223B5C832C3498379D7C86A207AF5;M;1973;2020-03-19;2020-03-29;Alta medica melhorado;10;2020-03-19;Unidades de Internacao;Creatinofosfoquinase - CK-MB;CK-MB;0.8;ng/mL;inferior a 5,0;False
7507DC8F9C3FBBC321718AF9D9DB4827;5F9E098CBC4D2EF7DDB243804095131A;M;1983;2020-07-02;2020-07-19;Alta Administrativa;17;2020-07-03;Unidades de Internacao;Creatinofosfoquinase - CK-MB;CK-MB;0.8;ng/mL;inferior a 5,0;False
77F68CC16EC923772C068A18CF4801D2;691644A3F4DC55291AF3AC958F6A8CAE;M;1973;2020-05-02;2020-05-08;Alta medica melhorado;6;2020-05-02;Unidades de Internacao;Creatinofosfoquinase - CK-MB;CK-MB;0.7;ng/mL;inferior a 5,0;False
8C795BCB8461CE7487B992A48D1DD0DA;978DB5890EB4D30B77DD7361CEA74144;M;1974;2020-08-19;2020-08-21;Alta medica melhorado;2;2020-08-19;Unidades de Internacao;Creatinofosfoquinase - CK-MB;CK-MB;1.2;ng/mL;inferior a 5,0;False
8D418771A4DC9248AE8E04F451A121F8;D722B5972B89C8688F6AC3178A1617C8;M;1975;2020-07-06;2020-07-13;Alta medica melhorado;7;2020-07-06;Unidades de Internacao;Creatinofosfoquinase - CK-MB;CK-MB;2.3;ng/mL;inferior a 5,0;True
9FB5AFB7FC246D769718BB727CE615B8;525C9B824A6301BB8CB53D65C0A8982F;M;1974;2020-07-03;2020-07-09;Alta medica melhorado;6;2020-07-03;Unidades de Internacao;Creatinofosfoquinase - CK-MB;CK-MB;2.0;ng/mL;inferior a 5,0;False
A99BABE48B8F8B33656AB167A861C59C;EEE9A893341E0EFCBA88080C3928C634;M;1978;2020-09-28;2020-10-06;Alta medica melhorado;8;2020-09-29;UTI;Creatinofosfoquinase - CK-MB;CK-MB;0.3;ng/mL;inferior a 5,0;False
B244AA758DD8D29269F83900272C568B;4A3373A7CBB26400FB68A830EC0F7618;M;1975;2020-04-13;2020-04-15;Alta medica melhorado;2;2020-04-13;Unidades de Internacao;Creatinofosfoquinase - CK-MB;CK-MB;0.7;ng/mL;inferior a 5,0;False
C21303F9098C9439B2BF0FF73A268D95;15A5BC655B19C0D63866052823A9D7EB;M;1973;2020-05-30;2020-06-06;Alta medica melhorado;7;2020-05-30;Unidades de Internacao;Creatinofosfoquinase - CK-MB;CK-MB;0.9;ng/mL;inferior a 5,0;False
C4DD39FE77D86BE0C208033AF918795A;98D8710E06AFD9CD4CB8DD68FD31549E;M;1993;2020-04-29;2020-05-23;Alta medica melhorado;24;2020-05-06;UTI;Creatinofosfoquinase - CK-MB;CK-MB;3.5;ng/mL;inferior a 5,0;True
C5478CEF54EF7D3C0AEC5E7C5E942D10;F9B06A7CA110254BAFE448C04F3778A5;M;1975;2020-03-19;2020-04-01;Alta medica melhorado;13;2020-03-26;Unidades de Internacao;Creatinofosfoquinase - CK-MB;CK-MB;0.8;ng/mL;inferior a 5,0;False
C6251C08399C03360AE05CB45F6ECBFB;C33E88D1035B90665A8483846762D961;M;1974;2020-05-02;2020-05-14;Alta medica melhorado;12;2020-05-02;Unidades de Internacao;Creatinofosfoquinase - CK-MB;CK-MB;1.4;ng/mL;inferior a 5,0;False
CC987A7148C95049E9EAFB0B102C38B6;E0AE00FAA6963EC273C6F2836F51C53A;M;1986;2020-05-04;2020-05-09;Alta medica melhorado;5;2020-05-04;Pronto Socorro;Creatinofosfoquinase - CK-MB;CK-MB;0.4;ng/mL;inferior a 5,0;False
CC987A7148C95049E9EAFB0B102C38B6;E0AE00FAA6963EC273C6F2836F51C53A;M;1986;2020-05-04;2020-05-09;Alta medica melhorado;5;2020-05-06;Unidades de Internacao;Creatinofosfoquinase - CK-MB;CK-MB;0.3;ng/mL;inferior a 5,0;False
CC987A7148C95049E9EAFB0B102C38B6;E0AE00FAA6963EC273C6F2836F51C53A;M;1986;2020-05-04;2020-05-09;Alta medica melhorado;5;2020-05-08;Unidades de Internacao;Creatinofosfoquinase - CK-MB;CK-MB;0.4;ng/mL;inferior a 5,0;False
CE4F5CAD548B4ECEDB249FE8234ACC19;7206470A9F6F5F435979A6C71A1BF707;M;1980;2020-03-26;2020-04-13;Alta medica melhorado;18;2020-03-28;Unidades de Internacao;Creatinofosfoquinase - CK-MB;CK-MB;1.8;ng/mL;inferior a 5,0;False
D0A8C7D4EE47551EF25B7C43CAED7559;6E12C2392850DE74734F2A47D6C81A6C;M;1987;2020-06-16;2020-06-22;Alta medica melhorado;6;2020-06-16;UTI;Creatinofosfoquinase - CK-MB;CK-MB;0.8;ng/mL;inferior a 5,0;False
D8719DD3838FABA9B22646221CB2098D;CCFAFC7F2AC8B98B93190FA26936BB78;M;1983;2020-08-26;2020-08-31;Alta medica melhorado;5;2020-08-26;Unidades de Internacao;Creatinofosfoquinase - CK-MB;CK-MB;0.4;ng/mL;inferior a 5,0;False
E32857191989417E4C36C129E3371E05;F7ED5454C58913A6A68E7A9F697475CA;M;1977;2020-06-20;2020-06-26;Alta medica melhorado;6;2020-06-24;Unidades de Internacao;Creatinofosfoquinase - CK-MB;CK-MB;0.6;ng/mL;inferior a 5,0;False
E8B257CD19D78900C73F248B342A2AB7;5F9CEA0D368E4C8DA53613629B0B638A;M;1974;2020-05-19;2020-05-28;Alta medica melhorado;9;2020-05-19;UTI;Creatinofosfoquinase - CK-MB;CK-MB;0.9;ng/mL;inferior a 5,0;False
F883E0D24A78B0F05DA41C6DAB3C54BB;D7BEF14602F56D6B4EDFF8641BFBBB41;M;1976;2020-08-17;2020-09-07;Alta medica melhorado;21;2020-08-21;UTI;Creatinofosfoquinase - CK-MB;CK-MB;1.6;ng/mL;inferior a 5,0;False
FACA2D3CAD7DE512DFC6A52F652B25A4;2B29D7D4C13F97DA30F08952367A4DDF;M;1973;2020-03-26;2020-03-31;Alta medica curado;5;2020-03-27;Unidades de Internacao;Creatinofosfoquinase - CK-MB;CK-MB;0.9;ng/mL;inferior a 5,0;False
