ID_PACIENTE;ID_ATENDIMENTO;IC_SEXO;aa_nascimento;DT_ATENDIMENTO;DT_DESFECHO;DE_DESFECHO;DAYS;DT_COLETA;DE_ORIGEM;DE_EXAME;DE_ANALITO;DE_RESULTADO;CD_UNIDADE;DE_VALOR_REFERENCIA;OUTLIERS
10F6983D71BEA947C8E6BCE14A54D954;BF9762B1CC13AFB3C2C56370BB395620;M;1985;2020-05-30;2020-06-06;Alta medica melhorado;7;2020-05-30;Unidades de Internacao;Dengue, antigeno NS1, soro, teste rapido;Dengue, antigeno NS1;;ng/mL;Nao reagente;False
140377202F1D39D035D73CD231B45D66;BDFC47FAC9C7B50DBBF6B8B286A7F88D;M;1982;2020-04-28;2020-04-30;Alta medica melhorado;2;2020-04-28;Pronto Socorro;Dengue, antigeno NS1, soro, teste rapido;Dengue, antigeno NS1;;ng/mL;Nao reagente;False
48A1D78BCD7DE2A9CFB9C7FE73B864DE;DE86144CFD4BCB64B9A53FC82AC80BF4;M;1994;2020-04-21;2020-04-23;Alta medica melhorado;2;2020-04-21;Unidades de Internacao;Dengue, antigeno NS1, soro, teste rapido;Dengue, antigeno NS1;;ng/mL;Nao reagente;False
52D08F816B29ABCD4FA05EFA0A4B5E22;62B7D13B05955A300AB147EB611784D9;M;1993;2020-03-04;2020-03-07;Alta medica melhorado;3;2020-03-04;Unidades de Internacao;Dengue, antigeno NS1, soro, teste rapido;Dengue, antigeno NS1;;ng/mL;Nao reagente;False
58FDE7E201CEC6A53EC0F82353C3F31D;98EC11D77B354F9FAC7FD6881FB0256E;M;1974;2020-06-15;2020-08-12;Alta medica melhorado;58;2020-06-16;UTI;Dengue, antigeno NS1, soro, teste rapido;Dengue, antigeno NS1;;ng/mL;Nao reagente;False
65A1797670A470119E8A2909164BBD0C;CAEC7A3644E047A5226D0AF1B34DABF9;M;1973;2020-08-10;2020-08-21;Alta medica melhorado;11;2020-08-10;UTI;Dengue, antigeno NS1, soro, teste rapido;Dengue, antigeno NS1;;ng/mL;Nao reagente;False
663F7565BD4CEE5358C77AE85156C70C;8A68C618213C65A53CF98F98CC2BE8EA;M;1995;2020-06-05;2020-06-11;Alta medica melhorado;6;2020-06-06;Unidades de Internacao;Dengue, antigeno NS1, soro, teste rapido;Dengue, antigeno NS1;;ng/mL;Nao reagente;False
78D228D2884D2F1B6C6E3995C97B12AF;F6ED3447F2BE5538DC60A9AF2CE64CE8;M;1980;2020-08-13;2020-08-17;Alta medica melhorado;4;2020-08-14;Unidades de Internacao;Dengue, antigeno NS1, soro, teste rapido;Dengue, antigeno NS1;;ng/mL;Nao reagente;False
790ED1BEE3AD2743D6CC1E384844E041;7F718C6073E308D53DB1E32BAB24995B;M;1991;2020-07-10;2020-07-26;Alta medica melhorado;16;2020-07-10;Pronto Socorro;Dengue, antigeno NS1, soro, teste rapido;Dengue, antigeno NS1;;ng/mL;Nao reagente;False
BA8ABA92F34E232FB03FD7628DF87109;AB1848C6A4B66BF02C1E064D18B6E659;M;1981;2020-06-22;2020-07-06;Alta medica melhorado;14;2020-06-22;UTI;Dengue, antigeno NS1, soro, teste rapido;Dengue, antigeno NS1;;ng/mL;Nao reagente;False
D320205DD4E0A8F541DCC04B31BD0C1D;28295886807DB0B36B213D6B88C13136;M;1976;2020-05-06;2020-05-13;Alta medica melhorado;7;2020-05-06;Unidades de Internacao;Dengue, antigeno NS1, soro, teste rapido;Dengue, antigeno NS1;;ng/mL;Nao reagente;False
FDE1E9704B82A4A9F559332B31425EA0;327A240322A89CA0BDB871E95B4A4B90;M;1975;2020-06-26;2020-06-28;Alta medica melhorado;2;2020-06-26;Unidades de Internacao;Dengue, antigeno NS1, soro, teste rapido;Dengue, antigeno NS1;;ng/mL;Nao reagente;False
