ID_PACIENTE;ID_ATENDIMENTO;IC_SEXO;aa_nascimento;DT_ATENDIMENTO;DT_DESFECHO;DE_DESFECHO;DAYS;DT_COLETA;DE_ORIGEM;DE_EXAME;DE_ANALITO;DE_RESULTADO;CD_UNIDADE;DE_VALOR_REFERENCIA;OUTLIERS
6960A46A81F18DECDF6CC84FC6C568B8;9325143D465E0F78800C8FAAD9D8925F;F;1977;2020-06-16;2020-06-21;Alta medica melhorado;5;2020-06-17;Unidades de Internacao;Eletroforese de Proteinas;Eletro - Albumina/Gl;1.4;g/dL;0,9 a 2,0;False
6F0A6A0E0839924AD125035171DD456F;8868FDC3A0E8F33E56A81745A733E82B;F;1972;2020-04-08;2020-04-24;Alta medica melhorado;16;2020-04-13;UTI;Eletroforese de Proteinas;Eletro - Albumina/Gl;1.1;g/dL;0,9 a 2,0;True
7B4B5622119E554F2132513624E95BE8;BE22D02D411F48EC9B6B35D954FF7D21;F;1998;2020-12-07;2020-12-18;Alta Administrativa;11;2020-12-08;Hemodialise;Eletroforese de Proteinas;Eletro - Albumina/Gl;1.4;g/dL;0,9 a 2,0;False
7B4B5622119E554F2132513624E95BE8;EEAFC1C59CA688671FF6D3C63AE58BDD;F;1998;2020-11-07;2020-12-01;Alta medica melhorado;24;2020-11-07;UTI;Eletroforese de Proteinas;Eletro - Albumina/Gl;0.8;g/dL;0,9 a 2,0;True
893EBDEA581022CFF9667B078860BF80;8E3675CABAD64EC8A852E5F5594E1DA8;F;1988;2020-12-03;2020-12-11;Alta medica melhorado;8;2020-12-04;Unidades de Internacao;Eletroforese de Proteinas;Eletro - Albumina/Gl;1.5;g/dL;0,9 a 2,0;False
8F3903E17E6278D42BBD37AD7BAD65DF;A5C8A8E19B05B52B23EECFE2D1B4D19C;F;1981;2020-03-30;2020-04-04;Alta Administrativa;5;2020-04-01;Hemodialise;Eletroforese de Proteinas;Eletro - Albumina/Gl;1.6;g/dL;0,9 a 2,0;True
B63DA2E7EA3F8C6A33CBE86AB6042416;C589E76A0ECC6B4E671D620D1E2BECC4;F;1994;2020-09-27;2020-10-02;Alta medica melhorado;5;2020-09-27;Unidades de Internacao;Eletroforese de Proteinas;Eletro - Albumina/Gl;1.4;g/dL;0,9 a 2,0;False
E4A97ACABA540D8FF37E1AE2A787FFEF;DA0FB783995FAC0E8D99FFF0ADEE12BE;F;1974;2020-12-10;2020-12-13;Alta medica melhorado;3;2020-12-10;Unidades de Internacao;Eletroforese de Proteinas;Eletro - Albumina/Gl;1.3;g/dL;0,9 a 2,0;False
E82231DF6F6D85038055CDA9A1CA03E5;46A911EF3A14A51A8F1AD65B04966A70;F;1993;2020-11-30;2020-12-11;Alta medica melhorado;11;2020-12-02;Unidades de Internacao;Eletroforese de Proteinas;Eletro - Albumina/Gl;1.3;g/dL;0,9 a 2,0;False
