ID_PACIENTE;ID_ATENDIMENTO;IC_SEXO;aa_nascimento;DT_ATENDIMENTO;DT_DESFECHO;DE_DESFECHO;DAYS;DT_COLETA;DE_ORIGEM;DE_EXAME;DE_ANALITO;DE_RESULTADO;CD_UNIDADE;DE_VALOR_REFERENCIA;OUTLIERS
16DC5FD5028117F305076A30074F7FD5;BA5D3DDEAD49ABDC1C73FA5F0401C862;M;1980;2020-10-05;2020-10-07;Alta medica melhorado;2;2020-10-06;Unidades de Internacao;Eletroforese de Proteinas;Eletro - Beta 1 glob;0.39;g/dL;0,32 a 0,54;False
495E67D109A9233DA13660CF0C909071;6349D9F5C9386E2E61F1E23131A2931F;M;1992;2020-07-25;2020-09-02;Alta Administrativa;39;2020-08-01;Centro de Infusao ;Eletroforese de Proteinas;Eletro - Beta 1 glob;0.33;g/dL;0,32 a 0,54;False
495E67D109A9233DA13660CF0C909071;DAFAB51535E55D1AF768269B37CE0BF8;M;1992;2020-04-18;2020-04-21;Alta medica melhorado;3;2020-04-19;Unidades de Internacao;Eletroforese de Proteinas;Eletro - Beta 1 glob;0.28;g/dL;0,32 a 0,54;False
4DB65F4B4507E342776AB2282B3A3C3B;5BDC10649AAEA6BFE6C1F1932FB3C7B8;M;1986;2020-11-30;2020-12-05;Alta Administrativa;5;2020-12-02;Hemodialise;Eletroforese de Proteinas;Eletro - Beta 1 glob;0.4;g/dL;0,32 a 0,54;False
4DB65F4B4507E342776AB2282B3A3C3B;7038EC7F1128A749071C4913AEAE96C0;M;1986;2020-10-05;2020-10-10;Alta Administrativa;5;2020-10-08;Hemodialise;Eletroforese de Proteinas;Eletro - Beta 1 glob;0.41;g/dL;0,32 a 0,54;False
4DB65F4B4507E342776AB2282B3A3C3B;ADB3FFE072FCE1B4A0D56AA040FF9659;M;1986;2020-08-03;2020-08-08;Alta Administrativa;5;2020-08-06;Hemodialise;Eletroforese de Proteinas;Eletro - Beta 1 glob;0.31;g/dL;0,32 a 0,54;False
5380C23D74E7A745698CADE7FB218456;FF21301DFD82DF0337BBA028988A4762;M;1996;2020-11-14;2020-11-29;Alta medica melhorado;15;2020-11-19;UTI;Eletroforese de Proteinas;Eletro - Beta 1 glob;0.28;g/dL;0,32 a 0,54;False
665D839E4937E1559AF9EEA0BD6772D4;70F832978C7810ADBBEC5B951FBE108C;M;1992;2020-09-30;2020-10-07;Alta Administrativa;7;2020-10-02;Oncologia Clinica - Itaim;Eletroforese de Proteinas;Eletro - Beta 1 glob;0.39;g/dL;0,32 a 0,54;False
8C795BCB8461CE7487B992A48D1DD0DA;978DB5890EB4D30B77DD7361CEA74144;M;1974;2020-08-19;2020-08-21;Alta medica melhorado;2;2020-08-19;Unidades de Internacao;Eletroforese de Proteinas;Eletro - Beta 1 glob;0.38;g/dL;0,32 a 0,54;False
C7B5F4F4EA9F6E8A25056B097827FB07;0F9972F88FF390325B06986CBFF311FC;M;1973;2020-09-17;2020-09-19;Alta medica melhorado;2;2020-09-18;Unidades de Internacao;Eletroforese de Proteinas;Eletro - Beta 1 glob;0.38;g/dL;0,32 a 0,54;False
D73C3D1EBC3E359A8E53935B50CBF052;75A89BE4BDB9C21EFC1F3F9B48FA2359;M;1974;2020-12-07;2020-12-15;Alta medica melhorado;8;2020-12-09;UTI;Eletroforese de Proteinas;Eletro - Beta 1 glob;0.32;g/dL;0,32 a 0,54;False
FACA2D3CAD7DE512DFC6A52F652B25A4;340535759712E53FA8DE06ACF32105DE;M;1973;2020-05-02;2020-05-09;Alta medica melhorado;7;2020-05-04;Unidades de Internacao;Eletroforese de Proteinas;Eletro - Beta 1 glob;0.38;g/dL;0,32 a 0,54;False
