ID_PACIENTE;ID_ATENDIMENTO;IC_SEXO;aa_nascimento;DT_ATENDIMENTO;DT_DESFECHO;DE_DESFECHO;DAYS;DT_COLETA;DE_ORIGEM;DE_EXAME;DE_ANALITO;DE_RESULTADO;CD_UNIDADE;DE_VALOR_REFERENCIA;OUTLIERS
16DC5FD5028117F305076A30074F7FD5;BA5D3DDEAD49ABDC1C73FA5F0401C862;M;1980;2020-10-05;2020-10-07;Alta medica melhorado;2;2020-10-06;Unidades de Internacao;Fator Reumatoide (Latex);Fator Reumatoide;;UI/mL;inferior a 20;False
5380C23D74E7A745698CADE7FB218456;FF21301DFD82DF0337BBA028988A4762;M;1996;2020-11-14;2020-11-29;Alta medica melhorado;15;2020-11-19;UTI;Fator Reumatoide (Latex);Fator Reumatoide;;UI/mL;inferior a 20;False
8C795BCB8461CE7487B992A48D1DD0DA;978DB5890EB4D30B77DD7361CEA74144;M;1974;2020-08-19;2020-08-21;Alta medica melhorado;2;2020-08-19;Unidades de Internacao;Fator Reumatoide (Latex);Fator Reumatoide;;UI/mL;inferior a 20;False
C7B5F4F4EA9F6E8A25056B097827FB07;0F9972F88FF390325B06986CBFF311FC;M;1973;2020-09-17;2020-09-19;Alta medica melhorado;2;2020-09-18;Unidades de Internacao;Fator Reumatoide (Latex);Fator Reumatoide;;UI/mL;inferior a 20;False
F7BF7C1E1E101400B17F53A5EA43886A;2A2F022FB7BF477BF7C9E6CED3675DB8;M;1975;2020-11-28;2020-12-06;Alta medica melhorado;8;2020-12-04;Unidades de Internacao;Fator Reumatoide (Latex);Fator Reumatoide;;UI/mL;inferior a 20;False
FACA2D3CAD7DE512DFC6A52F652B25A4;340535759712E53FA8DE06ACF32105DE;M;1973;2020-05-02;2020-05-09;Alta medica melhorado;7;2020-05-04;Unidades de Internacao;Fator Reumatoide (Latex);Fator Reumatoide;33.0;UI/mL;inferior a 20;False
