ID_PACIENTE;ID_ATENDIMENTO;IC_SEXO;aa_nascimento;DT_ATENDIMENTO;DT_DESFECHO;DE_DESFECHO;DAYS;DT_COLETA;DE_ORIGEM;DE_EXAME;DE_ANALITO;DE_RESULTADO;CD_UNIDADE;DE_VALOR_REFERENCIA;OUTLIERS
0355D634CD7585CA76A3A3817EF99C3C;04DD2FC0F127E3C6AC335F46562AC607;F;1982;2020-08-12;2020-08-17;Alta medica melhorado;5;2020-08-12;UTI;Ferritina, Dosagem;Ferritina;178;microg/L;15 a 149;False
13E420107BB293072CDC21EA2DA9892F;B9C911B96309DF01CDE89072B106B912;F;1982;2020-04-20;2020-04-29;Alta medica melhorado;9;2020-04-21;Unidades de Internacao;Ferritina, Dosagem;Ferritina;355;microg/L;15 a 149;False
1DD3B4985DA07D6595B36ADC8B3E3134;3B550366687F0856D19D222810C44C02;F;1981;2020-06-22;2020-06-26;Alta Administrativa;4;2020-06-22;Endoscopia;Ferritina, Dosagem;Ferritina;75;microg/L;15 a 149;False
1F4C9489E4CC10D2FF7CDBAA623C7AAF;1011C2F95E98FA5011E49A319F9465BD;F;1978;2020-10-13;2020-10-17;Alta medica melhorado;4;2020-10-14;UTI;Ferritina, Dosagem;Ferritina;71;microg/L;15 a 149;False
268635F257CBDDF689234B8ECBF265A5;929DAD351F8820C496B712DA32B03846;F;1996;2020-08-25;2020-08-27;Alta Administrativa;2;2020-08-27;Check Up - Itaim;Ferritina, Dosagem;Ferritina;37;microg/L;15 a 149;False
2ADE58B5C0A3D7FB03566E56F9E0F2B1;281CD4D76C69DDF0335CD00AACF1B20D;F;1981;2020-05-19;2020-05-26;Alta medica melhorado;7;2020-05-20;Unidades de Internacao;Ferritina, Dosagem;Ferritina;168;microg/L;15 a 149;False
2EE5D285C95B1C6C6508473C0A8D11BE;5226377B8AC468FEE9CD64F23C515CAB;F;1984;2020-11-26;2020-12-01;Alta Administrativa;5;2020-11-30;Check Up - Itaim;Ferritina, Dosagem;Ferritina;165;microg/L;15 a 149;False
3098F4EE64AD735A1E1964DBC5336146;257545B2BB08E1E951710310FBB17587;F;1975;2020-12-19;2020-12-23;Alta medica melhorado;4;2020-12-19;Unidades de Internacao;Ferritina, Dosagem;Ferritina;15;microg/L;15 a 149;False
31C7DBF1795F609E35735772B2614490;30FF057C4AE1D73AA7428F7E84A3261A;F;1976;2020-07-11;2020-07-13;Alta medica curado;2;2020-07-12;Unidades de Internacao;Ferritina, Dosagem;Ferritina;45;microg/L;15 a 149;False
330A9907B36FD4C75B1A4015EE7BBCEA;6D245DCAFE1F7BB48EE54F300B0FF003;F;1993;2020-10-08;2020-10-16;Alta medica melhorado;8;2020-10-08;Unidades de Internacao;Ferritina, Dosagem;Ferritina;69;microg/L;15 a 149;False
43585341FB560D7A74608A5F244ECCD2;B2C48F1E7CFF7E8DEFED07FE5777D510;F;1977;2020-06-04;2020-06-08;Alta Administrativa;4;2020-06-04;Endoscopia;Ferritina, Dosagem;Ferritina;184;microg/L;15 a 149;False
461BEAB646D4E7E0FD168125F577483B;7F7C92A80656BA585376CA67EAEEA17C;F;1974;2020-05-14;2020-05-18;Alta medica melhorado;4;2020-05-15;UTI;Ferritina, Dosagem;Ferritina;146;microg/L;15 a 149;False
461BEAB646D4E7E0FD168125F577483B;7F7C92A80656BA585376CA67EAEEA17C;F;1974;2020-05-14;2020-05-18;Alta medica melhorado;4;2020-05-14;UTI;Ferritina, Dosagem;Ferritina;167;microg/L;15 a 149;False
48F950E1BB5D08CC479E6D02D9ABFF78;4D8BE118532CF35AF5218E2DB571A86E;F;1998;2020-11-30;2020-12-02;Alta Administrativa;2;2020-11-30;Radiologia Geral;Ferritina, Dosagem;Ferritina;100;microg/L;15 a 149;False
4E59A67C5ABF07F58BB26B0659A1BBF1;DEDE916B3B0055F63C686B8F4C7E8A72;F;1973;2020-08-04;2020-08-08;Alta medica melhorado;4;2020-08-04;Pronto Socorro;Ferritina, Dosagem;Ferritina;768;microg/L;15 a 149;True
4E59A67C5ABF07F58BB26B0659A1BBF1;DEDE916B3B0055F63C686B8F4C7E8A72;F;1973;2020-08-04;2020-08-08;Alta medica melhorado;4;2020-08-04;Pronto Socorro;Ferritina, Dosagem;Ferritina;642;microg/L;15 a 149;True
5978DBBF46D7DD6751E23A7376B41121;EDEB8A0C8EFE3B74ABDE19A3D6DF0B93;F;1984;2020-07-05;2020-07-10;Alta medica melhorado;5;2020-07-05;Unidades de Internacao;Ferritina, Dosagem;Ferritina;76;microg/L;15 a 149;False
5A80D6253DEFE6E608426618C9083FD3;774B1B00C0E680A953D8C8452ECB05DD;F;1973;2020-08-28;2020-09-02;Alta Administrativa;5;2020-08-28;Ultrassonografia - Jardins;Ferritina, Dosagem;Ferritina;107;microg/L;15 a 149;False
5D89DFAED540F456E58C8D3164CC2FF1;3C8C0C09D5F60C29B3DAA13398AE0FE4;F;1972;2020-03-20;2020-03-22;Alta medica melhorado;2;2020-03-20;Unidades de Internacao;Ferritina, Dosagem;Ferritina;47;microg/L;15 a 149;False
5FC6BDB0257BD9E15E46BDAC6D0E03D5;316FF2CAA61BF235351ECA5892C0D9E9;F;1975;2020-03-27;2020-03-31;Alta medica melhorado;4;2020-03-30;Unidades de Internacao;Ferritina, Dosagem;Ferritina;177;microg/L;15 a 149;False
66A6B0004EE5481DFE62EF89CF01794A;425EC389BFECA44D9D695446A6483BEE;F;1972;2020-05-17;2020-05-19;Alta medica melhorado;2;2020-05-17;Pronto Socorro;Ferritina, Dosagem;Ferritina;25;microg/L;15 a 149;False
6960A46A81F18DECDF6CC84FC6C568B8;9325143D465E0F78800C8FAAD9D8925F;F;1977;2020-06-16;2020-06-21;Alta medica melhorado;5;2020-06-17;Unidades de Internacao;Ferritina, Dosagem;Ferritina;94;microg/L;15 a 149;False
6F0A6A0E0839924AD125035171DD456F;8868FDC3A0E8F33E56A81745A733E82B;F;1972;2020-04-08;2020-04-24;Alta medica melhorado;16;2020-04-18;UTI;Ferritina, Dosagem;Ferritina;1024;microg/L;15 a 149;True
6F0A6A0E0839924AD125035171DD456F;8868FDC3A0E8F33E56A81745A733E82B;F;1972;2020-04-08;2020-04-24;Alta medica melhorado;16;2020-04-09;UTI;Ferritina, Dosagem;Ferritina;643;microg/L;15 a 149;True
6F0A6A0E0839924AD125035171DD456F;8868FDC3A0E8F33E56A81745A733E82B;F;1972;2020-04-08;2020-04-24;Alta medica melhorado;16;2020-04-20;Unidades de Internacao;Ferritina, Dosagem;Ferritina;800;microg/L;15 a 149;True
70CF6011E358D309D29147124AA84538;23480096D535C9D7465057C84A813708;F;1976;2020-07-02;2020-07-04;Alta Administrativa;2;2020-07-02;Pronto Socorro;Ferritina, Dosagem;Ferritina;523;microg/L;15 a 149;False
734C41C68C0C88E52B88D504B760CC2D;22237C91E7E08BD0C5A16850DC2C53DA;F;1980;2020-12-14;2020-12-18;Alta medica melhorado;4;2020-12-15;Unidades de Internacao;Ferritina, Dosagem;Ferritina;247;microg/L;15 a 149;False
74629F0D5B584E2F4BE91A81F7E6FC1C;E12722ACE662EA5692DE9439291869CC;F;1977;2020-04-04;2020-04-10;Alta medica melhorado;6;2020-04-07;Unidades de Internacao;Ferritina, Dosagem;Ferritina;217;microg/L;15 a 149;False
7A083816C578B71EA4124743D3CB5148;99E756E28DC40D6D53D0B8A35CD92E2B;F;1972;2020-05-26;2020-06-05;Alta medica melhorado;10;2020-06-01;UTI;Ferritina, Dosagem;Ferritina;274;microg/L;15 a 149;False
7B4B5622119E554F2132513624E95BE8;B3E3457959A9957443D71B6C7194E568;F;1998;2020-12-02;2020-12-07;Alta Administrativa;5;2020-12-03;Hemodialise;Ferritina, Dosagem;Ferritina;61;microg/L;15 a 149;False
7B4B5622119E554F2132513624E95BE8;BE22D02D411F48EC9B6B35D954FF7D21;F;1998;2020-12-07;2020-12-18;Alta Administrativa;11;2020-12-10;Hemodialise;Ferritina, Dosagem;Ferritina;261;microg/L;15 a 149;False
7B4B5622119E554F2132513624E95BE8;EEAFC1C59CA688671FF6D3C63AE58BDD;F;1998;2020-11-07;2020-12-01;Alta medica melhorado;24;2020-11-08;UTI;Ferritina, Dosagem;Ferritina;291;microg/L;15 a 149;False
7E063B56A31316CC151E1592B7CDF96C;21FB18589DABD7B316D82C63C63EF283;F;1991;2020-08-04;2020-08-06;Alta medica melhorado;2;2020-08-05;Unidades de Internacao;Ferritina, Dosagem;Ferritina;324;microg/L;15 a 149;False
7EB6C650564987B3C053DCC715DAFFDB;748628B2B51612E4E23945ADD2B06E16;F;1979;2020-07-02;2020-07-19;Alta Administrativa;17;2020-07-02;Pronto Socorro;Ferritina, Dosagem;Ferritina;430;microg/L;15 a 149;False
8F3903E17E6278D42BBD37AD7BAD65DF;1ECFDE9CA7E047BF8B5A45B6D8F8FEAD;F;1981;2020-03-02;2020-03-07;Alta Administrativa;5;2020-03-04;Hemodialise;Ferritina, Dosagem;Ferritina;44;microg/L;15 a 149;False
8F3903E17E6278D42BBD37AD7BAD65DF;F6FF97A74415CE70D8E2AB065E9B28A5;F;1981;2020-04-23;2020-05-02;Alta medica melhorado;9;2020-04-27;Unidades de Internacao;Ferritina, Dosagem;Ferritina;159;microg/L;15 a 149;False
92D97A438C6077DEEC7624134EA7C9D5;4F961CC5F1B2578F029EC93FC3B5D8DB;F;1979;2020-08-31;2020-09-02;Alta Administrativa;2;2020-09-02;Check Up - Itaim;Ferritina, Dosagem;Ferritina;19;microg/L;15 a 149;False
94D3FC92C242927FC6F8C6CD290CF80F;8721945CA57A918A02BB8F5882885356;F;1979;2020-07-28;2020-07-31;Alta Administrativa;3;2020-07-28;Ultrassonografia;Ferritina, Dosagem;Ferritina;68;microg/L;15 a 149;False
94EA8C175E677E793A9DF85A288E97B4;504A89E48D4797E217124612653715AC;F;1979;2020-04-15;2020-04-22;Alta medica melhorado;7;2020-04-16;Unidades de Internacao;Ferritina, Dosagem;Ferritina;203;microg/L;15 a 149;False
B51BA482F42B04497C7EDDA4C20BBCBA;6C77807A8743609381A6C034AC1731D6;F;1973;2020-10-16;2020-10-27;Alta medica melhorado;11;2020-10-19;Unidades de Internacao;Ferritina, Dosagem;Ferritina;130;microg/L;15 a 149;False
C0272E57333DC17CB3CFC64848A52E57;062C3BABEAAC1C01724028A8AFFD6C4D;F;2000;2020-04-25;2020-05-03;Alta medica melhorado;8;2020-04-30;Unidades de Internacao;Ferritina, Dosagem;Ferritina;42;microg/L;15 a 149;False
C86EB9BAFEEDB686D59461EFBD3AFE26;000A53FD5C1243D786DB1D91A5EDD59F;F;1972;2020-05-22;2020-05-27;Alta Administrativa;5;2020-05-22;Recepcao do Centro Diagnostico;Ferritina, Dosagem;Ferritina;48;microg/L;15 a 149;False
C97C86C758C3F246473D6002F1E204B6;ED8DF0403C0673C1CC89EEBCA708A123;F;1975;2020-08-25;2020-08-27;Alta Administrativa;2;2020-08-25;Ultrassonografia - Jardins;Ferritina, Dosagem;Ferritina;55;microg/L;15 a 149;False
D0C85DCA4A73D3299DBC6ADC46C6118D;34708D2132FBA524F137CD4A341AF9ED;F;1976;2020-04-16;2020-04-22;Alta medica melhorado;6;2020-04-17;Unidades de Internacao;Ferritina, Dosagem;Ferritina;125;microg/L;15 a 149;False
D9791745DB75DE0CFDC580F83B523896;7F77255A7C1DDC67FA9B028A0EAC9CD0;F;1973;2020-08-21;2020-08-24;Alta medica melhorado;3;2020-08-21;Pronto Socorro;Ferritina, Dosagem;Ferritina;115;microg/L;15 a 149;False
D9791745DB75DE0CFDC580F83B523896;7F77255A7C1DDC67FA9B028A0EAC9CD0;F;1973;2020-08-21;2020-08-24;Alta medica melhorado;3;2020-08-21;Unidades de Internacao;Ferritina, Dosagem;Ferritina;160;microg/L;15 a 149;False
DB70843F11316AE07A957B6D88BF3FB4;7EC72258125F483A54B327F5161F5BE7;F;1987;2020-11-12;2020-11-18;Alta medica melhorado;6;2020-11-12;Unidades de Internacao;Ferritina, Dosagem;Ferritina;61;microg/L;15 a 149;False
E31F663EE708A81F7C5E20755C3CA3AD;9BA637E09A33D8EFBE78187AB5121CD4;F;1979;2020-05-28;2020-06-01;Alta Administrativa;4;2020-05-28;Recepcao do Centro Diagnostico;Ferritina, Dosagem;Ferritina;75;microg/L;15 a 149;False
E4A97ACABA540D8FF37E1AE2A787FFEF;DA0FB783995FAC0E8D99FFF0ADEE12BE;F;1974;2020-12-10;2020-12-13;Alta medica melhorado;3;2020-12-10;Unidades de Internacao;Ferritina, Dosagem;Ferritina;3;microg/L;15 a 149;False
F169F033D7CDB4E9580A900440753616;53BE814085C607CD11A729CCDD23C252;F;1972;2020-04-17;2020-06-20;Alta medica melhorado;64;2020-04-20;UTI;Ferritina, Dosagem;Ferritina;999;microg/L;15 a 149;True
F9556280EC5701536DACE10DDEAC2325;AD3243692F8BFDCF5A97785ABE7ED69E;F;1982;2020-11-22;2020-11-27;Alta medica melhorado;5;2020-11-22;Unidades de Internacao;Ferritina, Dosagem;Ferritina;1401;microg/L;15 a 149;True
F9556280EC5701536DACE10DDEAC2325;AD3243692F8BFDCF5A97785ABE7ED69E;F;1982;2020-11-22;2020-11-27;Alta medica melhorado;5;2020-11-23;Unidades de Internacao;Ferritina, Dosagem;Ferritina;1380;microg/L;15 a 149;True
