ID_PACIENTE;ID_ATENDIMENTO;IC_SEXO;aa_nascimento;DT_ATENDIMENTO;DT_DESFECHO;DE_DESFECHO;DAYS;DT_COLETA;DE_ORIGEM;DE_EXAME;DE_ANALITO;DE_RESULTADO;CD_UNIDADE;DE_VALOR_REFERENCIA;OUTLIERS
0355D634CD7585CA76A3A3817EF99C3C;04DD2FC0F127E3C6AC335F46562AC607;F;1982;2020-08-12;2020-08-17;Alta medica melhorado;5;2020-08-13;Unidades de Internacao;Gama Gt;Gama-GT;414;U/L;8 a 41;False
05221029190B109C8BAC4474F9D639BC;A98209F43E0D0937C0DA050BD36A2B62;F;1972;2020-07-12;2020-07-16;Alta Administrativa;4;2020-07-13;Oncologia Clinica - Brasilia II;Gama Gt;Gama-GT;716;U/L;8 a 41;True
05221029190B109C8BAC4474F9D639BC;B614C68D29EBBF4134D42E8735C57C7D;F;1972;2020-05-20;2020-06-02;Alta medica curado;13;2020-05-20;Pronto Socorro;Gama Gt;Gama-GT;97;U/L;8 a 41;False
05221029190B109C8BAC4474F9D639BC;B614C68D29EBBF4134D42E8735C57C7D;F;1972;2020-05-20;2020-06-02;Alta medica curado;13;2020-05-30;Unidades de Internacao;Gama Gt;Gama-GT;246;U/L;8 a 41;False
05221029190B109C8BAC4474F9D639BC;B614C68D29EBBF4134D42E8735C57C7D;F;1972;2020-05-20;2020-06-02;Alta medica curado;13;2020-06-01;Unidades de Internacao;Gama Gt;Gama-GT;288;U/L;8 a 41;False
05221029190B109C8BAC4474F9D639BC;B614C68D29EBBF4134D42E8735C57C7D;F;1972;2020-05-20;2020-06-02;Alta medica curado;13;2020-05-24;Unidades de Internacao;Gama Gt;Gama-GT;152;U/L;8 a 41;False
05221029190B109C8BAC4474F9D639BC;B614C68D29EBBF4134D42E8735C57C7D;F;1972;2020-05-20;2020-06-02;Alta medica curado;13;2020-05-27;Unidades de Internacao;Gama Gt;Gama-GT;189;U/L;8 a 41;False
05221029190B109C8BAC4474F9D639BC;BEF0F2FBFD8A6A401F73D96F4D1E5DAB;F;1972;2020-07-17;2020-07-20;Alta medica melhorado;3;2020-07-18;Unidades de Internacao;Gama Gt;Gama-GT;805;U/L;8 a 41;True
07FCE3867385C1D09F6B14CFCAABEEE6;2DA110394B06A309C41E453363156F8D;F;1986;2020-10-13;2020-10-18;Alta medica melhorado;5;2020-10-13;Unidades de Internacao;Gama Gt;Gama-GT;22;U/L;8 a 41;False
0AE22B5DBDA25BA96B2D53DB46618E1F;E0866240F8B83FE3BC291E78A4AA671C;F;1990;2020-08-27;2020-09-08;Alta medica melhorado;12;2020-08-27;Unidades de Internacao;Gama Gt;Gama-GT;72;U/L;8 a 41;False
0AE22B5DBDA25BA96B2D53DB46618E1F;E0866240F8B83FE3BC291E78A4AA671C;F;1990;2020-08-27;2020-09-08;Alta medica melhorado;12;2020-08-28;Unidades de Internacao;Gama Gt;Gama-GT;75;U/L;8 a 41;False
111302CD85383AD2A2DF28667700AF01;48F593C1BA326152705AC337A0CB0696;F;1980;2020-04-16;2020-04-23;Alta medica melhorado;7;2020-04-19;Unidades de Internacao;Gama Gt;Gama-GT;48;U/L;8 a 41;False
111302CD85383AD2A2DF28667700AF01;48F593C1BA326152705AC337A0CB0696;F;1980;2020-04-16;2020-04-23;Alta medica melhorado;7;2020-04-17;Unidades de Internacao;Gama Gt;Gama-GT;46;U/L;8 a 41;False
111302CD85383AD2A2DF28667700AF01;48F593C1BA326152705AC337A0CB0696;F;1980;2020-04-16;2020-04-23;Alta medica melhorado;7;2020-04-20;Unidades de Internacao;Gama Gt;Gama-GT;48;U/L;8 a 41;False
111302CD85383AD2A2DF28667700AF01;48F593C1BA326152705AC337A0CB0696;F;1980;2020-04-16;2020-04-23;Alta medica melhorado;7;2020-04-21;Unidades de Internacao;Gama Gt;Gama-GT;48;U/L;8 a 41;False
11B85F4A508BF2FA4DB48A6E530C2A5B;E0DF701B39FE66906D23D7A6C45ED03C;F;1989;2020-03-20;2020-03-23;Alta medica melhorado;3;2020-03-20;Unidades de Internacao;Gama Gt;Gama-GT;34;U/L;8 a 41;False
13E37CEC29D6FC2E414F973F86A6079C;D57AF4F8C66255B3EFBC687F3914F2A4;F;1984;2020-03-18;2020-03-23;Alta medica melhorado;5;2020-03-18;Unidades de Internacao;Gama Gt;Gama-GT;14;U/L;8 a 41;False
1DD3B4985DA07D6595B36ADC8B3E3134;3B550366687F0856D19D222810C44C02;F;1981;2020-06-22;2020-06-26;Alta Administrativa;4;2020-06-22;Endoscopia;Gama Gt;Gama-GT;13;U/L;8 a 41;False
1E30364495068CD693D25BFD829266AA;52949BCE719A995D0B1768F2ABD174FF;F;1987;2020-06-27;2020-06-29;Alta medica melhorado;2;2020-06-28;Unidades de Internacao;Gama Gt;Gama-GT;19;U/L;8 a 41;False
1E7725F341F622CDE7C2D82863DF4753;119C6B21EC5FDD7829798ED8F3CD9B83;F;1981;2020-03-17;2020-03-26;Alta medica melhorado;9;2020-03-19;UTI;Gama Gt;Gama-GT;65;U/L;8 a 41;False
1E7725F341F622CDE7C2D82863DF4753;119C6B21EC5FDD7829798ED8F3CD9B83;F;1981;2020-03-17;2020-03-26;Alta medica melhorado;9;2020-03-17;Unidades de Internacao;Gama Gt;Gama-GT;65;U/L;8 a 41;False
1E7725F341F622CDE7C2D82863DF4753;119C6B21EC5FDD7829798ED8F3CD9B83;F;1981;2020-03-17;2020-03-26;Alta medica melhorado;9;2020-03-25;Unidades de Internacao;Gama Gt;Gama-GT;97;U/L;8 a 41;False
1ED902263BD8BE3A05AAC19BB8EA54CD;EEA63DC870901811F8D3277599E09D43;F;1972;2020-05-15;2020-05-18;Alta medica melhorado;3;2020-05-15;Unidades de Internacao;Gama Gt;Gama-GT;19;U/L;8 a 41;False
1F4C9489E4CC10D2FF7CDBAA623C7AAF;1011C2F95E98FA5011E49A319F9465BD;F;1978;2020-10-13;2020-10-17;Alta medica melhorado;4;2020-10-13;UTI;Gama Gt;Gama-GT;14;U/L;8 a 41;False
2A25DDD0EEEC2A67D1921ECB208F2F4E;ABF769E54BEEBDCEF922FE8E4591C762;F;1988;2020-09-28;2020-10-01;Alta medica melhorado;3;2020-09-28;UTI;Gama Gt;Gama-GT;14;U/L;8 a 41;False
2ADE58B5C0A3D7FB03566E56F9E0F2B1;281CD4D76C69DDF0335CD00AACF1B20D;F;1981;2020-05-19;2020-05-26;Alta medica melhorado;7;2020-05-20;Unidades de Internacao;Gama Gt;Gama-GT;17;U/L;8 a 41;False
2CF106B186A5FB583590B79EF92EBF85;9C5AC4C53C057313382B10AC581132C3;F;1975;2020-05-28;2020-05-30;Alta medica melhorado;2;2020-05-28;UTI;Gama Gt;Gama-GT;17;U/L;8 a 41;False
2E31290537D67F1603FF64F3D3D409D0;915AAD1370E1ECD28EF932947ED833EC;F;1986;2020-08-27;2020-08-29;Alta medica melhorado;2;2020-08-27;Unidades de Internacao;Gama Gt;Gama-GT;7;U/L;8 a 41;False
3098F4EE64AD735A1E1964DBC5336146;257545B2BB08E1E951710310FBB17587;F;1975;2020-12-19;2020-12-23;Alta medica melhorado;4;2020-12-19;Unidades de Internacao;Gama Gt;Gama-GT;10;U/L;8 a 41;False
3098F4EE64AD735A1E1964DBC5336146;257545B2BB08E1E951710310FBB17587;F;1975;2020-12-19;2020-12-23;Alta medica melhorado;4;2020-12-19;Unidades de Internacao;Gama Gt;Gama-GT;8;U/L;8 a 41;False
31C7DBF1795F609E35735772B2614490;30FF057C4AE1D73AA7428F7E84A3261A;F;1976;2020-07-11;2020-07-13;Alta medica curado;2;2020-07-11;Unidades de Internacao;Gama Gt;Gama-GT;30;U/L;8 a 41;False
330A9907B36FD4C75B1A4015EE7BBCEA;6D245DCAFE1F7BB48EE54F300B0FF003;F;1993;2020-10-08;2020-10-16;Alta medica melhorado;8;2020-10-15;Unidades de Internacao;Gama Gt;Gama-GT;27;U/L;8 a 41;False
330A9907B36FD4C75B1A4015EE7BBCEA;6D245DCAFE1F7BB48EE54F300B0FF003;F;1993;2020-10-08;2020-10-16;Alta medica melhorado;8;2020-10-08;Unidades de Internacao;Gama Gt;Gama-GT;33;U/L;8 a 41;False
330A9907B36FD4C75B1A4015EE7BBCEA;6D245DCAFE1F7BB48EE54F300B0FF003;F;1993;2020-10-08;2020-10-16;Alta medica melhorado;8;2020-10-09;Unidades de Internacao;Gama Gt;Gama-GT;32;U/L;8 a 41;False
357FA4612D1A46CE54C0D0C91DE9F6EC;00EEEF2BA8BE72B95B8DA5C7F49940F2;F;1980;2020-06-28;2020-06-30;Alta Administrativa;2;2020-06-29;Oncologia Clinica - Brasilia II;Gama Gt;Gama-GT;31;U/L;8 a 41;False
357FA4612D1A46CE54C0D0C91DE9F6EC;0CBE55645840D7824FDB98B295AD32B3;F;1980;2020-07-21;2020-07-24;Alta Administrativa;3;2020-07-22;Oncologia Clinica - Brasilia II;Gama Gt;Gama-GT;28;U/L;8 a 41;False
357FA4612D1A46CE54C0D0C91DE9F6EC;6549FB187560C772FAD6830D95154706;F;1980;2020-05-02;2020-05-04;Alta medica melhorado;2;2020-05-03;Unidades de Internacao;Gama Gt;Gama-GT;20;U/L;8 a 41;False
3678F6250A5A0F08D06CCBBC283A86EB;FB42D07836879235B17A01382FA085AB;F;1974;2020-05-19;2020-05-26;Alta medica melhorado;7;2020-05-19;Unidades de Internacao;Gama Gt;Gama-GT;132;U/L;8 a 41;False
3678F6250A5A0F08D06CCBBC283A86EB;FB42D07836879235B17A01382FA085AB;F;1974;2020-05-19;2020-05-26;Alta medica melhorado;7;2020-05-19;Unidades de Internacao;Gama Gt;Gama-GT;123;U/L;8 a 41;False
3678F6250A5A0F08D06CCBBC283A86EB;FB42D07836879235B17A01382FA085AB;F;1974;2020-05-19;2020-05-26;Alta medica melhorado;7;2020-05-20;Unidades de Internacao;Gama Gt;Gama-GT;130;U/L;8 a 41;False
3678F6250A5A0F08D06CCBBC283A86EB;FB42D07836879235B17A01382FA085AB;F;1974;2020-05-19;2020-05-26;Alta medica melhorado;7;2020-05-23;Unidades de Internacao;Gama Gt;Gama-GT;124;U/L;8 a 41;False
3B9A3EE549B99C40B7E704CE55ECC8C6;3913E65DBEF510F35BB9FDC2DFF34AE8;F;1995;2020-06-01;2020-06-04;Alta medica melhorado;3;2020-06-02;Unidades de Internacao;Gama Gt;Gama-GT;7;U/L;8 a 41;False
41E7C9A85B7C9D3CF45C4720D695537D;897C76FB43550CF8CCD7BEF55DF66DE3;F;1979;2020-05-05;2020-05-13;Alta medica melhorado;8;2020-05-05;Unidades de Internacao;Gama Gt;Gama-GT;96;U/L;8 a 41;False
461BEAB646D4E7E0FD168125F577483B;7F7C92A80656BA585376CA67EAEEA17C;F;1974;2020-05-14;2020-05-18;Alta medica melhorado;4;2020-05-15;UTI;Gama Gt;Gama-GT;20;U/L;8 a 41;False
487F2C032F4D20A4A75A3C2DF03F5E53;17985D9F9204E9BCE62EE14B2E94A31D;F;1981;2020-03-17;2020-03-19;Alta medica melhorado;2;2020-03-17;Unidades de Internacao;Gama Gt;Gama-GT;16;U/L;8 a 41;False
4AF863B9C598125B9E27296C851AEFCB;05C9A48524A5441BFC8EDA4A7246A194;F;1974;2020-12-15;2020-12-24;Alta medica melhorado;9;2020-12-15;Unidades de Internacao;Gama Gt;Gama-GT;22;U/L;8 a 41;False
4AF863B9C598125B9E27296C851AEFCB;8B951EB2B323A719768A8C425BD9FA15;F;1974;2020-06-30;2020-07-14;Alta medica melhorado;14;2020-06-30;Unidades de Internacao;Gama Gt;Gama-GT;77;U/L;8 a 41;False
4AF863B9C598125B9E27296C851AEFCB;C25F2EB303421BE906A7A8C679B21040;F;1974;2020-10-18;2020-10-22;Alta medica melhorado;4;2020-10-18;UTI;Gama Gt;Gama-GT;20;U/L;8 a 41;False
4B6AE3302D691767A6BF220E359125C7;A442041A66611B42B9E120360EF6B172;F;1982;2020-11-12;2020-12-27;Alta medica melhorado;45;2020-11-12;UTI;Gama Gt;Gama-GT;219;U/L;8 a 41;False
4B6AE3302D691767A6BF220E359125C7;A442041A66611B42B9E120360EF6B172;F;1982;2020-11-12;2020-12-27;Alta medica melhorado;45;2020-11-20;UTI;Gama Gt;Gama-GT;215;U/L;8 a 41;False
4B6AE3302D691767A6BF220E359125C7;A442041A66611B42B9E120360EF6B172;F;1982;2020-11-12;2020-12-27;Alta medica melhorado;45;2020-11-23;UTI;Gama Gt;Gama-GT;219;U/L;8 a 41;False
4B6AE3302D691767A6BF220E359125C7;A442041A66611B42B9E120360EF6B172;F;1982;2020-11-12;2020-12-27;Alta medica melhorado;45;2020-11-25;UTI;Gama Gt;Gama-GT;223;U/L;8 a 41;False
4B6AE3302D691767A6BF220E359125C7;A442041A66611B42B9E120360EF6B172;F;1982;2020-11-12;2020-12-27;Alta medica melhorado;45;2020-12-16;Unidades de Internacao;Gama Gt;Gama-GT;428;U/L;8 a 41;False
4B6AE3302D691767A6BF220E359125C7;A442041A66611B42B9E120360EF6B172;F;1982;2020-11-12;2020-12-27;Alta medica melhorado;45;2020-12-17;Unidades de Internacao;Gama Gt;Gama-GT;345;U/L;8 a 41;False
4CA137E832D385DB46D6AAEF108A3C6D;E48988DCEB6D410216BA752F19CDB66C;F;1999;2020-06-13;2020-06-19;Alta medica melhorado;6;2020-06-13;UTI;Gama Gt;Gama-GT;152;U/L;8 a 41;False
4E920445B9BE9EA7CE5E193EF60208B5;7F856F91F621628636272FBF39836D0F;F;1983;2020-05-22;2020-05-30;Alta medica melhorado;8;2020-05-29;Unidades de Internacao;Gama Gt;Gama-GT;84;U/L;8 a 41;False
50905351E99B238C3A0DFC4C91ADAE44;36AF3AD2A4D8DE5C57189E9B892F5B32;F;1975;2020-06-09;2020-06-17;Alta medica melhorado;8;2020-06-09;Unidades de Internacao;Gama Gt;Gama-GT;34;U/L;8 a 41;False
50DC2C5F8F5DF48907BDDB655AD10FFD;8E4FCADDC5939474289F4CE81D7F0B1F;F;1984;2020-05-06;2020-05-11;Alta medica melhorado;5;2020-05-06;UTI;Gama Gt;Gama-GT;93;U/L;8 a 41;False
5128C5C92AAC18D0533970579E2471AB;C22B43DEFC01E13F73C56280D62D1D3A;F;1994;2020-12-01;2020-12-06;Alta medica melhorado;5;2020-12-01;Unidades de Internacao;Gama Gt;Gama-GT;22;U/L;8 a 41;False
572F77139B411B90FA7DF268D03C2D14;4769DAA8B7D2D11725055790CCFF66A8;F;1983;2020-06-06;2020-06-10;Alta medica melhorado;4;2020-06-09;Unidades de Internacao;Gama Gt;Gama-GT;153;U/L;8 a 41;False
59C73E5970FD4AFC8032B15C01675341;5F93F3866CD6F356485D85BC907C6792;F;1995;2020-08-27;2020-08-29;Alta medica melhorado;2;2020-08-27;Unidades de Internacao;Gama Gt;Gama-GT;21;U/L;8 a 41;False
5D89DFAED540F456E58C8D3164CC2FF1;3C8C0C09D5F60C29B3DAA13398AE0FE4;F;1972;2020-03-20;2020-03-22;Alta medica melhorado;2;2020-03-20;Unidades de Internacao;Gama Gt;Gama-GT;23;U/L;8 a 41;False
5D89DFAED540F456E58C8D3164CC2FF1;3C8C0C09D5F60C29B3DAA13398AE0FE4;F;1972;2020-03-20;2020-03-22;Alta medica melhorado;2;2020-03-20;Unidades de Internacao;Gama Gt;Gama-GT;23;U/L;8 a 41;False
5E27351D48A31CC5CB9443A5D0057E50;4866A06D55C9F19DFFEE3E7C6984DCAD;F;1973;2020-06-05;2020-06-08;Alta medica melhorado;3;2020-06-05;Pronto Socorro;Gama Gt;Gama-GT;85;U/L;8 a 41;False
5E27351D48A31CC5CB9443A5D0057E50;4866A06D55C9F19DFFEE3E7C6984DCAD;F;1973;2020-06-05;2020-06-08;Alta medica melhorado;3;2020-06-06;Unidades de Internacao;Gama Gt;Gama-GT;147;U/L;8 a 41;False
5F0A06133563054DCBB30C9FAA9ED7FA;8E098968D134692D3A0B618FF5930976;F;1977;2020-09-02;2020-09-07;Alta medica melhorado;5;2020-09-07;Unidades de Internacao;Gama Gt;Gama-GT;76;U/L;8 a 41;False
5F0A06133563054DCBB30C9FAA9ED7FA;8E098968D134692D3A0B618FF5930976;F;1977;2020-09-02;2020-09-07;Alta medica melhorado;5;2020-09-05;Unidades de Internacao;Gama Gt;Gama-GT;83;U/L;8 a 41;False
5F0A06133563054DCBB30C9FAA9ED7FA;8E098968D134692D3A0B618FF5930976;F;1977;2020-09-02;2020-09-07;Alta medica melhorado;5;2020-09-02;Unidades de Internacao;Gama Gt;Gama-GT;146;U/L;8 a 41;False
5F0A06133563054DCBB30C9FAA9ED7FA;8E098968D134692D3A0B618FF5930976;F;1977;2020-09-02;2020-09-07;Alta medica melhorado;5;2020-09-03;Unidades de Internacao;Gama Gt;Gama-GT;113;U/L;8 a 41;False
606BEA38C75C252966A0F65745293DAC;DCC28FC48FFFC4C3B079D9F63E2F84EC;F;1991;2020-11-29;2020-12-01;Alta medica melhorado;2;2020-11-29;Unidades de Internacao;Gama Gt;Gama-GT;39;U/L;8 a 41;False
62A24660B86A0076514250925A452F96;076633A7CB77322FAEC077BD8E842238;F;1972;2020-12-13;2020-12-17;Alta Administrativa;4;2020-12-17;Centro de Oncologia;Gama Gt;Gama-GT;79;U/L;8 a 41;False
6661328011BCF13FF115EC40587F1F53;87D35C1A6CE2690B0066183E7C43618B;F;1996;2020-03-14;2020-03-16;Alta medica melhorado;2;2020-03-14;Unidades de Internacao;Gama Gt;Gama-GT;88;U/L;8 a 41;False
6661328011BCF13FF115EC40587F1F53;87D35C1A6CE2690B0066183E7C43618B;F;1996;2020-03-14;2020-03-16;Alta medica melhorado;2;2020-03-15;Unidades de Internacao;Gama Gt;Gama-GT;73;U/L;8 a 41;False
66A6B0004EE5481DFE62EF89CF01794A;7DF771E3F97B1A1380EB0EBDBEFF201E;F;1972;2020-05-20;2020-05-24;Alta medica melhorado;4;2020-05-20;Unidades de Internacao;Gama Gt;Gama-GT;115;U/L;8 a 41;False
678511CDEFA4EA0F93DFE6E430B45BFB;ABBD1165BC2A1B94AD6BC5EC46E021FD;F;1979;2020-04-17;2020-04-20;Alta medica melhorado;3;2020-04-17;Pronto Socorro;Gama Gt;Gama-GT;40;U/L;8 a 41;False
678511CDEFA4EA0F93DFE6E430B45BFB;ABBD1165BC2A1B94AD6BC5EC46E021FD;F;1979;2020-04-17;2020-04-20;Alta medica melhorado;3;2020-04-18;Unidades de Internacao;Gama Gt;Gama-GT;34;U/L;8 a 41;False
6960A46A81F18DECDF6CC84FC6C568B8;A9D3AB9F0452400AFE7A5E2007E90AB4;F;1977;2020-07-24;2020-07-26;Alta medica melhorado;2;2020-07-24;Unidades de Internacao;Gama Gt;Gama-GT;14;U/L;8 a 41;False
6960A46A81F18DECDF6CC84FC6C568B8;A9D3AB9F0452400AFE7A5E2007E90AB4;F;1977;2020-07-24;2020-07-26;Alta medica melhorado;2;2020-07-25;Unidades de Internacao;Gama Gt;Gama-GT;11;U/L;8 a 41;False
6F0A6A0E0839924AD125035171DD456F;8868FDC3A0E8F33E56A81745A733E82B;F;1972;2020-04-08;2020-04-24;Alta medica melhorado;16;2020-04-08;Pronto Socorro;Gama Gt;Gama-GT;373;U/L;8 a 41;False
6F0A6A0E0839924AD125035171DD456F;8868FDC3A0E8F33E56A81745A733E82B;F;1972;2020-04-08;2020-04-24;Alta medica melhorado;16;2020-04-15;UTI;Gama Gt;Gama-GT;756;U/L;8 a 41;True
6F0A6A0E0839924AD125035171DD456F;8868FDC3A0E8F33E56A81745A733E82B;F;1972;2020-04-08;2020-04-24;Alta medica melhorado;16;2020-04-14;UTI;Gama Gt;Gama-GT;822;U/L;8 a 41;True
6F0A6A0E0839924AD125035171DD456F;8868FDC3A0E8F33E56A81745A733E82B;F;1972;2020-04-08;2020-04-24;Alta medica melhorado;16;2020-04-12;UTI;Gama Gt;Gama-GT;690;U/L;8 a 41;False
6F0A6A0E0839924AD125035171DD456F;8868FDC3A0E8F33E56A81745A733E82B;F;1972;2020-04-08;2020-04-24;Alta medica melhorado;16;2020-04-18;UTI;Gama Gt;Gama-GT;953;U/L;8 a 41;True
6F0A6A0E0839924AD125035171DD456F;8868FDC3A0E8F33E56A81745A733E82B;F;1972;2020-04-08;2020-04-24;Alta medica melhorado;16;2020-04-13;UTI;Gama Gt;Gama-GT;691;U/L;8 a 41;False
6F0A6A0E0839924AD125035171DD456F;8868FDC3A0E8F33E56A81745A733E82B;F;1972;2020-04-08;2020-04-24;Alta medica melhorado;16;2020-04-09;UTI;Gama Gt;Gama-GT;381;U/L;8 a 41;False
6F0A6A0E0839924AD125035171DD456F;8868FDC3A0E8F33E56A81745A733E82B;F;1972;2020-04-08;2020-04-24;Alta medica melhorado;16;2020-04-19;Unidades de Internacao;Gama Gt;Gama-GT;875;U/L;8 a 41;True
6F0A6A0E0839924AD125035171DD456F;8868FDC3A0E8F33E56A81745A733E82B;F;1972;2020-04-08;2020-04-24;Alta medica melhorado;16;2020-04-23;Unidades de Internacao;Gama Gt;Gama-GT;801;U/L;8 a 41;True
6F0A6A0E0839924AD125035171DD456F;F04D00577DEA08C3AE78E5E545DBE736;F;1972;2020-03-30;2020-04-05;Alta medica melhorado;6;2020-04-04;Unidades de Internacao;Gama Gt;Gama-GT;220;U/L;8 a 41;False
70CF6011E358D309D29147124AA84538;23480096D535C9D7465057C84A813708;F;1976;2020-07-02;2020-07-04;Alta Administrativa;2;2020-07-02;Pronto Socorro;Gama Gt;Gama-GT;15;U/L;8 a 41;False
70CF6011E358D309D29147124AA84538;23480096D535C9D7465057C84A813708;F;1976;2020-07-02;2020-07-04;Alta Administrativa;2;2020-07-03;Unidades de Internacao;Gama Gt;Gama-GT;13;U/L;8 a 41;False
734C41C68C0C88E52B88D504B760CC2D;22237C91E7E08BD0C5A16850DC2C53DA;F;1980;2020-12-14;2020-12-18;Alta medica melhorado;4;2020-12-14;Unidades de Internacao;Gama Gt;Gama-GT;447;U/L;8 a 41;False
734C41C68C0C88E52B88D504B760CC2D;22237C91E7E08BD0C5A16850DC2C53DA;F;1980;2020-12-14;2020-12-18;Alta medica melhorado;4;2020-12-15;Unidades de Internacao;Gama Gt;Gama-GT;477;U/L;8 a 41;False
734C41C68C0C88E52B88D504B760CC2D;22237C91E7E08BD0C5A16850DC2C53DA;F;1980;2020-12-14;2020-12-18;Alta medica melhorado;4;2020-12-14;Unidades de Internacao;Gama Gt;Gama-GT;560;U/L;8 a 41;False
734C41C68C0C88E52B88D504B760CC2D;22237C91E7E08BD0C5A16850DC2C53DA;F;1980;2020-12-14;2020-12-18;Alta medica melhorado;4;2020-12-16;Unidades de Internacao;Gama Gt;Gama-GT;423;U/L;8 a 41;False
7B4B5622119E554F2132513624E95BE8;EEAFC1C59CA688671FF6D3C63AE58BDD;F;1998;2020-11-07;2020-12-01;Alta medica melhorado;24;2020-11-07;UTI;Gama Gt;Gama-GT;119;U/L;8 a 41;False
7D45FE3D655E66784DD28970EF49ADCA;7793141BCED94173B5147740DFC1B505;F;1984;2020-04-26;2020-05-04;Alta medica melhorado;8;2020-04-26;Unidades de Internacao;Gama Gt;Gama-GT;28;U/L;8 a 41;False
7D45FE3D655E66784DD28970EF49ADCA;7793141BCED94173B5147740DFC1B505;F;1984;2020-04-26;2020-05-04;Alta medica melhorado;8;2020-05-01;Unidades de Internacao;Gama Gt;Gama-GT;91;U/L;8 a 41;False
7D45FE3D655E66784DD28970EF49ADCA;7793141BCED94173B5147740DFC1B505;F;1984;2020-04-26;2020-05-04;Alta medica melhorado;8;2020-05-03;Unidades de Internacao;Gama Gt;Gama-GT;95;U/L;8 a 41;False
7E063B56A31316CC151E1592B7CDF96C;21FB18589DABD7B316D82C63C63EF283;F;1991;2020-08-04;2020-08-06;Alta medica melhorado;2;2020-08-04;Pronto Socorro;Gama Gt;Gama-GT;130;U/L;8 a 41;False
8185CB8A9220B8FA06A33C5BB26C35AD;D76895D744B84D1885057347B40FDEC6;F;1996;2020-06-05;2020-06-22;Alta medica melhorado;17;2020-06-09;Unidades de Internacao;Gama Gt;Gama-GT;23;U/L;8 a 41;False
83625D12E4833153D4F62BCD554E6535;A64427064BA09B083D982AB28CED96A3;F;1989;2020-07-29;2020-08-04;Alta medica melhorado;6;2020-07-29;UTI;Gama Gt;Gama-GT;23;U/L;8 a 41;False
8937EA1CD48F7C17AE12B36F3CA5502B;C64A70EDA84EE86FAAE04B3740856AA8;F;1979;2020-07-31;2020-08-03;Alta medica melhorado;3;2020-08-02;Unidades de Internacao;Gama Gt;Gama-GT;48;U/L;8 a 41;False
893EBDEA581022CFF9667B078860BF80;8E3675CABAD64EC8A852E5F5594E1DA8;F;1988;2020-12-03;2020-12-11;Alta medica melhorado;8;2020-12-03;Unidades de Internacao;Gama Gt;Gama-GT;17;U/L;8 a 41;False
8E2B59AD1D05B9B0E079AD0C1DDCB4BA;9B46499DE2DC948DAE26F8B94C1ED77C;F;2000;2020-07-08;2020-07-14;Alta medica melhorado;6;2020-07-08;Unidades de Internacao;Gama Gt;Gama-GT;69;U/L;8 a 41;False
8E2B59AD1D05B9B0E079AD0C1DDCB4BA;9B46499DE2DC948DAE26F8B94C1ED77C;F;2000;2020-07-08;2020-07-14;Alta medica melhorado;6;2020-07-10;Unidades de Internacao;Gama Gt;Gama-GT;64;U/L;8 a 41;False
94F5F7F06F2FA95E9E3C1F8E1F954779;A5281ED1393EF55009847C3FB2C28464;F;1992;2020-03-25;2020-04-01;Alta medica melhorado;7;2020-03-29;Unidades de Internacao;Gama Gt;Gama-GT;39;U/L;8 a 41;False
94F5F7F06F2FA95E9E3C1F8E1F954779;A5281ED1393EF55009847C3FB2C28464;F;1992;2020-03-25;2020-04-01;Alta medica melhorado;7;2020-03-25;Unidades de Internacao;Gama Gt;Gama-GT;36;U/L;8 a 41;False
94F5F7F06F2FA95E9E3C1F8E1F954779;A5281ED1393EF55009847C3FB2C28464;F;1992;2020-03-25;2020-04-01;Alta medica melhorado;7;2020-03-27;Unidades de Internacao;Gama Gt;Gama-GT;36;U/L;8 a 41;False
95A393F20999483EEB632E4029594FED;06FE5C9677CE34CFCD49677A29F5A797;F;1973;2020-07-14;2020-07-19;Alta medica melhorado;5;2020-07-15;Unidades de Internacao;Gama Gt;Gama-GT;90;U/L;8 a 41;False
982B19FF5A781C1236E410AE1E319DB4;39DBDA5B35E61EE0C25DAC7372BCA817;F;1988;2020-12-09;2020-12-15;Alta medica melhorado;6;2020-12-09;Unidades de Internacao;Gama Gt;Gama-GT;12;U/L;8 a 41;False
9957DF51F26281A932EBB462C4E91DE6;6DA581252B37D0FCF0535389DE76439C;F;1979;2020-09-10;2020-09-12;Alta medica melhorado;2;2020-09-10;Unidades de Internacao;Gama Gt;Gama-GT;77;U/L;8 a 41;False
9957DF51F26281A932EBB462C4E91DE6;6DA581252B37D0FCF0535389DE76439C;F;1979;2020-09-10;2020-09-12;Alta medica melhorado;2;2020-09-11;Unidades de Internacao;Gama Gt;Gama-GT;68;U/L;8 a 41;False
9957DF51F26281A932EBB462C4E91DE6;C2EB0BAED49004B0E04C431AE68969DC;F;1979;2020-06-22;2020-06-25;Alta medica melhorado;3;2020-06-23;Unidades de Internacao;Gama Gt;Gama-GT;146;U/L;8 a 41;False
9957DF51F26281A932EBB462C4E91DE6;C2EB0BAED49004B0E04C431AE68969DC;F;1979;2020-06-22;2020-06-25;Alta medica melhorado;3;2020-06-24;Unidades de Internacao;Gama Gt;Gama-GT;167;U/L;8 a 41;False
A304C19FA63C6B15AAF92987FD6EB5D4;6973208B2670494202CEC08B965022EC;F;1990;2020-12-24;2020-12-28;Alta medica melhorado;4;2020-12-24;Unidades de Internacao;Gama Gt;Gama-GT;41;U/L;8 a 41;False
AAFCA9B5DA08F3A5A4042ECD77EA5948;ADC0F4899018163EACEE4E35136DD1E2;F;1990;2020-11-12;2020-12-18;Alta medica melhorado;36;2020-11-13;UTI;Gama Gt;Gama-GT;256;U/L;8 a 41;False
AAFCA9B5DA08F3A5A4042ECD77EA5948;ADC0F4899018163EACEE4E35136DD1E2;F;1990;2020-11-12;2020-12-18;Alta medica melhorado;36;2020-11-14;UTI;Gama Gt;Gama-GT;206;U/L;8 a 41;False
AAFCA9B5DA08F3A5A4042ECD77EA5948;ADC0F4899018163EACEE4E35136DD1E2;F;1990;2020-11-12;2020-12-18;Alta medica melhorado;36;2020-11-12;UTI;Gama Gt;Gama-GT;350;U/L;8 a 41;False
AAFCA9B5DA08F3A5A4042ECD77EA5948;ADC0F4899018163EACEE4E35136DD1E2;F;1990;2020-11-12;2020-12-18;Alta medica melhorado;36;2020-11-13;UTI;Gama Gt;Gama-GT;331;U/L;8 a 41;False
AAFCA9B5DA08F3A5A4042ECD77EA5948;ADC0F4899018163EACEE4E35136DD1E2;F;1990;2020-11-12;2020-12-18;Alta medica melhorado;36;2020-11-21;Unidades de Internacao;Gama Gt;Gama-GT;199;U/L;8 a 41;False
AAFCA9B5DA08F3A5A4042ECD77EA5948;ADC0F4899018163EACEE4E35136DD1E2;F;1990;2020-11-12;2020-12-18;Alta medica melhorado;36;2020-11-22;Unidades de Internacao;Gama Gt;Gama-GT;242;U/L;8 a 41;False
AAFCA9B5DA08F3A5A4042ECD77EA5948;ADC0F4899018163EACEE4E35136DD1E2;F;1990;2020-11-12;2020-12-18;Alta medica melhorado;36;2020-11-15;Unidades de Internacao;Gama Gt;Gama-GT;173;U/L;8 a 41;False
AAFCA9B5DA08F3A5A4042ECD77EA5948;ADC0F4899018163EACEE4E35136DD1E2;F;1990;2020-11-12;2020-12-18;Alta medica melhorado;36;2020-11-29;Unidades de Internacao;Gama Gt;Gama-GT;297;U/L;8 a 41;False
AAFCA9B5DA08F3A5A4042ECD77EA5948;ADC0F4899018163EACEE4E35136DD1E2;F;1990;2020-11-12;2020-12-18;Alta medica melhorado;36;2020-11-28;Unidades de Internacao;Gama Gt;Gama-GT;298;U/L;8 a 41;False
AAFCA9B5DA08F3A5A4042ECD77EA5948;ADC0F4899018163EACEE4E35136DD1E2;F;1990;2020-11-12;2020-12-18;Alta medica melhorado;36;2020-11-16;Unidades de Internacao;Gama Gt;Gama-GT;163;U/L;8 a 41;False
AAFCA9B5DA08F3A5A4042ECD77EA5948;ADC0F4899018163EACEE4E35136DD1E2;F;1990;2020-11-12;2020-12-18;Alta medica melhorado;36;2020-12-13;Unidades de Internacao;Gama Gt;Gama-GT;124;U/L;8 a 41;False
AAFCA9B5DA08F3A5A4042ECD77EA5948;ADC0F4899018163EACEE4E35136DD1E2;F;1990;2020-11-12;2020-12-18;Alta medica melhorado;36;2020-12-08;Unidades de Internacao;Gama Gt;Gama-GT;155;U/L;8 a 41;False
AAFCA9B5DA08F3A5A4042ECD77EA5948;ADC0F4899018163EACEE4E35136DD1E2;F;1990;2020-11-12;2020-12-18;Alta medica melhorado;36;2020-12-03;Unidades de Internacao;Gama Gt;Gama-GT;210;U/L;8 a 41;False
AAFCA9B5DA08F3A5A4042ECD77EA5948;ADC0F4899018163EACEE4E35136DD1E2;F;1990;2020-11-12;2020-12-18;Alta medica melhorado;36;2020-12-11;Unidades de Internacao;Gama Gt;Gama-GT;143;U/L;8 a 41;False
AE391119A7752C67AF010AFEE8E81FD1;30FCD3185C1A9C1EB39A8EBB1244A444;F;1979;2020-11-17;2020-11-24;Alta medica melhorado;7;2020-11-17;Unidades de Internacao;Gama Gt;Gama-GT;35;U/L;8 a 41;False
B51BA482F42B04497C7EDDA4C20BBCBA;6C77807A8743609381A6C034AC1731D6;F;1973;2020-10-16;2020-10-27;Alta medica melhorado;11;2020-10-25;Unidades de Internacao;Gama Gt;Gama-GT;37;U/L;8 a 41;False
B51BA482F42B04497C7EDDA4C20BBCBA;6C77807A8743609381A6C034AC1731D6;F;1973;2020-10-16;2020-10-27;Alta medica melhorado;11;2020-10-16;Unidades de Internacao;Gama Gt;Gama-GT;15;U/L;8 a 41;False
B63DA2E7EA3F8C6A33CBE86AB6042416;C589E76A0ECC6B4E671D620D1E2BECC4;F;1994;2020-09-27;2020-10-02;Alta medica melhorado;5;2020-09-28;Unidades de Internacao;Gama Gt;Gama-GT;533;U/L;8 a 41;False
B63DA2E7EA3F8C6A33CBE86AB6042416;C589E76A0ECC6B4E671D620D1E2BECC4;F;1994;2020-09-27;2020-10-02;Alta medica melhorado;5;2020-09-27;Unidades de Internacao;Gama Gt;Gama-GT;533;U/L;8 a 41;False
B63DA2E7EA3F8C6A33CBE86AB6042416;C589E76A0ECC6B4E671D620D1E2BECC4;F;1994;2020-09-27;2020-10-02;Alta medica melhorado;5;2020-09-29;Unidades de Internacao;Gama Gt;Gama-GT;432;U/L;8 a 41;False
B63DA2E7EA3F8C6A33CBE86AB6042416;C589E76A0ECC6B4E671D620D1E2BECC4;F;1994;2020-09-27;2020-10-02;Alta medica melhorado;5;2020-10-01;Unidades de Internacao;Gama Gt;Gama-GT;320;U/L;8 a 41;False
B63DA2E7EA3F8C6A33CBE86AB6042416;C589E76A0ECC6B4E671D620D1E2BECC4;F;1994;2020-09-27;2020-10-02;Alta medica melhorado;5;2020-09-30;Unidades de Internacao;Gama Gt;Gama-GT;371;U/L;8 a 41;False
B897DE7151013EE8A421763200EBFB7A;A71F6E0EA430D1E765C607F675F4B107;F;1982;2020-11-01;2020-11-04;Alta medica melhorado;3;2020-11-01;Unidades de Internacao;Gama Gt;Gama-GT;13;U/L;8 a 41;False
BAD687E36762AE4F96DD0DB7FBD3D0C3;7AD823D68CB3458939F6BAE9839174AD;F;1982;2020-09-14;2020-09-16;Alta medica melhorado;2;2020-09-14;Unidades de Internacao;Gama Gt;Gama-GT;307;U/L;8 a 41;False
BAD687E36762AE4F96DD0DB7FBD3D0C3;7AD823D68CB3458939F6BAE9839174AD;F;1982;2020-09-14;2020-09-16;Alta medica melhorado;2;2020-09-15;Unidades de Internacao;Gama Gt;Gama-GT;415;U/L;8 a 41;False
BAD687E36762AE4F96DD0DB7FBD3D0C3;7AD823D68CB3458939F6BAE9839174AD;F;1982;2020-09-14;2020-09-16;Alta medica melhorado;2;2020-09-14;Unidades de Internacao;Gama Gt;Gama-GT;350;U/L;8 a 41;False
BFA88DBDA5AD8016C16A132D197A552C;A02658A5B5D16080512977EC49674D6E;F;1982;2020-11-01;2020-11-08;Alta medica melhorado;7;2020-11-01;Unidades de Internacao;Gama Gt;Gama-GT;199;U/L;8 a 41;False
BFA88DBDA5AD8016C16A132D197A552C;A02658A5B5D16080512977EC49674D6E;F;1982;2020-11-01;2020-11-08;Alta medica melhorado;7;2020-11-01;Unidades de Internacao;Gama Gt;Gama-GT;208;U/L;8 a 41;False
C0272E57333DC17CB3CFC64848A52E57;062C3BABEAAC1C01724028A8AFFD6C4D;F;2000;2020-04-25;2020-05-03;Alta medica melhorado;8;2020-05-02;Unidades de Internacao;Gama Gt;Gama-GT;20;U/L;8 a 41;False
C1039670D799AE6DED9888D9DD8B5E9F;96D28E9AB7509C706E915E3AB5FE3529;F;1985;2020-06-23;2020-06-29;Alta medica melhorado;6;2020-06-23;UTI;Gama Gt;Gama-GT;16;U/L;8 a 41;False
C15B6D7CC883AA5ECB17DE5A3A689D9A;529EF9CC6477BFC62F7261EE20BF91BE;F;1975;2020-10-16;2020-10-23;Alta medica melhorado;7;2020-10-16;Pronto Socorro;Gama Gt;Gama-GT;797;U/L;8 a 41;True
C15B6D7CC883AA5ECB17DE5A3A689D9A;529EF9CC6477BFC62F7261EE20BF91BE;F;1975;2020-10-16;2020-10-23;Alta medica melhorado;7;2020-10-16;UTI;Gama Gt;Gama-GT;679;U/L;8 a 41;False
C15B6D7CC883AA5ECB17DE5A3A689D9A;529EF9CC6477BFC62F7261EE20BF91BE;F;1975;2020-10-16;2020-10-23;Alta medica melhorado;7;2020-10-20;Unidades de Internacao;Gama Gt;Gama-GT;665;U/L;8 a 41;False
C15B6D7CC883AA5ECB17DE5A3A689D9A;529EF9CC6477BFC62F7261EE20BF91BE;F;1975;2020-10-16;2020-10-23;Alta medica melhorado;7;2020-10-18;Unidades de Internacao;Gama Gt;Gama-GT;650;U/L;8 a 41;False
C15B6D7CC883AA5ECB17DE5A3A689D9A;529EF9CC6477BFC62F7261EE20BF91BE;F;1975;2020-10-16;2020-10-23;Alta medica melhorado;7;2020-10-21;Unidades de Internacao;Gama Gt;Gama-GT;731;U/L;8 a 41;True
C15B6D7CC883AA5ECB17DE5A3A689D9A;529EF9CC6477BFC62F7261EE20BF91BE;F;1975;2020-10-16;2020-10-23;Alta medica melhorado;7;2020-10-19;Unidades de Internacao;Gama Gt;Gama-GT;633;U/L;8 a 41;False
C15B6D7CC883AA5ECB17DE5A3A689D9A;529EF9CC6477BFC62F7261EE20BF91BE;F;1975;2020-10-16;2020-10-23;Alta medica melhorado;7;2020-10-22;Unidades de Internacao;Gama Gt;Gama-GT;742;U/L;8 a 41;True
C15B6D7CC883AA5ECB17DE5A3A689D9A;B146009B426808E07609288EBB252FF2;F;1975;2020-11-25;2020-11-27;Alta medica melhorado;2;2020-11-25;Pronto Socorro;Gama Gt;Gama-GT;600;U/L;8 a 41;False
C15B6D7CC883AA5ECB17DE5A3A689D9A;CCCE51BD88DA2A114E51CB744C47E398;F;1975;2020-11-06;2020-11-13;Alta medica melhorado;7;2020-11-11;Unidades de Internacao;Gama Gt;Gama-GT;541;U/L;8 a 41;False
C15B6D7CC883AA5ECB17DE5A3A689D9A;CCCE51BD88DA2A114E51CB744C47E398;F;1975;2020-11-06;2020-11-13;Alta medica melhorado;7;2020-11-06;Unidades de Internacao;Gama Gt;Gama-GT;708;U/L;8 a 41;False
C15B6D7CC883AA5ECB17DE5A3A689D9A;CCCE51BD88DA2A114E51CB744C47E398;F;1975;2020-11-06;2020-11-13;Alta medica melhorado;7;2020-11-09;Unidades de Internacao;Gama Gt;Gama-GT;498;U/L;8 a 41;False
C15B6D7CC883AA5ECB17DE5A3A689D9A;CCCE51BD88DA2A114E51CB744C47E398;F;1975;2020-11-06;2020-11-13;Alta medica melhorado;7;2020-11-12;Unidades de Internacao;Gama Gt;Gama-GT;591;U/L;8 a 41;False
C15B6D7CC883AA5ECB17DE5A3A689D9A;CCCE51BD88DA2A114E51CB744C47E398;F;1975;2020-11-06;2020-11-13;Alta medica melhorado;7;2020-11-10;Unidades de Internacao;Gama Gt;Gama-GT;490;U/L;8 a 41;False
C15B6D7CC883AA5ECB17DE5A3A689D9A;CCCE51BD88DA2A114E51CB744C47E398;F;1975;2020-11-06;2020-11-13;Alta medica melhorado;7;2020-11-07;Unidades de Internacao;Gama Gt;Gama-GT;624;U/L;8 a 41;False
C15B6D7CC883AA5ECB17DE5A3A689D9A;CCCE51BD88DA2A114E51CB744C47E398;F;1975;2020-11-06;2020-11-13;Alta medica melhorado;7;2020-11-08;Unidades de Internacao;Gama Gt;Gama-GT;535;U/L;8 a 41;False
C24704952B98401BA9F8C9062F81E7FF;E2FD953989F4381155AB27C71729A1FE;F;1972;2020-09-26;2020-10-03;Alta medica melhorado;7;2020-09-26;Unidades de Internacao;Gama Gt;Gama-GT;25;U/L;8 a 41;False
C86CCF6F0BFF127E65018A8E330E2340;86F1078F4E6944804F4341BC359CD2CF;F;1976;2020-06-02;2020-06-09;Alta medica melhorado;7;2020-06-02;UTI;Gama Gt;Gama-GT;41;U/L;8 a 41;False
C86EB9BAFEEDB686D59461EFBD3AFE26;000A53FD5C1243D786DB1D91A5EDD59F;F;1972;2020-05-22;2020-05-27;Alta Administrativa;5;2020-05-22;Recepcao do Centro Diagnostico;Gama Gt;Gama-GT;12;U/L;8 a 41;False
CCDE79E1D8F1954DCE5359C7BF22A24C;F03AE0968F51552AB8670BDB5FC0560E;F;1993;2020-11-05;2020-11-11;Alta medica melhorado;6;2020-11-05;Unidades de Internacao;Gama Gt;Gama-GT;13;U/L;8 a 41;False
CDE81A165156B137E26EF8958E5CEAA1;D43F438873B5FDBFD41084A8AD562283;F;1987;2020-09-15;2020-09-20;Alta medica melhorado;5;2020-09-15;Unidades de Internacao;Gama Gt;Gama-GT;38;U/L;8 a 41;False
CF58DD8870CB8AD13D5889B62F19C79A;3B4305D7FBBAAB6B75C9B9BF5A9D99D0;F;1984;2020-04-03;2020-04-12;Alta medica melhorado;9;2020-04-08;Unidades de Internacao;Gama Gt;Gama-GT;303;U/L;8 a 41;False
CF58DD8870CB8AD13D5889B62F19C79A;3B4305D7FBBAAB6B75C9B9BF5A9D99D0;F;1984;2020-04-03;2020-04-12;Alta medica melhorado;9;2020-04-10;Unidades de Internacao;Gama Gt;Gama-GT;246;U/L;8 a 41;False
CF58DD8870CB8AD13D5889B62F19C79A;3B4305D7FBBAAB6B75C9B9BF5A9D99D0;F;1984;2020-04-03;2020-04-12;Alta medica melhorado;9;2020-04-07;Unidades de Internacao;Gama Gt;Gama-GT;244;U/L;8 a 41;False
CF58DD8870CB8AD13D5889B62F19C79A;3B4305D7FBBAAB6B75C9B9BF5A9D99D0;F;1984;2020-04-03;2020-04-12;Alta medica melhorado;9;2020-04-06;Unidades de Internacao;Gama Gt;Gama-GT;253;U/L;8 a 41;False
CF58DD8870CB8AD13D5889B62F19C79A;3B4305D7FBBAAB6B75C9B9BF5A9D99D0;F;1984;2020-04-03;2020-04-12;Alta medica melhorado;9;2020-04-09;Unidades de Internacao;Gama Gt;Gama-GT;318;U/L;8 a 41;False
D0C85DCA4A73D3299DBC6ADC46C6118D;34708D2132FBA524F137CD4A341AF9ED;F;1976;2020-04-16;2020-04-22;Alta medica melhorado;6;2020-04-17;Unidades de Internacao;Gama Gt;Gama-GT;12;U/L;8 a 41;False
D0CE703784E9C40CCECDF98D4C43AEA8;FD2D3605FAEB2F444906AD09B4D3CC97;F;1975;2020-12-04;2020-12-06;Alta medica melhorado;2;2020-12-04;Unidades de Internacao;Gama Gt;Gama-GT;8;U/L;8 a 41;False
D26DF56D570571922CB87FDA33FB42C3;FB7791F5C9349F498192252D34F933B1;F;1997;2020-05-21;2020-05-26;Alta medica melhorado;5;2020-05-23;Unidades de Internacao;Gama Gt;Gama-GT;13;U/L;8 a 41;False
D78E7A4BE381EFD29E291EBE01B73FC4;3ED4DA787B156943097A8B412623088D;F;1973;2020-03-30;2020-04-05;Alta medica melhorado;6;2020-03-30;Unidades de Internacao;Gama Gt;Gama-GT;16;U/L;8 a 41;False
D9791745DB75DE0CFDC580F83B523896;7F77255A7C1DDC67FA9B028A0EAC9CD0;F;1973;2020-08-21;2020-08-24;Alta medica melhorado;3;2020-08-21;Unidades de Internacao;Gama Gt;Gama-GT;18;U/L;8 a 41;False
DB70843F11316AE07A957B6D88BF3FB4;7EC72258125F483A54B327F5161F5BE7;F;1987;2020-11-12;2020-11-18;Alta medica melhorado;6;2020-11-12;Unidades de Internacao;Gama Gt;Gama-GT;12;U/L;8 a 41;False
E4A97ACABA540D8FF37E1AE2A787FFEF;DA0FB783995FAC0E8D99FFF0ADEE12BE;F;1974;2020-12-10;2020-12-13;Alta medica melhorado;3;2020-12-10;Unidades de Internacao;Gama Gt;Gama-GT;16;U/L;8 a 41;False
E4A97ACABA540D8FF37E1AE2A787FFEF;DA0FB783995FAC0E8D99FFF0ADEE12BE;F;1974;2020-12-10;2020-12-13;Alta medica melhorado;3;2020-12-11;Unidades de Internacao;Gama Gt;Gama-GT;20;U/L;8 a 41;False
E82231DF6F6D85038055CDA9A1CA03E5;46A911EF3A14A51A8F1AD65B04966A70;F;1993;2020-11-30;2020-12-11;Alta medica melhorado;11;2020-11-30;Unidades de Internacao;Gama Gt;Gama-GT;51;U/L;8 a 41;False
E82231DF6F6D85038055CDA9A1CA03E5;46A911EF3A14A51A8F1AD65B04966A70;F;1993;2020-11-30;2020-12-11;Alta medica melhorado;11;2020-12-06;Unidades de Internacao;Gama Gt;Gama-GT;53;U/L;8 a 41;False
EB802A3962E1EB6F149A1CDB14C84E79;FDFE3BAF01F35B3D8179FDC2B586FEB4;F;1981;2020-11-12;2020-11-19;Alta medica melhorado;7;2020-11-12;Unidades de Internacao;Gama Gt;Gama-GT;13;U/L;8 a 41;False
EE56049FBA79414DADDD5510BC459F87;3639B5912FC76B1774A0C3700252A034;F;1980;2020-03-16;2020-03-25;Alta medica melhorado;9;2020-03-16;UTI;Gama Gt;Gama-GT;38;U/L;8 a 41;False
EF50D8DA83805F7F280D9C5C08114264;5DFA5E70E9011A54D638701116B54F40;F;1972;2020-08-04;2020-08-08;Alta medica melhorado;4;2020-08-04;Pronto Socorro;Gama Gt;Gama-GT;43;U/L;8 a 41;False
F169F033D7CDB4E9580A900440753616;53BE814085C607CD11A729CCDD23C252;F;1972;2020-04-17;2020-06-20;Alta medica melhorado;64;2020-05-11;UTI;Gama Gt;Gama-GT;304;U/L;8 a 41;False
F169F033D7CDB4E9580A900440753616;53BE814085C607CD11A729CCDD23C252;F;1972;2020-04-17;2020-06-20;Alta medica melhorado;64;2020-05-06;UTI;Gama Gt;Gama-GT;545;U/L;8 a 41;False
F169F033D7CDB4E9580A900440753616;53BE814085C607CD11A729CCDD23C252;F;1972;2020-04-17;2020-06-20;Alta medica melhorado;64;2020-05-14;UTI;Gama Gt;Gama-GT;208;U/L;8 a 41;False
F169F033D7CDB4E9580A900440753616;53BE814085C607CD11A729CCDD23C252;F;1972;2020-04-17;2020-06-20;Alta medica melhorado;64;2020-04-20;UTI;Gama Gt;Gama-GT;109;U/L;8 a 41;False
F169F033D7CDB4E9580A900440753616;53BE814085C607CD11A729CCDD23C252;F;1972;2020-04-17;2020-06-20;Alta medica melhorado;64;2020-05-05;UTI;Gama Gt;Gama-GT;713;U/L;8 a 41;True
F7A5FAEDAE9AD1A882D3CE682AB797EC;A5C063A56402E2BDE6FB17A868663638;F;1988;2020-09-29;2020-10-05;Alta medica melhorado;6;2020-09-29;Unidades de Internacao;Gama Gt;Gama-GT;10;U/L;8 a 41;False
F8071E1636B5D74EE4EB59F4D78C3BB3;B2663772F49BBE62023DE66302EAC972;F;1983;2020-09-24;2020-09-27;Alta medica melhorado;3;2020-09-24;Pronto Socorro;Gama Gt;Gama-GT;18;U/L;8 a 41;False
F8071E1636B5D74EE4EB59F4D78C3BB3;B2663772F49BBE62023DE66302EAC972;F;1983;2020-09-24;2020-09-27;Alta medica melhorado;3;2020-09-26;Unidades de Internacao;Gama Gt;Gama-GT;24;U/L;8 a 41;False
F8071E1636B5D74EE4EB59F4D78C3BB3;B2663772F49BBE62023DE66302EAC972;F;1983;2020-09-24;2020-09-27;Alta medica melhorado;3;2020-09-24;Unidades de Internacao;Gama Gt;Gama-GT;15;U/L;8 a 41;False
FAEF4ECD6AC31E53AD7AA2D8871F58C1;01EEAE5726A229E44EA9AC9A7D47358E;F;1974;2020-09-16;2020-09-23;Alta medica melhorado;7;2020-09-16;Unidades de Internacao;Gama Gt;Gama-GT;8;U/L;8 a 41;False
FC2E912E9EEBB69D232C07B90C0F49CC;55B46A7149BF27299DBDC23F23F27138;F;1975;2020-10-31;2020-11-02;Alta medica melhorado;2;2020-11-01;Unidades de Internacao;Gama Gt;Gama-GT;170;U/L;8 a 41;False
