ID_PACIENTE;ID_ATENDIMENTO;IC_SEXO;aa_nascimento;DT_ATENDIMENTO;DT_DESFECHO;DE_DESFECHO;DAYS;DT_COLETA;DE_ORIGEM;DE_EXAME;DE_ANALITO;DE_RESULTADO;CD_UNIDADE;DE_VALOR_REFERENCIA;OUTLIERS
0355D634CD7585CA76A3A3817EF99C3C;04DD2FC0F127E3C6AC335F46562AC607;F;1982;2020-08-12;2020-08-17;Alta medica melhorado;5;2020-08-13;Unidades de Internacao;Gasometria Venosa;pCO2 venoso;50;mmHg;38 a 50;False
0355D634CD7585CA76A3A3817EF99C3C;04DD2FC0F127E3C6AC335F46562AC607;F;1982;2020-08-12;2020-08-17;Alta medica melhorado;5;2020-08-13;Unidades de Internacao;Gasometria Venosa;pCO2 venoso;42;mmHg;38 a 50;False
0355D634CD7585CA76A3A3817EF99C3C;04DD2FC0F127E3C6AC335F46562AC607;F;1982;2020-08-12;2020-08-17;Alta medica melhorado;5;2020-08-14;Unidades de Internacao;Gasometria Venosa;pCO2 venoso;44;mmHg;38 a 50;False
0355D634CD7585CA76A3A3817EF99C3C;04DD2FC0F127E3C6AC335F46562AC607;F;1982;2020-08-12;2020-08-17;Alta medica melhorado;5;2020-08-13;Unidades de Internacao;Gasometria Venosa;pCO2 venoso;44;mmHg;38 a 50;False
11B85F4A508BF2FA4DB48A6E530C2A5B;E0DF701B39FE66906D23D7A6C45ED03C;F;1989;2020-03-20;2020-03-23;Alta medica melhorado;3;2020-03-20;Unidades de Internacao;Gasometria Venosa;pCO2 venoso;43;mmHg;38 a 50;False
12E1A6B3002FFA47CB2568CBB325D8E4;1E0A39F374FB2B4FDBD0476874D9312A;F;1993;2020-10-09;2020-10-13;Alta medica melhorado;4;2020-10-09;Unidades de Internacao;Gasometria Venosa;pCO2 venoso;43;mmHg;38 a 50;False
1E7725F341F622CDE7C2D82863DF4753;119C6B21EC5FDD7829798ED8F3CD9B83;F;1981;2020-03-17;2020-03-26;Alta medica melhorado;9;2020-03-19;UTI;Gasometria Venosa;pCO2 venoso;41;mmHg;38 a 50;False
1E7725F341F622CDE7C2D82863DF4753;119C6B21EC5FDD7829798ED8F3CD9B83;F;1981;2020-03-17;2020-03-26;Alta medica melhorado;9;2020-03-20;Unidades de Internacao;Gasometria Venosa;pCO2 venoso;45;mmHg;38 a 50;False
1F4C9489E4CC10D2FF7CDBAA623C7AAF;1011C2F95E98FA5011E49A319F9465BD;F;1978;2020-10-13;2020-10-17;Alta medica melhorado;4;2020-10-13;UTI;Gasometria Venosa;pCO2 venoso;49;mmHg;38 a 50;False
1F4C9489E4CC10D2FF7CDBAA623C7AAF;1011C2F95E98FA5011E49A319F9465BD;F;1978;2020-10-13;2020-10-17;Alta medica melhorado;4;2020-10-14;UTI;Gasometria Venosa;pCO2 venoso;41;mmHg;38 a 50;False
1F4C9489E4CC10D2FF7CDBAA623C7AAF;1011C2F95E98FA5011E49A319F9465BD;F;1978;2020-10-13;2020-10-17;Alta medica melhorado;4;2020-10-15;UTI;Gasometria Venosa;pCO2 venoso;36;mmHg;38 a 50;False
357FA4612D1A46CE54C0D0C91DE9F6EC;6549FB187560C772FAD6830D95154706;F;1980;2020-05-02;2020-05-04;Alta medica melhorado;2;2020-05-02;Pronto Socorro;Gasometria Venosa;pCO2 venoso;48;mmHg;38 a 50;False
3798216F0EF2473C410AB250B8A8BDA8;05B97387AEED31407972B5F6F39F7497;F;1980;2020-03-30;2020-04-07;Alta medica melhorado;8;2020-03-30;Unidades de Internacao;Gasometria Venosa;pCO2 venoso;32;mmHg;38 a 50;False
3CC8378A403D76627F31A517D8D9F232;4BC20F4158C3483D3DDF60C291DE540C;F;1978;2020-11-16;2020-11-28;Alta medica melhorado;12;2020-11-17;UTI;Gasometria Venosa;pCO2 venoso;33;mmHg;38 a 50;False
41E7C9A85B7C9D3CF45C4720D695537D;897C76FB43550CF8CCD7BEF55DF66DE3;F;1979;2020-05-05;2020-05-13;Alta medica melhorado;8;2020-05-05;Unidades de Internacao;Gasometria Venosa;pCO2 venoso;37;mmHg;38 a 50;False
4AF863B9C598125B9E27296C851AEFCB;8B951EB2B323A719768A8C425BD9FA15;F;1974;2020-06-30;2020-07-14;Alta medica melhorado;14;2020-07-04;UTI;Gasometria Venosa;pCO2 venoso;35;mmHg;38 a 50;False
4AF863B9C598125B9E27296C851AEFCB;8B951EB2B323A719768A8C425BD9FA15;F;1974;2020-06-30;2020-07-14;Alta medica melhorado;14;2020-07-04;UTI;Gasometria Venosa;pCO2 venoso;30;mmHg;38 a 50;False
4AF863B9C598125B9E27296C851AEFCB;8B951EB2B323A719768A8C425BD9FA15;F;1974;2020-06-30;2020-07-14;Alta medica melhorado;14;2020-07-04;UTI;Gasometria Venosa;pCO2 venoso;37;mmHg;38 a 50;False
4AF863B9C598125B9E27296C851AEFCB;8B951EB2B323A719768A8C425BD9FA15;F;1974;2020-06-30;2020-07-14;Alta medica melhorado;14;2020-06-30;Unidades de Internacao;Gasometria Venosa;pCO2 venoso;33;mmHg;38 a 50;False
4AF863B9C598125B9E27296C851AEFCB;8B951EB2B323A719768A8C425BD9FA15;F;1974;2020-06-30;2020-07-14;Alta medica melhorado;14;2020-07-05;Unidades de Internacao;Gasometria Venosa;pCO2 venoso;38;mmHg;38 a 50;False
4AF863B9C598125B9E27296C851AEFCB;C25F2EB303421BE906A7A8C679B21040;F;1974;2020-10-18;2020-10-22;Alta medica melhorado;4;2020-10-20;UTI;Gasometria Venosa;pCO2 venoso;43;mmHg;38 a 50;False
4AF863B9C598125B9E27296C851AEFCB;C25F2EB303421BE906A7A8C679B21040;F;1974;2020-10-18;2020-10-22;Alta medica melhorado;4;2020-10-21;Unidades de Internacao;Gasometria Venosa;pCO2 venoso;46;mmHg;38 a 50;False
4B6AE3302D691767A6BF220E359125C7;A442041A66611B42B9E120360EF6B172;F;1982;2020-11-12;2020-12-27;Alta medica melhorado;45;2020-11-14;UTI;Gasometria Venosa;pCO2 venoso;42;mmHg;38 a 50;False
4B6AE3302D691767A6BF220E359125C7;A442041A66611B42B9E120360EF6B172;F;1982;2020-11-12;2020-12-27;Alta medica melhorado;45;2020-11-13;UTI;Gasometria Venosa;pCO2 venoso;35;mmHg;38 a 50;False
4B6AE3302D691767A6BF220E359125C7;A442041A66611B42B9E120360EF6B172;F;1982;2020-11-12;2020-12-27;Alta medica melhorado;45;2020-11-13;UTI;Gasometria Venosa;pCO2 venoso;38;mmHg;38 a 50;False
4B6AE3302D691767A6BF220E359125C7;A442041A66611B42B9E120360EF6B172;F;1982;2020-11-12;2020-12-27;Alta medica melhorado;45;2020-11-13;UTI;Gasometria Venosa;pCO2 venoso;36;mmHg;38 a 50;False
4B6AE3302D691767A6BF220E359125C7;A442041A66611B42B9E120360EF6B172;F;1982;2020-11-12;2020-12-27;Alta medica melhorado;45;2020-11-15;UTI;Gasometria Venosa;pCO2 venoso;39;mmHg;38 a 50;False
4B6AE3302D691767A6BF220E359125C7;A442041A66611B42B9E120360EF6B172;F;1982;2020-11-12;2020-12-27;Alta medica melhorado;45;2020-11-12;UTI;Gasometria Venosa;pCO2 venoso;33;mmHg;38 a 50;False
4B6AE3302D691767A6BF220E359125C7;A442041A66611B42B9E120360EF6B172;F;1982;2020-11-12;2020-12-27;Alta medica melhorado;45;2020-12-18;Unidades de Internacao;Gasometria Venosa;pCO2 venoso;43;mmHg;38 a 50;False
4B6AE3302D691767A6BF220E359125C7;A442041A66611B42B9E120360EF6B172;F;1982;2020-11-12;2020-12-27;Alta medica melhorado;45;2020-12-20;Unidades de Internacao;Gasometria Venosa;pCO2 venoso;45;mmHg;38 a 50;False
4B6AE3302D691767A6BF220E359125C7;A442041A66611B42B9E120360EF6B172;F;1982;2020-11-12;2020-12-27;Alta medica melhorado;45;2020-12-23;Unidades de Internacao;Gasometria Venosa;pCO2 venoso;43;mmHg;38 a 50;False
4B6AE3302D691767A6BF220E359125C7;A442041A66611B42B9E120360EF6B172;F;1982;2020-11-12;2020-12-27;Alta medica melhorado;45;2020-12-19;Unidades de Internacao;Gasometria Venosa;pCO2 venoso;31;mmHg;38 a 50;False
4B6AE3302D691767A6BF220E359125C7;A442041A66611B42B9E120360EF6B172;F;1982;2020-11-12;2020-12-27;Alta medica melhorado;45;2020-11-19;UTI;Gasometria Venosa;pCO2 venoso;46;mmHg;38 a 50;False
4B6AE3302D691767A6BF220E359125C7;A442041A66611B42B9E120360EF6B172;F;1982;2020-11-12;2020-12-27;Alta medica melhorado;45;2020-12-01;UTI;Gasometria Venosa;pCO2 venoso;41;mmHg;38 a 50;False
4B6AE3302D691767A6BF220E359125C7;A442041A66611B42B9E120360EF6B172;F;1982;2020-11-12;2020-12-27;Alta medica melhorado;45;2020-11-20;UTI;Gasometria Venosa;pCO2 venoso;41;mmHg;38 a 50;False
4B6AE3302D691767A6BF220E359125C7;A442041A66611B42B9E120360EF6B172;F;1982;2020-11-12;2020-12-27;Alta medica melhorado;45;2020-11-16;UTI;Gasometria Venosa;pCO2 venoso;42;mmHg;38 a 50;False
4B6AE3302D691767A6BF220E359125C7;A442041A66611B42B9E120360EF6B172;F;1982;2020-11-12;2020-12-27;Alta medica melhorado;45;2020-12-16;Unidades de Internacao;Gasometria Venosa;pCO2 venoso;45;mmHg;38 a 50;False
4B6AE3302D691767A6BF220E359125C7;A442041A66611B42B9E120360EF6B172;F;1982;2020-11-12;2020-12-27;Alta medica melhorado;45;2020-12-17;Unidades de Internacao;Gasometria Venosa;pCO2 venoso;44;mmHg;38 a 50;False
4B6AE3302D691767A6BF220E359125C7;A442041A66611B42B9E120360EF6B172;F;1982;2020-11-12;2020-12-27;Alta medica melhorado;45;2020-12-17;Unidades de Internacao;Gasometria Venosa;pCO2 venoso;47;mmHg;38 a 50;False
4E59A67C5ABF07F58BB26B0659A1BBF1;DEDE916B3B0055F63C686B8F4C7E8A72;F;1973;2020-08-04;2020-08-08;Alta medica melhorado;4;2020-08-04;Pronto Socorro;Gasometria Venosa;pCO2 venoso;36;mmHg;38 a 50;False
4E59A67C5ABF07F58BB26B0659A1BBF1;DEDE916B3B0055F63C686B8F4C7E8A72;F;1973;2020-08-04;2020-08-08;Alta medica melhorado;4;2020-08-04;Pronto Socorro;Gasometria Venosa;pCO2 venoso;34;mmHg;38 a 50;False
50DC2C5F8F5DF48907BDDB655AD10FFD;8E4FCADDC5939474289F4CE81D7F0B1F;F;1984;2020-05-06;2020-05-11;Alta medica melhorado;5;2020-05-06;UTI;Gasometria Venosa;pCO2 venoso;53;mmHg;38 a 50;False
5D89DFAED540F456E58C8D3164CC2FF1;3C8C0C09D5F60C29B3DAA13398AE0FE4;F;1972;2020-03-20;2020-03-22;Alta medica melhorado;2;2020-03-20;Unidades de Internacao;Gasometria Venosa;pCO2 venoso;51;mmHg;38 a 50;False
6960A46A81F18DECDF6CC84FC6C568B8;A9D3AB9F0452400AFE7A5E2007E90AB4;F;1977;2020-07-24;2020-07-26;Alta medica melhorado;2;2020-07-24;Unidades de Internacao;Gasometria Venosa;pCO2 venoso;25;mmHg;38 a 50;False
6F0A6A0E0839924AD125035171DD456F;8868FDC3A0E8F33E56A81745A733E82B;F;1972;2020-04-08;2020-04-24;Alta medica melhorado;16;2020-04-08;Pronto Socorro;Gasometria Venosa;pCO2 venoso;44;mmHg;38 a 50;False
6F0A6A0E0839924AD125035171DD456F;8868FDC3A0E8F33E56A81745A733E82B;F;1972;2020-04-08;2020-04-24;Alta medica melhorado;16;2020-04-15;UTI;Gasometria Venosa;pCO2 venoso;37;mmHg;38 a 50;False
6F0A6A0E0839924AD125035171DD456F;8868FDC3A0E8F33E56A81745A733E82B;F;1972;2020-04-08;2020-04-24;Alta medica melhorado;16;2020-04-14;UTI;Gasometria Venosa;pCO2 venoso;39;mmHg;38 a 50;False
6F0A6A0E0839924AD125035171DD456F;8868FDC3A0E8F33E56A81745A733E82B;F;1972;2020-04-08;2020-04-24;Alta medica melhorado;16;2020-04-18;UTI;Gasometria Venosa;pCO2 venoso;39;mmHg;38 a 50;False
6F0A6A0E0839924AD125035171DD456F;8868FDC3A0E8F33E56A81745A733E82B;F;1972;2020-04-08;2020-04-24;Alta medica melhorado;16;2020-04-12;UTI;Gasometria Venosa;pCO2 venoso;43;mmHg;38 a 50;False
6F0A6A0E0839924AD125035171DD456F;8868FDC3A0E8F33E56A81745A733E82B;F;1972;2020-04-08;2020-04-24;Alta medica melhorado;16;2020-04-10;UTI;Gasometria Venosa;pCO2 venoso;46;mmHg;38 a 50;False
6F0A6A0E0839924AD125035171DD456F;8868FDC3A0E8F33E56A81745A733E82B;F;1972;2020-04-08;2020-04-24;Alta medica melhorado;16;2020-04-13;UTI;Gasometria Venosa;pCO2 venoso;43;mmHg;38 a 50;False
6F0A6A0E0839924AD125035171DD456F;8868FDC3A0E8F33E56A81745A733E82B;F;1972;2020-04-08;2020-04-24;Alta medica melhorado;16;2020-04-16;UTI;Gasometria Venosa;pCO2 venoso;40;mmHg;38 a 50;False
6F0A6A0E0839924AD125035171DD456F;8868FDC3A0E8F33E56A81745A733E82B;F;1972;2020-04-08;2020-04-24;Alta medica melhorado;16;2020-04-09;UTI;Gasometria Venosa;pCO2 venoso;45;mmHg;38 a 50;False
6F0A6A0E0839924AD125035171DD456F;8868FDC3A0E8F33E56A81745A733E82B;F;1972;2020-04-08;2020-04-24;Alta medica melhorado;16;2020-04-09;UTI;Gasometria Venosa;pCO2 venoso;45;mmHg;38 a 50;False
6F0A6A0E0839924AD125035171DD456F;8868FDC3A0E8F33E56A81745A733E82B;F;1972;2020-04-08;2020-04-24;Alta medica melhorado;16;2020-04-17;UTI;Gasometria Venosa;pCO2 venoso;45;mmHg;38 a 50;False
6F0A6A0E0839924AD125035171DD456F;8868FDC3A0E8F33E56A81745A733E82B;F;1972;2020-04-08;2020-04-24;Alta medica melhorado;16;2020-04-19;Unidades de Internacao;Gasometria Venosa;pCO2 venoso;51;mmHg;38 a 50;False
6F0A6A0E0839924AD125035171DD456F;8868FDC3A0E8F33E56A81745A733E82B;F;1972;2020-04-08;2020-04-24;Alta medica melhorado;16;2020-04-20;Unidades de Internacao;Gasometria Venosa;pCO2 venoso;53;mmHg;38 a 50;False
74BE94D2B6F66922730A4FD55CC95B3E;AB43AA19BF9A37755A66D17C10F0C173;F;1976;2020-08-11;2020-08-24;Alta medica melhorado;13;2020-08-17;Unidades de Internacao;Gasometria Venosa;pCO2 venoso;39;mmHg;38 a 50;False
769E89D426E84A4797EF495608A0429E;946A572422AD60861E06A145A5C0A3F8;F;1974;2020-05-05;2020-05-13;Alta medica melhorado;8;2020-05-05;UTI;Gasometria Venosa;pCO2 venoso;48;mmHg;38 a 50;False
769E89D426E84A4797EF495608A0429E;946A572422AD60861E06A145A5C0A3F8;F;1974;2020-05-05;2020-05-13;Alta medica melhorado;8;2020-05-05;UTI;Gasometria Venosa;pCO2 venoso;46;mmHg;38 a 50;False
769E89D426E84A4797EF495608A0429E;946A572422AD60861E06A145A5C0A3F8;F;1974;2020-05-05;2020-05-13;Alta medica melhorado;8;2020-05-09;UTI;Gasometria Venosa;pCO2 venoso;45;mmHg;38 a 50;False
769E89D426E84A4797EF495608A0429E;946A572422AD60861E06A145A5C0A3F8;F;1974;2020-05-05;2020-05-13;Alta medica melhorado;8;2020-05-09;UTI;Gasometria Venosa;pCO2 venoso;45;mmHg;38 a 50;False
7A083816C578B71EA4124743D3CB5148;99E756E28DC40D6D53D0B8A35CD92E2B;F;1972;2020-05-26;2020-06-05;Alta medica melhorado;10;2020-05-30;UTI;Gasometria Venosa;pCO2 venoso;49;mmHg;38 a 50;False
7A083816C578B71EA4124743D3CB5148;99E756E28DC40D6D53D0B8A35CD92E2B;F;1972;2020-05-26;2020-06-05;Alta medica melhorado;10;2020-05-30;UTI;Gasometria Venosa;pCO2 venoso;48;mmHg;38 a 50;False
7A083816C578B71EA4124743D3CB5148;99E756E28DC40D6D53D0B8A35CD92E2B;F;1972;2020-05-26;2020-06-05;Alta medica melhorado;10;2020-05-26;UTI;Gasometria Venosa;pCO2 venoso;34;mmHg;38 a 50;False
7B4B5622119E554F2132513624E95BE8;B3E3457959A9957443D71B6C7194E568;F;1998;2020-12-02;2020-12-07;Alta Administrativa;5;2020-12-03;Hemodialise;Gasometria Venosa;pCO2 venoso;37;mmHg;38 a 50;False
7B4B5622119E554F2132513624E95BE8;EEAFC1C59CA688671FF6D3C63AE58BDD;F;1998;2020-11-07;2020-12-01;Alta medica melhorado;24;2020-11-26;Unidades de Internacao;Gasometria Venosa;pCO2 venoso;41;mmHg;38 a 50;False
7B4B5622119E554F2132513624E95BE8;EEAFC1C59CA688671FF6D3C63AE58BDD;F;1998;2020-11-07;2020-12-01;Alta medica melhorado;24;2020-11-08;UTI;Gasometria Venosa;pCO2 venoso;50;mmHg;38 a 50;False
7B4B5622119E554F2132513624E95BE8;EEAFC1C59CA688671FF6D3C63AE58BDD;F;1998;2020-11-07;2020-12-01;Alta medica melhorado;24;2020-11-07;UTI;Gasometria Venosa;pCO2 venoso;48;mmHg;38 a 50;False
7B4B5622119E554F2132513624E95BE8;EEAFC1C59CA688671FF6D3C63AE58BDD;F;1998;2020-11-07;2020-12-01;Alta medica melhorado;24;2020-11-12;UTI;Gasometria Venosa;pCO2 venoso;45;mmHg;38 a 50;False
7B4B5622119E554F2132513624E95BE8;EEAFC1C59CA688671FF6D3C63AE58BDD;F;1998;2020-11-07;2020-12-01;Alta medica melhorado;24;2020-11-10;UTI;Gasometria Venosa;pCO2 venoso;55;mmHg;38 a 50;False
7B4B5622119E554F2132513624E95BE8;EEAFC1C59CA688671FF6D3C63AE58BDD;F;1998;2020-11-07;2020-12-01;Alta medica melhorado;24;2020-11-17;UTI;Gasometria Venosa;pCO2 venoso;42;mmHg;38 a 50;False
7B4B5622119E554F2132513624E95BE8;EEAFC1C59CA688671FF6D3C63AE58BDD;F;1998;2020-11-07;2020-12-01;Alta medica melhorado;24;2020-11-09;UTI;Gasometria Venosa;pCO2 venoso;50;mmHg;38 a 50;False
7B4B5622119E554F2132513624E95BE8;EEAFC1C59CA688671FF6D3C63AE58BDD;F;1998;2020-11-07;2020-12-01;Alta medica melhorado;24;2020-11-18;UTI;Gasometria Venosa;pCO2 venoso;43;mmHg;38 a 50;False
7B4B5622119E554F2132513624E95BE8;EEAFC1C59CA688671FF6D3C63AE58BDD;F;1998;2020-11-07;2020-12-01;Alta medica melhorado;24;2020-11-25;UTI;Gasometria Venosa;pCO2 venoso;40;mmHg;38 a 50;False
7B4B5622119E554F2132513624E95BE8;EEAFC1C59CA688671FF6D3C63AE58BDD;F;1998;2020-11-07;2020-12-01;Alta medica melhorado;24;2020-11-16;UTI;Gasometria Venosa;pCO2 venoso;42;mmHg;38 a 50;False
7E063B56A31316CC151E1592B7CDF96C;21FB18589DABD7B316D82C63C63EF283;F;1991;2020-08-04;2020-08-06;Alta medica melhorado;2;2020-08-04;Pronto Socorro;Gasometria Venosa;pCO2 venoso;47;mmHg;38 a 50;False
8185CB8A9220B8FA06A33C5BB26C35AD;D76895D744B84D1885057347B40FDEC6;F;1996;2020-06-05;2020-06-22;Alta medica melhorado;17;2020-06-15;Unidades de Internacao;Gasometria Venosa;pCO2 venoso;25;mmHg;38 a 50;False
8185CB8A9220B8FA06A33C5BB26C35AD;D76895D744B84D1885057347B40FDEC6;F;1996;2020-06-05;2020-06-22;Alta medica melhorado;17;2020-06-05;Unidades de Internacao;Gasometria Venosa;pCO2 venoso;35;mmHg;38 a 50;False
8CE620E5450924DE04D041EB5DB33440;3A65048EEDF3CF14AFF3EABDA25107DB;F;1972;2020-12-07;2020-12-12;Alta medica melhorado;5;2020-12-07;Unidades de Internacao;Gasometria Venosa;pCO2 venoso;35;mmHg;38 a 50;False
8CE620E5450924DE04D041EB5DB33440;3A65048EEDF3CF14AFF3EABDA25107DB;F;1972;2020-12-07;2020-12-12;Alta medica melhorado;5;2020-12-07;Unidades de Internacao;Gasometria Venosa;pCO2 venoso;34;mmHg;38 a 50;False
8F3903E17E6278D42BBD37AD7BAD65DF;1ECFDE9CA7E047BF8B5A45B6D8F8FEAD;F;1981;2020-03-02;2020-03-07;Alta Administrativa;5;2020-03-04;Hemodialise;Gasometria Venosa;pCO2 venoso;39;mmHg;38 a 50;False
8F3903E17E6278D42BBD37AD7BAD65DF;A5C8A8E19B05B52B23EECFE2D1B4D19C;F;1981;2020-03-30;2020-04-04;Alta Administrativa;5;2020-04-01;Hemodialise;Gasometria Venosa;pCO2 venoso;43;mmHg;38 a 50;False
8F3903E17E6278D42BBD37AD7BAD65DF;F6FF97A74415CE70D8E2AB065E9B28A5;F;1981;2020-04-23;2020-05-02;Alta medica melhorado;9;2020-04-24;Centro Cirurgico;Gasometria Venosa;pCO2 venoso;44;mmHg;38 a 50;False
8F3903E17E6278D42BBD37AD7BAD65DF;F6FF97A74415CE70D8E2AB065E9B28A5;F;1981;2020-04-23;2020-05-02;Alta medica melhorado;9;2020-04-27;Unidades de Internacao;Gasometria Venosa;pCO2 venoso;34;mmHg;38 a 50;False
8F3903E17E6278D42BBD37AD7BAD65DF;F6FF97A74415CE70D8E2AB065E9B28A5;F;1981;2020-04-23;2020-05-02;Alta medica melhorado;9;2020-04-24;Unidades de Internacao;Gasometria Venosa;pCO2 venoso;42;mmHg;38 a 50;False
8F3903E17E6278D42BBD37AD7BAD65DF;F6FF97A74415CE70D8E2AB065E9B28A5;F;1981;2020-04-23;2020-05-02;Alta medica melhorado;9;2020-04-30;Unidades de Internacao;Gasometria Venosa;pCO2 venoso;39;mmHg;38 a 50;False
8F3903E17E6278D42BBD37AD7BAD65DF;F6FF97A74415CE70D8E2AB065E9B28A5;F;1981;2020-04-23;2020-05-02;Alta medica melhorado;9;2020-04-25;Unidades de Internacao;Gasometria Venosa;pCO2 venoso;41;mmHg;38 a 50;False
94F5F7F06F2FA95E9E3C1F8E1F954779;95B6989FB0D8745DB2701A91B54C952A;F;1992;2020-04-28;2020-05-03;Alta medica melhorado;5;2020-04-29;Unidades de Internacao;Gasometria Venosa;pCO2 venoso;52;mmHg;38 a 50;False
94F5F7F06F2FA95E9E3C1F8E1F954779;95B6989FB0D8745DB2701A91B54C952A;F;1992;2020-04-28;2020-05-03;Alta medica melhorado;5;2020-04-29;Unidades de Internacao;Gasometria Venosa;pCO2 venoso;44;mmHg;38 a 50;False
94F5F7F06F2FA95E9E3C1F8E1F954779;A5281ED1393EF55009847C3FB2C28464;F;1992;2020-03-25;2020-04-01;Alta medica melhorado;7;2020-03-30;Unidades de Internacao;Gasometria Venosa;pCO2 venoso;52;mmHg;38 a 50;False
94F5F7F06F2FA95E9E3C1F8E1F954779;A5281ED1393EF55009847C3FB2C28464;F;1992;2020-03-25;2020-04-01;Alta medica melhorado;7;2020-03-25;Unidades de Internacao;Gasometria Venosa;pCO2 venoso;43;mmHg;38 a 50;False
95A393F20999483EEB632E4029594FED;E94A5C4FD5FCA7683E87F15646E8F6AE;F;1973;2020-06-23;2020-07-12;Alta medica melhorado;19;2020-07-02;Centro Cirurgico;Gasometria Venosa;pCO2 venoso;45;mmHg;38 a 50;False
95A393F20999483EEB632E4029594FED;E94A5C4FD5FCA7683E87F15646E8F6AE;F;1973;2020-06-23;2020-07-12;Alta medica melhorado;19;2020-06-24;UTI;Gasometria Venosa;pCO2 venoso;44;mmHg;38 a 50;False
9957DF51F26281A932EBB462C4E91DE6;6DA581252B37D0FCF0535389DE76439C;F;1979;2020-09-10;2020-09-12;Alta medica melhorado;2;2020-09-10;Unidades de Internacao;Gasometria Venosa;pCO2 venoso;44;mmHg;38 a 50;False
A5D964EDE0515C3D79E245D4A63CA838;3D0F46B4BB96B324FEE66680619B38EC;F;1993;2020-04-16;2020-04-18;Alta medica melhorado;2;2020-04-16;Unidades de Internacao;Gasometria Venosa;pCO2 venoso;45;mmHg;38 a 50;False
AAFCA9B5DA08F3A5A4042ECD77EA5948;ADC0F4899018163EACEE4E35136DD1E2;F;1990;2020-11-12;2020-12-18;Alta medica melhorado;36;2020-11-13;UTI;Gasometria Venosa;pCO2 venoso;38;mmHg;38 a 50;False
AAFCA9B5DA08F3A5A4042ECD77EA5948;ADC0F4899018163EACEE4E35136DD1E2;F;1990;2020-11-12;2020-12-18;Alta medica melhorado;36;2020-11-13;UTI;Gasometria Venosa;pCO2 venoso;34;mmHg;38 a 50;False
AAFCA9B5DA08F3A5A4042ECD77EA5948;ADC0F4899018163EACEE4E35136DD1E2;F;1990;2020-11-12;2020-12-18;Alta medica melhorado;36;2020-11-14;UTI;Gasometria Venosa;pCO2 venoso;42;mmHg;38 a 50;False
AAFCA9B5DA08F3A5A4042ECD77EA5948;ADC0F4899018163EACEE4E35136DD1E2;F;1990;2020-11-12;2020-12-18;Alta medica melhorado;36;2020-11-14;UTI;Gasometria Venosa;pCO2 venoso;32;mmHg;38 a 50;False
AAFCA9B5DA08F3A5A4042ECD77EA5948;ADC0F4899018163EACEE4E35136DD1E2;F;1990;2020-11-12;2020-12-18;Alta medica melhorado;36;2020-11-17;Unidades de Internacao;Gasometria Venosa;pCO2 venoso;46;mmHg;38 a 50;False
AAFCA9B5DA08F3A5A4042ECD77EA5948;ADC0F4899018163EACEE4E35136DD1E2;F;1990;2020-11-12;2020-12-18;Alta medica melhorado;36;2020-11-15;Unidades de Internacao;Gasometria Venosa;pCO2 venoso;39;mmHg;38 a 50;False
AAFCA9B5DA08F3A5A4042ECD77EA5948;ADC0F4899018163EACEE4E35136DD1E2;F;1990;2020-11-12;2020-12-18;Alta medica melhorado;36;2020-11-18;Unidades de Internacao;Gasometria Venosa;pCO2 venoso;47;mmHg;38 a 50;False
AAFCA9B5DA08F3A5A4042ECD77EA5948;ADC0F4899018163EACEE4E35136DD1E2;F;1990;2020-11-12;2020-12-18;Alta medica melhorado;36;2020-11-16;Unidades de Internacao;Gasometria Venosa;pCO2 venoso;48;mmHg;38 a 50;False
BFA88DBDA5AD8016C16A132D197A552C;A02658A5B5D16080512977EC49674D6E;F;1982;2020-11-01;2020-11-08;Alta medica melhorado;7;2020-11-01;Unidades de Internacao;Gasometria Venosa;pCO2 venoso;34;mmHg;38 a 50;False
BFA88DBDA5AD8016C16A132D197A552C;A02658A5B5D16080512977EC49674D6E;F;1982;2020-11-01;2020-11-08;Alta medica melhorado;7;2020-11-03;Unidades de Internacao;Gasometria Venosa;pCO2 venoso;44;mmHg;38 a 50;False
C1039670D799AE6DED9888D9DD8B5E9F;96D28E9AB7509C706E915E3AB5FE3529;F;1985;2020-06-23;2020-06-29;Alta medica melhorado;6;2020-06-23;UTI;Gasometria Venosa;pCO2 venoso;45;mmHg;38 a 50;False
C15B6D7CC883AA5ECB17DE5A3A689D9A;529EF9CC6477BFC62F7261EE20BF91BE;F;1975;2020-10-16;2020-10-23;Alta medica melhorado;7;2020-10-16;Pronto Socorro;Gasometria Venosa;pCO2 venoso;38;mmHg;38 a 50;False
C15B6D7CC883AA5ECB17DE5A3A689D9A;529EF9CC6477BFC62F7261EE20BF91BE;F;1975;2020-10-16;2020-10-23;Alta medica melhorado;7;2020-10-16;UTI;Gasometria Venosa;pCO2 venoso;37;mmHg;38 a 50;False
C15B6D7CC883AA5ECB17DE5A3A689D9A;529EF9CC6477BFC62F7261EE20BF91BE;F;1975;2020-10-16;2020-10-23;Alta medica melhorado;7;2020-10-17;UTI;Gasometria Venosa;pCO2 venoso;46;mmHg;38 a 50;False
C15B6D7CC883AA5ECB17DE5A3A689D9A;529EF9CC6477BFC62F7261EE20BF91BE;F;1975;2020-10-16;2020-10-23;Alta medica melhorado;7;2020-10-18;Unidades de Internacao;Gasometria Venosa;pCO2 venoso;48;mmHg;38 a 50;False
CF58DD8870CB8AD13D5889B62F19C79A;3B4305D7FBBAAB6B75C9B9BF5A9D99D0;F;1984;2020-04-03;2020-04-12;Alta medica melhorado;9;2020-04-03;Unidades de Internacao;Gasometria Venosa;pCO2 venoso;44;mmHg;38 a 50;False
D0CE703784E9C40CCECDF98D4C43AEA8;FD2D3605FAEB2F444906AD09B4D3CC97;F;1975;2020-12-04;2020-12-06;Alta medica melhorado;2;2020-12-06;Unidades de Internacao;Gasometria Venosa;pCO2 venoso;40;mmHg;38 a 50;False
D0CE703784E9C40CCECDF98D4C43AEA8;FD2D3605FAEB2F444906AD09B4D3CC97;F;1975;2020-12-04;2020-12-06;Alta medica melhorado;2;2020-12-04;Unidades de Internacao;Gasometria Venosa;pCO2 venoso;47;mmHg;38 a 50;False
DFFF5480393EE20C50F8C673C0DEA1F7;25FF4C8279364594DDBC15CA0D4F8D79;F;1979;2020-10-01;2020-10-05;Alta medica melhorado;4;2020-10-01;UTI;Gasometria Venosa;pCO2 venoso;43;mmHg;38 a 50;False
DFFF5480393EE20C50F8C673C0DEA1F7;25FF4C8279364594DDBC15CA0D4F8D79;F;1979;2020-10-01;2020-10-05;Alta medica melhorado;4;2020-10-01;UTI;Gasometria Venosa;pCO2 venoso;42;mmHg;38 a 50;False
E82231DF6F6D85038055CDA9A1CA03E5;46A911EF3A14A51A8F1AD65B04966A70;F;1993;2020-11-30;2020-12-11;Alta medica melhorado;11;2020-12-06;Unidades de Internacao;Gasometria Venosa;pCO2 venoso;42;mmHg;38 a 50;False
EC1FB389FCA32126CC75FAB504385529;79BC618987701742D2FD0285E9B929B8;F;1973;2020-07-12;2020-07-15;Alta medica melhorado;3;2020-07-12;Unidades de Internacao;Gasometria Venosa;pCO2 venoso;31;mmHg;38 a 50;False
EE56049FBA79414DADDD5510BC459F87;3639B5912FC76B1774A0C3700252A034;F;1980;2020-03-16;2020-03-25;Alta medica melhorado;9;2020-03-20;Unidades de Internacao;Gasometria Venosa;pCO2 venoso;51;mmHg;38 a 50;False
EE56049FBA79414DADDD5510BC459F87;3639B5912FC76B1774A0C3700252A034;F;1980;2020-03-16;2020-03-25;Alta medica melhorado;9;2020-03-17;UTI;Gasometria Venosa;pCO2 venoso;38;mmHg;38 a 50;False
EE56049FBA79414DADDD5510BC459F87;3639B5912FC76B1774A0C3700252A034;F;1980;2020-03-16;2020-03-25;Alta medica melhorado;9;2020-03-16;UTI;Gasometria Venosa;pCO2 venoso;36;mmHg;38 a 50;False
EE56049FBA79414DADDD5510BC459F87;3639B5912FC76B1774A0C3700252A034;F;1980;2020-03-16;2020-03-25;Alta medica melhorado;9;2020-03-18;UTI;Gasometria Venosa;pCO2 venoso;33;mmHg;38 a 50;False
EE56049FBA79414DADDD5510BC459F87;3639B5912FC76B1774A0C3700252A034;F;1980;2020-03-16;2020-03-25;Alta medica melhorado;9;2020-03-23;Unidades de Internacao;Gasometria Venosa;pCO2 venoso;56;mmHg;38 a 50;False
F0F188AF57F3B3BCA90C4AB9CACA79E8;654EC605274748BB66A6224AADEEB1F4;F;1988;2020-06-10;2020-06-14;Alta medica melhorado;4;2020-06-10;Unidades de Internacao;Gasometria Venosa;pCO2 venoso;26;mmHg;38 a 50;False
F169F033D7CDB4E9580A900440753616;53BE814085C607CD11A729CCDD23C252;F;1972;2020-04-17;2020-06-20;Alta medica melhorado;64;2020-04-17;UTI;Gasometria Venosa;pCO2 venoso;31;mmHg;38 a 50;False
F169F033D7CDB4E9580A900440753616;53BE814085C607CD11A729CCDD23C252;F;1972;2020-04-17;2020-06-20;Alta medica melhorado;64;2020-05-18;UTI;Gasometria Venosa;pCO2 venoso;32;mmHg;38 a 50;False
F169F033D7CDB4E9580A900440753616;53BE814085C607CD11A729CCDD23C252;F;1972;2020-04-17;2020-06-20;Alta medica melhorado;64;2020-05-17;UTI;Gasometria Venosa;pCO2 venoso;34;mmHg;38 a 50;False
F169F033D7CDB4E9580A900440753616;53BE814085C607CD11A729CCDD23C252;F;1972;2020-04-17;2020-06-20;Alta medica melhorado;64;2020-04-29;UTI;Gasometria Venosa;pCO2 venoso;52;mmHg;38 a 50;False
F169F033D7CDB4E9580A900440753616;53BE814085C607CD11A729CCDD23C252;F;1972;2020-04-17;2020-06-20;Alta medica melhorado;64;2020-04-27;UTI;Gasometria Venosa;pCO2 venoso;66;mmHg;38 a 50;True
F169F033D7CDB4E9580A900440753616;53BE814085C607CD11A729CCDD23C252;F;1972;2020-04-17;2020-06-20;Alta medica melhorado;64;2020-04-28;UTI;Gasometria Venosa;pCO2 venoso;62;mmHg;38 a 50;True
F169F033D7CDB4E9580A900440753616;53BE814085C607CD11A729CCDD23C252;F;1972;2020-04-17;2020-06-20;Alta medica melhorado;64;2020-04-19;UTI;Gasometria Venosa;pCO2 venoso;51;mmHg;38 a 50;False
F169F033D7CDB4E9580A900440753616;53BE814085C607CD11A729CCDD23C252;F;1972;2020-04-17;2020-06-20;Alta medica melhorado;64;2020-05-24;UTI;Gasometria Venosa;pCO2 venoso;41;mmHg;38 a 50;False
F169F033D7CDB4E9580A900440753616;53BE814085C607CD11A729CCDD23C252;F;1972;2020-04-17;2020-06-20;Alta medica melhorado;64;2020-04-17;UTI;Gasometria Venosa;pCO2 venoso;58;mmHg;38 a 50;False
F169F033D7CDB4E9580A900440753616;53BE814085C607CD11A729CCDD23C252;F;1972;2020-04-17;2020-06-20;Alta medica melhorado;64;2020-05-20;UTI;Gasometria Venosa;pCO2 venoso;34;mmHg;38 a 50;False
F169F033D7CDB4E9580A900440753616;53BE814085C607CD11A729CCDD23C252;F;1972;2020-04-17;2020-06-20;Alta medica melhorado;64;2020-05-21;UTI;Gasometria Venosa;pCO2 venoso;42;mmHg;38 a 50;False
F169F033D7CDB4E9580A900440753616;53BE814085C607CD11A729CCDD23C252;F;1972;2020-04-17;2020-06-20;Alta medica melhorado;64;2020-05-11;UTI;Gasometria Venosa;pCO2 venoso;40;mmHg;38 a 50;False
F169F033D7CDB4E9580A900440753616;53BE814085C607CD11A729CCDD23C252;F;1972;2020-04-17;2020-06-20;Alta medica melhorado;64;2020-05-03;UTI;Gasometria Venosa;pCO2 venoso;45;mmHg;38 a 50;False
F169F033D7CDB4E9580A900440753616;53BE814085C607CD11A729CCDD23C252;F;1972;2020-04-17;2020-06-20;Alta medica melhorado;64;2020-05-02;UTI;Gasometria Venosa;pCO2 venoso;42;mmHg;38 a 50;False
F169F033D7CDB4E9580A900440753616;53BE814085C607CD11A729CCDD23C252;F;1972;2020-04-17;2020-06-20;Alta medica melhorado;64;2020-05-01;UTI;Gasometria Venosa;pCO2 venoso;56;mmHg;38 a 50;False
F169F033D7CDB4E9580A900440753616;53BE814085C607CD11A729CCDD23C252;F;1972;2020-04-17;2020-06-20;Alta medica melhorado;64;2020-05-22;UTI;Gasometria Venosa;pCO2 venoso;46;mmHg;38 a 50;False
F169F033D7CDB4E9580A900440753616;53BE814085C607CD11A729CCDD23C252;F;1972;2020-04-17;2020-06-20;Alta medica melhorado;64;2020-04-30;UTI;Gasometria Venosa;pCO2 venoso;55;mmHg;38 a 50;False
F169F033D7CDB4E9580A900440753616;53BE814085C607CD11A729CCDD23C252;F;1972;2020-04-17;2020-06-20;Alta medica melhorado;64;2020-05-12;UTI;Gasometria Venosa;pCO2 venoso;37;mmHg;38 a 50;False
F169F033D7CDB4E9580A900440753616;53BE814085C607CD11A729CCDD23C252;F;1972;2020-04-17;2020-06-20;Alta medica melhorado;64;2020-05-05;UTI;Gasometria Venosa;pCO2 venoso;46;mmHg;38 a 50;False
F169F033D7CDB4E9580A900440753616;53BE814085C607CD11A729CCDD23C252;F;1972;2020-04-17;2020-06-20;Alta medica melhorado;64;2020-05-23;UTI;Gasometria Venosa;pCO2 venoso;38;mmHg;38 a 50;False
F169F033D7CDB4E9580A900440753616;53BE814085C607CD11A729CCDD23C252;F;1972;2020-04-17;2020-06-20;Alta medica melhorado;64;2020-04-21;UTI;Gasometria Venosa;pCO2 venoso;43;mmHg;38 a 50;False
F169F033D7CDB4E9580A900440753616;53BE814085C607CD11A729CCDD23C252;F;1972;2020-04-17;2020-06-20;Alta medica melhorado;64;2020-05-04;UTI;Gasometria Venosa;pCO2 venoso;59;mmHg;38 a 50;False
F169F033D7CDB4E9580A900440753616;53BE814085C607CD11A729CCDD23C252;F;1972;2020-04-17;2020-06-20;Alta medica melhorado;64;2020-05-14;UTI;Gasometria Venosa;pCO2 venoso;29;mmHg;38 a 50;False
F169F033D7CDB4E9580A900440753616;53BE814085C607CD11A729CCDD23C252;F;1972;2020-04-17;2020-06-20;Alta medica melhorado;64;2020-04-22;UTI;Gasometria Venosa;pCO2 venoso;53;mmHg;38 a 50;False
F169F033D7CDB4E9580A900440753616;53BE814085C607CD11A729CCDD23C252;F;1972;2020-04-17;2020-06-20;Alta medica melhorado;64;2020-04-20;UTI;Gasometria Venosa;pCO2 venoso;58;mmHg;38 a 50;False
F169F033D7CDB4E9580A900440753616;53BE814085C607CD11A729CCDD23C252;F;1972;2020-04-17;2020-06-20;Alta medica melhorado;64;2020-05-13;UTI;Gasometria Venosa;pCO2 venoso;32;mmHg;38 a 50;False
F169F033D7CDB4E9580A900440753616;53BE814085C607CD11A729CCDD23C252;F;1972;2020-04-17;2020-06-20;Alta medica melhorado;64;2020-05-05;UTI;Gasometria Venosa;pCO2 venoso;35;mmHg;38 a 50;False
F169F033D7CDB4E9580A900440753616;53BE814085C607CD11A729CCDD23C252;F;1972;2020-04-17;2020-06-20;Alta medica melhorado;64;2020-05-07;UTI;Gasometria Venosa;pCO2 venoso;41;mmHg;38 a 50;False
F169F033D7CDB4E9580A900440753616;53BE814085C607CD11A729CCDD23C252;F;1972;2020-04-17;2020-06-20;Alta medica melhorado;64;2020-05-14;UTI;Gasometria Venosa;pCO2 venoso;31;mmHg;38 a 50;False
F169F033D7CDB4E9580A900440753616;53BE814085C607CD11A729CCDD23C252;F;1972;2020-04-17;2020-06-20;Alta medica melhorado;64;2020-05-14;UTI;Gasometria Venosa;pCO2 venoso;30;mmHg;38 a 50;False
F169F033D7CDB4E9580A900440753616;53BE814085C607CD11A729CCDD23C252;F;1972;2020-04-17;2020-06-20;Alta medica melhorado;64;2020-04-24;UTI;Gasometria Venosa;pCO2 venoso;55;mmHg;38 a 50;False
F169F033D7CDB4E9580A900440753616;53BE814085C607CD11A729CCDD23C252;F;1972;2020-04-17;2020-06-20;Alta medica melhorado;64;2020-05-08;UTI;Gasometria Venosa;pCO2 venoso;38;mmHg;38 a 50;False
F169F033D7CDB4E9580A900440753616;53BE814085C607CD11A729CCDD23C252;F;1972;2020-04-17;2020-06-20;Alta medica melhorado;64;2020-05-16;UTI;Gasometria Venosa;pCO2 venoso;33;mmHg;38 a 50;False
F169F033D7CDB4E9580A900440753616;53BE814085C607CD11A729CCDD23C252;F;1972;2020-04-17;2020-06-20;Alta medica melhorado;64;2020-05-19;UTI;Gasometria Venosa;pCO2 venoso;37;mmHg;38 a 50;False
F169F033D7CDB4E9580A900440753616;53BE814085C607CD11A729CCDD23C252;F;1972;2020-04-17;2020-06-20;Alta medica melhorado;64;2020-05-15;UTI;Gasometria Venosa;pCO2 venoso;35;mmHg;38 a 50;False
F169F033D7CDB4E9580A900440753616;53BE814085C607CD11A729CCDD23C252;F;1972;2020-04-17;2020-06-20;Alta medica melhorado;64;2020-04-23;UTI;Gasometria Venosa;pCO2 venoso;59;mmHg;38 a 50;False
F169F033D7CDB4E9580A900440753616;53BE814085C607CD11A729CCDD23C252;F;1972;2020-04-17;2020-06-20;Alta medica melhorado;64;2020-05-25;UTI;Gasometria Venosa;pCO2 venoso;29;mmHg;38 a 50;False
F8071E1636B5D74EE4EB59F4D78C3BB3;0811317D654B0813317381022001D3BF;F;1983;2020-10-13;2020-10-16;Alta medica melhorado;3;2020-10-13;UTI;Gasometria Venosa;pCO2 venoso;39;mmHg;38 a 50;False
F8071E1636B5D74EE4EB59F4D78C3BB3;0811317D654B0813317381022001D3BF;F;1983;2020-10-13;2020-10-16;Alta medica melhorado;3;2020-10-13;UTI;Gasometria Venosa;pCO2 venoso;34;mmHg;38 a 50;False
F8071E1636B5D74EE4EB59F4D78C3BB3;B2663772F49BBE62023DE66302EAC972;F;1983;2020-09-24;2020-09-27;Alta medica melhorado;3;2020-09-24;Unidades de Internacao;Gasometria Venosa;pCO2 venoso;41;mmHg;38 a 50;False
FC2E912E9EEBB69D232C07B90C0F49CC;55B46A7149BF27299DBDC23F23F27138;F;1975;2020-10-31;2020-11-02;Alta medica melhorado;2;2020-11-01;Unidades de Internacao;Gasometria Venosa;pCO2 venoso;38;mmHg;38 a 50;False
FC2E912E9EEBB69D232C07B90C0F49CC;55B46A7149BF27299DBDC23F23F27138;F;1975;2020-10-31;2020-11-02;Alta medica melhorado;2;2020-11-01;Unidades de Internacao;Gasometria Venosa;pCO2 venoso;42;mmHg;38 a 50;False
FC2E912E9EEBB69D232C07B90C0F49CC;55B46A7149BF27299DBDC23F23F27138;F;1975;2020-10-31;2020-11-02;Alta medica melhorado;2;2020-11-01;Unidades de Internacao;Gasometria Venosa;pCO2 venoso;39;mmHg;38 a 50;False
FC2E912E9EEBB69D232C07B90C0F49CC;55B46A7149BF27299DBDC23F23F27138;F;1975;2020-10-31;2020-11-02;Alta medica melhorado;2;2020-11-01;Unidades de Internacao;Gasometria Venosa;pCO2 venoso;44;mmHg;38 a 50;False
FC2E912E9EEBB69D232C07B90C0F49CC;55B46A7149BF27299DBDC23F23F27138;F;1975;2020-10-31;2020-11-02;Alta medica melhorado;2;2020-11-01;Unidades de Internacao;Gasometria Venosa;pCO2 venoso;36;mmHg;38 a 50;False
