ID_PACIENTE;ID_ATENDIMENTO;IC_SEXO;aa_nascimento;DT_ATENDIMENTO;DT_DESFECHO;DE_DESFECHO;DAYS;DT_COLETA;DE_ORIGEM;DE_EXAME;DE_ANALITO;DE_RESULTADO;CD_UNIDADE;DE_VALOR_REFERENCIA;OUTLIERS
4AF863B9C598125B9E27296C851AEFCB;8B951EB2B323A719768A8C425BD9FA15;F;1974;2020-06-30;2020-07-14;Alta medica melhorado;14;2020-07-03;UTI;Gasometria Arterial;HCO3 arterial;26;mmol/L;22 a 26;False
4AF863B9C598125B9E27296C851AEFCB;8B951EB2B323A719768A8C425BD9FA15;F;1974;2020-06-30;2020-07-14;Alta medica melhorado;14;2020-07-03;UTI;Gasometria Arterial;HCO3 arterial;23;mmol/L;22 a 26;False
4AF863B9C598125B9E27296C851AEFCB;8B951EB2B323A719768A8C425BD9FA15;F;1974;2020-06-30;2020-07-14;Alta medica melhorado;14;2020-07-04;UTI;Gasometria Arterial;HCO3 arterial;23;mmol/L;22 a 26;False
4B6AE3302D691767A6BF220E359125C7;A442041A66611B42B9E120360EF6B172;F;1982;2020-11-12;2020-12-27;Alta medica melhorado;45;2020-12-18;Centro Cirurgico;Gasometria Arterial;HCO3 arterial;20;mmol/L;22 a 26;False
4B6AE3302D691767A6BF220E359125C7;A442041A66611B42B9E120360EF6B172;F;1982;2020-11-12;2020-12-27;Alta medica melhorado;45;2020-11-14;Centro Cirurgico;Gasometria Arterial;HCO3 arterial;23;mmol/L;22 a 26;False
4B6AE3302D691767A6BF220E359125C7;A442041A66611B42B9E120360EF6B172;F;1982;2020-11-12;2020-12-27;Alta medica melhorado;45;2020-11-14;Centro Cirurgico;Gasometria Arterial;HCO3 arterial;23;mmol/L;22 a 26;False
4B6AE3302D691767A6BF220E359125C7;A442041A66611B42B9E120360EF6B172;F;1982;2020-11-12;2020-12-27;Alta medica melhorado;45;2020-12-18;Unidades de Internacao;Gasometria Arterial;HCO3 arterial;23;mmol/L;22 a 26;False
4B6AE3302D691767A6BF220E359125C7;A442041A66611B42B9E120360EF6B172;F;1982;2020-11-12;2020-12-27;Alta medica melhorado;45;2020-12-18;Unidades de Internacao;Gasometria Arterial;HCO3 arterial;23;mmol/L;22 a 26;False
4B6AE3302D691767A6BF220E359125C7;A442041A66611B42B9E120360EF6B172;F;1982;2020-11-12;2020-12-27;Alta medica melhorado;45;2020-12-18;Unidades de Internacao;Gasometria Arterial;HCO3 arterial;21;mmol/L;22 a 26;False
6F0A6A0E0839924AD125035171DD456F;8868FDC3A0E8F33E56A81745A733E82B;F;1972;2020-04-08;2020-04-24;Alta medica melhorado;16;2020-04-14;UTI;Gasometria Arterial;HCO3 arterial;24;mmol/L;22 a 26;False
8CE620E5450924DE04D041EB5DB33440;3A65048EEDF3CF14AFF3EABDA25107DB;F;1972;2020-12-07;2020-12-12;Alta medica melhorado;5;2020-12-07;Centro Cirurgico;Gasometria Arterial;HCO3 arterial;21;mmol/L;22 a 26;False
8F3903E17E6278D42BBD37AD7BAD65DF;F6FF97A74415CE70D8E2AB065E9B28A5;F;1981;2020-04-23;2020-05-02;Alta medica melhorado;9;2020-04-24;Centro Cirurgico;Gasometria Arterial;HCO3 arterial;18;mmol/L;22 a 26;False
C0272E57333DC17CB3CFC64848A52E57;062C3BABEAAC1C01724028A8AFFD6C4D;F;2000;2020-04-25;2020-05-03;Alta medica melhorado;8;2020-04-26;Centro Cirurgico;Gasometria Arterial;HCO3 arterial;23;mmol/L;22 a 26;False
DFFF5480393EE20C50F8C673C0DEA1F7;25FF4C8279364594DDBC15CA0D4F8D79;F;1979;2020-10-01;2020-10-05;Alta medica melhorado;4;2020-10-01;Centro Cirurgico;Gasometria Arterial;HCO3 arterial;22;mmol/L;22 a 26;False
DFFF5480393EE20C50F8C673C0DEA1F7;25FF4C8279364594DDBC15CA0D4F8D79;F;1979;2020-10-01;2020-10-05;Alta medica melhorado;4;2020-10-01;Unidades de Internacao;Gasometria Arterial;HCO3 arterial;20;mmol/L;22 a 26;False
EE56049FBA79414DADDD5510BC459F87;3639B5912FC76B1774A0C3700252A034;F;1980;2020-03-16;2020-03-25;Alta medica melhorado;9;2020-03-17;UTI;Gasometria Arterial;HCO3 arterial;22;mmol/L;22 a 26;False
EF50D8DA83805F7F280D9C5C08114264;5DFA5E70E9011A54D638701116B54F40;F;1972;2020-08-04;2020-08-08;Alta medica melhorado;4;2020-08-04;Pronto Socorro;Gasometria Arterial;HCO3 arterial;22;mmol/L;22 a 26;False
F169F033D7CDB4E9580A900440753616;53BE814085C607CD11A729CCDD23C252;F;1972;2020-04-17;2020-06-20;Alta medica melhorado;64;2020-04-19;UTI;Gasometria Arterial;HCO3 arterial;26;mmol/L;22 a 26;False
F169F033D7CDB4E9580A900440753616;53BE814085C607CD11A729CCDD23C252;F;1972;2020-04-17;2020-06-20;Alta medica melhorado;64;2020-04-17;UTI;Gasometria Arterial;HCO3 arterial;22;mmol/L;22 a 26;False
F169F033D7CDB4E9580A900440753616;53BE814085C607CD11A729CCDD23C252;F;1972;2020-04-17;2020-06-20;Alta medica melhorado;64;2020-04-29;UTI;Gasometria Arterial;HCO3 arterial;31;mmol/L;22 a 26;False
F169F033D7CDB4E9580A900440753616;53BE814085C607CD11A729CCDD23C252;F;1972;2020-04-17;2020-06-20;Alta medica melhorado;64;2020-04-27;UTI;Gasometria Arterial;HCO3 arterial;33;mmol/L;22 a 26;False
F169F033D7CDB4E9580A900440753616;53BE814085C607CD11A729CCDD23C252;F;1972;2020-04-17;2020-06-20;Alta medica melhorado;64;2020-04-28;UTI;Gasometria Arterial;HCO3 arterial;31;mmol/L;22 a 26;False
F169F033D7CDB4E9580A900440753616;53BE814085C607CD11A729CCDD23C252;F;1972;2020-04-17;2020-06-20;Alta medica melhorado;64;2020-04-28;UTI;Gasometria Arterial;HCO3 arterial;32;mmol/L;22 a 26;False
F169F033D7CDB4E9580A900440753616;53BE814085C607CD11A729CCDD23C252;F;1972;2020-04-17;2020-06-20;Alta medica melhorado;64;2020-05-09;UTI;Gasometria Arterial;HCO3 arterial;22;mmol/L;22 a 26;False
F169F033D7CDB4E9580A900440753616;53BE814085C607CD11A729CCDD23C252;F;1972;2020-04-17;2020-06-20;Alta medica melhorado;64;2020-04-19;UTI;Gasometria Arterial;HCO3 arterial;25;mmol/L;22 a 26;False
F169F033D7CDB4E9580A900440753616;53BE814085C607CD11A729CCDD23C252;F;1972;2020-04-17;2020-06-20;Alta medica melhorado;64;2020-04-17;UTI;Gasometria Arterial;HCO3 arterial;25;mmol/L;22 a 26;False
F169F033D7CDB4E9580A900440753616;53BE814085C607CD11A729CCDD23C252;F;1972;2020-04-17;2020-06-20;Alta medica melhorado;64;2020-04-27;UTI;Gasometria Arterial;HCO3 arterial;34;mmol/L;22 a 26;False
F169F033D7CDB4E9580A900440753616;53BE814085C607CD11A729CCDD23C252;F;1972;2020-04-17;2020-06-20;Alta medica melhorado;64;2020-04-28;UTI;Gasometria Arterial;HCO3 arterial;32;mmol/L;22 a 26;False
F169F033D7CDB4E9580A900440753616;53BE814085C607CD11A729CCDD23C252;F;1972;2020-04-17;2020-06-20;Alta medica melhorado;64;2020-04-18;UTI;Gasometria Arterial;HCO3 arterial;25;mmol/L;22 a 26;False
F169F033D7CDB4E9580A900440753616;53BE814085C607CD11A729CCDD23C252;F;1972;2020-04-17;2020-06-20;Alta medica melhorado;64;2020-04-18;UTI;Gasometria Arterial;HCO3 arterial;26;mmol/L;22 a 26;False
F169F033D7CDB4E9580A900440753616;53BE814085C607CD11A729CCDD23C252;F;1972;2020-04-17;2020-06-20;Alta medica melhorado;64;2020-04-29;UTI;Gasometria Arterial;HCO3 arterial;29;mmol/L;22 a 26;False
F169F033D7CDB4E9580A900440753616;53BE814085C607CD11A729CCDD23C252;F;1972;2020-04-17;2020-06-20;Alta medica melhorado;64;2020-05-01;UTI;Gasometria Arterial;HCO3 arterial;25;mmol/L;22 a 26;False
F169F033D7CDB4E9580A900440753616;53BE814085C607CD11A729CCDD23C252;F;1972;2020-04-17;2020-06-20;Alta medica melhorado;64;2020-04-27;UTI;Gasometria Arterial;HCO3 arterial;32;mmol/L;22 a 26;False
F169F033D7CDB4E9580A900440753616;53BE814085C607CD11A729CCDD23C252;F;1972;2020-04-17;2020-06-20;Alta medica melhorado;64;2020-05-11;UTI;Gasometria Arterial;HCO3 arterial;21;mmol/L;22 a 26;False
F169F033D7CDB4E9580A900440753616;53BE814085C607CD11A729CCDD23C252;F;1972;2020-04-17;2020-06-20;Alta medica melhorado;64;2020-04-19;UTI;Gasometria Arterial;HCO3 arterial;26;mmol/L;22 a 26;False
F169F033D7CDB4E9580A900440753616;53BE814085C607CD11A729CCDD23C252;F;1972;2020-04-17;2020-06-20;Alta medica melhorado;64;2020-04-18;UTI;Gasometria Arterial;HCO3 arterial;24;mmol/L;22 a 26;False
F169F033D7CDB4E9580A900440753616;53BE814085C607CD11A729CCDD23C252;F;1972;2020-04-17;2020-06-20;Alta medica melhorado;64;2020-05-10;UTI;Gasometria Arterial;HCO3 arterial;19;mmol/L;22 a 26;False
F169F033D7CDB4E9580A900440753616;53BE814085C607CD11A729CCDD23C252;F;1972;2020-04-17;2020-06-20;Alta medica melhorado;64;2020-04-18;UTI;Gasometria Arterial;HCO3 arterial;25;mmol/L;22 a 26;False
F169F033D7CDB4E9580A900440753616;53BE814085C607CD11A729CCDD23C252;F;1972;2020-04-17;2020-06-20;Alta medica melhorado;64;2020-04-20;UTI;Gasometria Arterial;HCO3 arterial;27;mmol/L;22 a 26;False
F169F033D7CDB4E9580A900440753616;53BE814085C607CD11A729CCDD23C252;F;1972;2020-04-17;2020-06-20;Alta medica melhorado;64;2020-05-01;UTI;Gasometria Arterial;HCO3 arterial;28;mmol/L;22 a 26;False
F169F033D7CDB4E9580A900440753616;53BE814085C607CD11A729CCDD23C252;F;1972;2020-04-17;2020-06-20;Alta medica melhorado;64;2020-04-30;UTI;Gasometria Arterial;HCO3 arterial;30;mmol/L;22 a 26;False
F169F033D7CDB4E9580A900440753616;53BE814085C607CD11A729CCDD23C252;F;1972;2020-04-17;2020-06-20;Alta medica melhorado;64;2020-04-19;UTI;Gasometria Arterial;HCO3 arterial;24;mmol/L;22 a 26;False
F169F033D7CDB4E9580A900440753616;53BE814085C607CD11A729CCDD23C252;F;1972;2020-04-17;2020-06-20;Alta medica melhorado;64;2020-05-12;UTI;Gasometria Arterial;HCO3 arterial;20;mmol/L;22 a 26;False
F169F033D7CDB4E9580A900440753616;53BE814085C607CD11A729CCDD23C252;F;1972;2020-04-17;2020-06-20;Alta medica melhorado;64;2020-04-19;UTI;Gasometria Arterial;HCO3 arterial;26;mmol/L;22 a 26;False
F169F033D7CDB4E9580A900440753616;53BE814085C607CD11A729CCDD23C252;F;1972;2020-04-17;2020-06-20;Alta medica melhorado;64;2020-04-21;UTI;Gasometria Arterial;HCO3 arterial;28;mmol/L;22 a 26;False
F169F033D7CDB4E9580A900440753616;53BE814085C607CD11A729CCDD23C252;F;1972;2020-04-17;2020-06-20;Alta medica melhorado;64;2020-05-04;UTI;Gasometria Arterial;HCO3 arterial;29;mmol/L;22 a 26;False
F169F033D7CDB4E9580A900440753616;53BE814085C607CD11A729CCDD23C252;F;1972;2020-04-17;2020-06-20;Alta medica melhorado;64;2020-04-22;UTI;Gasometria Arterial;HCO3 arterial;29;mmol/L;22 a 26;False
F169F033D7CDB4E9580A900440753616;53BE814085C607CD11A729CCDD23C252;F;1972;2020-04-17;2020-06-20;Alta medica melhorado;64;2020-04-21;UTI;Gasometria Arterial;HCO3 arterial;28;mmol/L;22 a 26;False
F169F033D7CDB4E9580A900440753616;53BE814085C607CD11A729CCDD23C252;F;1972;2020-04-17;2020-06-20;Alta medica melhorado;64;2020-04-21;UTI;Gasometria Arterial;HCO3 arterial;28;mmol/L;22 a 26;False
F169F033D7CDB4E9580A900440753616;53BE814085C607CD11A729CCDD23C252;F;1972;2020-04-17;2020-06-20;Alta medica melhorado;64;2020-04-24;UTI;Gasometria Arterial;HCO3 arterial;34;mmol/L;22 a 26;False
F169F033D7CDB4E9580A900440753616;53BE814085C607CD11A729CCDD23C252;F;1972;2020-04-17;2020-06-20;Alta medica melhorado;64;2020-04-22;UTI;Gasometria Arterial;HCO3 arterial;30;mmol/L;22 a 26;False
F169F033D7CDB4E9580A900440753616;53BE814085C607CD11A729CCDD23C252;F;1972;2020-04-17;2020-06-20;Alta medica melhorado;64;2020-04-20;UTI;Gasometria Arterial;HCO3 arterial;27;mmol/L;22 a 26;False
F169F033D7CDB4E9580A900440753616;53BE814085C607CD11A729CCDD23C252;F;1972;2020-04-17;2020-06-20;Alta medica melhorado;64;2020-05-13;UTI;Gasometria Arterial;HCO3 arterial;20;mmol/L;22 a 26;False
F169F033D7CDB4E9580A900440753616;53BE814085C607CD11A729CCDD23C252;F;1972;2020-04-17;2020-06-20;Alta medica melhorado;64;2020-05-04;UTI;Gasometria Arterial;HCO3 arterial;27;mmol/L;22 a 26;False
F169F033D7CDB4E9580A900440753616;53BE814085C607CD11A729CCDD23C252;F;1972;2020-04-17;2020-06-20;Alta medica melhorado;64;2020-05-05;UTI;Gasometria Arterial;HCO3 arterial;23;mmol/L;22 a 26;False
F169F033D7CDB4E9580A900440753616;53BE814085C607CD11A729CCDD23C252;F;1972;2020-04-17;2020-06-20;Alta medica melhorado;64;2020-05-07;UTI;Gasometria Arterial;HCO3 arterial;24;mmol/L;22 a 26;False
F169F033D7CDB4E9580A900440753616;53BE814085C607CD11A729CCDD23C252;F;1972;2020-04-17;2020-06-20;Alta medica melhorado;64;2020-04-25;UTI;Gasometria Arterial;HCO3 arterial;33;mmol/L;22 a 26;False
F169F033D7CDB4E9580A900440753616;53BE814085C607CD11A729CCDD23C252;F;1972;2020-04-17;2020-06-20;Alta medica melhorado;64;2020-04-22;UTI;Gasometria Arterial;HCO3 arterial;30;mmol/L;22 a 26;False
F169F033D7CDB4E9580A900440753616;53BE814085C607CD11A729CCDD23C252;F;1972;2020-04-17;2020-06-20;Alta medica melhorado;64;2020-04-25;UTI;Gasometria Arterial;HCO3 arterial;37;mmol/L;22 a 26;False
F169F033D7CDB4E9580A900440753616;53BE814085C607CD11A729CCDD23C252;F;1972;2020-04-17;2020-06-20;Alta medica melhorado;64;2020-05-09;UTI;Gasometria Arterial;HCO3 arterial;20;mmol/L;22 a 26;False
F169F033D7CDB4E9580A900440753616;53BE814085C607CD11A729CCDD23C252;F;1972;2020-04-17;2020-06-20;Alta medica melhorado;64;2020-04-23;UTI;Gasometria Arterial;HCO3 arterial;32;mmol/L;22 a 26;False
F169F033D7CDB4E9580A900440753616;53BE814085C607CD11A729CCDD23C252;F;1972;2020-04-17;2020-06-20;Alta medica melhorado;64;2020-04-24;UTI;Gasometria Arterial;HCO3 arterial;38;mmol/L;22 a 26;False
F169F033D7CDB4E9580A900440753616;53BE814085C607CD11A729CCDD23C252;F;1972;2020-04-17;2020-06-20;Alta medica melhorado;64;2020-05-08;UTI;Gasometria Arterial;HCO3 arterial;22;mmol/L;22 a 26;False
F169F033D7CDB4E9580A900440753616;53BE814085C607CD11A729CCDD23C252;F;1972;2020-04-17;2020-06-20;Alta medica melhorado;64;2020-05-06;UTI;Gasometria Arterial;HCO3 arterial;23;mmol/L;22 a 26;False
F169F033D7CDB4E9580A900440753616;53BE814085C607CD11A729CCDD23C252;F;1972;2020-04-17;2020-06-20;Alta medica melhorado;64;2020-04-24;UTI;Gasometria Arterial;HCO3 arterial;35;mmol/L;22 a 26;False
F169F033D7CDB4E9580A900440753616;53BE814085C607CD11A729CCDD23C252;F;1972;2020-04-17;2020-06-20;Alta medica melhorado;64;2020-04-26;UTI;Gasometria Arterial;HCO3 arterial;34;mmol/L;22 a 26;False
F169F033D7CDB4E9580A900440753616;53BE814085C607CD11A729CCDD23C252;F;1972;2020-04-17;2020-06-20;Alta medica melhorado;64;2020-04-26;UTI;Gasometria Arterial;HCO3 arterial;34;mmol/L;22 a 26;False
F169F033D7CDB4E9580A900440753616;53BE814085C607CD11A729CCDD23C252;F;1972;2020-04-17;2020-06-20;Alta medica melhorado;64;2020-04-23;UTI;Gasometria Arterial;HCO3 arterial;32;mmol/L;22 a 26;False
