ID_PACIENTE;ID_ATENDIMENTO;IC_SEXO;aa_nascimento;DT_ATENDIMENTO;DT_DESFECHO;DE_DESFECHO;DAYS;DT_COLETA;DE_ORIGEM;DE_EXAME;DE_ANALITO;DE_RESULTADO;CD_UNIDADE;DE_VALOR_REFERENCIA;OUTLIERS
1DD3B4985DA07D6595B36ADC8B3E3134;3B550366687F0856D19D222810C44C02;F;1981;2020-06-22;2020-06-26;Alta Administrativa;4;2020-06-22;Endoscopia;Hemoglobina Glicada;Hemoglobina Glicada;4.6;%;Ver resultado tradicional;False
268635F257CBDDF689234B8ECBF265A5;929DAD351F8820C496B712DA32B03846;F;1996;2020-08-25;2020-08-27;Alta Administrativa;2;2020-08-27;Check Up - Itaim;Hemoglobina Glicada;Hemoglobina Glicada;4.7;%;Ver resultado tradicional;False
2A0E6B30B8AA6E95D9BEA6B7FD56EB5C;7C37D07D733773021137A7290A76F64B;F;1978;2020-05-26;2020-05-28;Alta medica melhorado;2;2020-05-27;Unidades de Internacao;Hemoglobina Glicada;Hemoglobina Glicada;5.7;%;Ver resultado tradicional;False
2A25DDD0EEEC2A67D1921ECB208F2F4E;ABF769E54BEEBDCEF922FE8E4591C762;F;1988;2020-09-28;2020-10-01;Alta medica melhorado;3;2020-09-28;UTI;Hemoglobina Glicada;Hemoglobina Glicada;5.5;%;Ver resultado tradicional;False
2EE5D285C95B1C6C6508473C0A8D11BE;5226377B8AC468FEE9CD64F23C515CAB;F;1984;2020-11-26;2020-12-01;Alta Administrativa;5;2020-11-30;Check Up - Itaim;Hemoglobina Glicada;Hemoglobina Glicada;4.9;%;Ver resultado tradicional;False
3098F4EE64AD735A1E1964DBC5336146;257545B2BB08E1E951710310FBB17587;F;1975;2020-12-19;2020-12-23;Alta medica melhorado;4;2020-12-19;Unidades de Internacao;Hemoglobina Glicada;Hemoglobina Glicada;5.4;%;Ver resultado tradicional;False
330A9907B36FD4C75B1A4015EE7BBCEA;6D245DCAFE1F7BB48EE54F300B0FF003;F;1993;2020-10-08;2020-10-16;Alta medica melhorado;8;2020-10-12;Unidades de Internacao;Hemoglobina Glicada;Hemoglobina Glicada;5.1;%;Ver resultado tradicional;False
43585341FB560D7A74608A5F244ECCD2;B2C48F1E7CFF7E8DEFED07FE5777D510;F;1977;2020-06-04;2020-06-08;Alta Administrativa;4;2020-06-04;Endoscopia;Hemoglobina Glicada;Hemoglobina Glicada;5.2;%;Ver resultado tradicional;False
4F410CE9F6A937EA35002D1737B821B8;A949703A35B8A0515CC760696405E48B;F;1979;2020-09-15;2020-09-17;Alta Administrativa;2;2020-09-17;Check Up - Itaim;Hemoglobina Glicada;Hemoglobina Glicada;4.9;%;Ver resultado tradicional;False
5A80D6253DEFE6E608426618C9083FD3;774B1B00C0E680A953D8C8452ECB05DD;F;1973;2020-08-28;2020-09-02;Alta Administrativa;5;2020-08-28;Ultrassonografia - Jardins;Hemoglobina Glicada;Hemoglobina Glicada;5.0;%;Ver resultado tradicional;False
7B4B5622119E554F2132513624E95BE8;EEAFC1C59CA688671FF6D3C63AE58BDD;F;1998;2020-11-07;2020-12-01;Alta medica melhorado;24;2020-11-07;UTI;Hemoglobina Glicada;Hemoglobina Glicada;4.4;%;Ver resultado tradicional;False
8185CB8A9220B8FA06A33C5BB26C35AD;D76895D744B84D1885057347B40FDEC6;F;1996;2020-06-05;2020-06-22;Alta medica melhorado;17;2020-06-13;Unidades de Internacao;Hemoglobina Glicada;Hemoglobina Glicada;5.2;%;Ver resultado tradicional;False
8B55D53773292E31269ED7CB8F8B8457;98FBB41D14B647290D7BC68B0325B075;F;1984;2020-05-20;2020-05-22;Alta Administrativa;2;2020-05-20;Ultrassonografia;Hemoglobina Glicada;Hemoglobina Glicada;5.2;%;Ver resultado tradicional;False
8F3903E17E6278D42BBD37AD7BAD65DF;1ECFDE9CA7E047BF8B5A45B6D8F8FEAD;F;1981;2020-03-02;2020-03-07;Alta Administrativa;5;2020-03-04;Hemodialise;Hemoglobina Glicada;Hemoglobina Glicada;4.5;%;Ver resultado tradicional;False
92D97A438C6077DEEC7624134EA7C9D5;4F961CC5F1B2578F029EC93FC3B5D8DB;F;1979;2020-08-31;2020-09-02;Alta Administrativa;2;2020-09-02;Check Up - Itaim;Hemoglobina Glicada;Hemoglobina Glicada;5.6;%;Ver resultado tradicional;False
94D3FC92C242927FC6F8C6CD290CF80F;8721945CA57A918A02BB8F5882885356;F;1979;2020-07-28;2020-07-31;Alta Administrativa;3;2020-07-28;Ultrassonografia;Hemoglobina Glicada;Hemoglobina Glicada;4.9;%;Ver resultado tradicional;False
A304C19FA63C6B15AAF92987FD6EB5D4;6973208B2670494202CEC08B965022EC;F;1990;2020-12-24;2020-12-28;Alta medica melhorado;4;2020-12-27;Unidades de Internacao;Hemoglobina Glicada;Hemoglobina Glicada;5.8;%;Ver resultado tradicional;False
ACDFBB8F6158AE71B3572A26ABA34F50;FF567DBC07DA87E172BB4226889D902B;F;1981;2020-08-04;2020-08-06;Alta Administrativa;2;2020-08-04;Recepcao do Centro Diagnostico;Hemoglobina Glicada;Hemoglobina Glicada;5.3;%;Ver resultado tradicional;False
B51BA482F42B04497C7EDDA4C20BBCBA;6C77807A8743609381A6C034AC1731D6;F;1973;2020-10-16;2020-10-27;Alta medica melhorado;11;2020-10-24;Unidades de Internacao;Hemoglobina Glicada;Hemoglobina Glicada;5.7;%;Ver resultado tradicional;False
C86CCF6F0BFF127E65018A8E330E2340;86F1078F4E6944804F4341BC359CD2CF;F;1976;2020-06-02;2020-06-09;Alta medica melhorado;7;2020-06-03;UTI;Hemoglobina Glicada;Hemoglobina Glicada;5.2;%;Ver resultado tradicional;False
C86EB9BAFEEDB686D59461EFBD3AFE26;000A53FD5C1243D786DB1D91A5EDD59F;F;1972;2020-05-22;2020-05-27;Alta Administrativa;5;2020-05-22;Recepcao do Centro Diagnostico;Hemoglobina Glicada;Hemoglobina Glicada;5.6;%;Ver resultado tradicional;False
C97C86C758C3F246473D6002F1E204B6;ED8DF0403C0673C1CC89EEBCA708A123;F;1975;2020-08-25;2020-08-27;Alta Administrativa;2;2020-08-25;Ultrassonografia - Jardins;Hemoglobina Glicada;Hemoglobina Glicada;5.0;%;Ver resultado tradicional;False
CD07A2F21C8C6B9649AD638AB8E30EA6;B90DD12C3717072A8042AF367D899668;F;1973;2020-04-23;2020-05-02;Alta medica curado;9;2020-05-01;Unidades de Internacao;Hemoglobina Glicada;Hemoglobina Glicada;5.4;%;Ver resultado tradicional;False
D4910738D545CE22821F7B0450EF759A;83BA799285B242A837AB5DF9ED1547E3;F;1974;2020-05-09;2020-05-13;Alta medica melhorado;4;2020-05-10;Unidades de Internacao;Hemoglobina Glicada;Hemoglobina Glicada;5.2;%;Ver resultado tradicional;False
DB70843F11316AE07A957B6D88BF3FB4;7EC72258125F483A54B327F5161F5BE7;F;1987;2020-11-12;2020-11-18;Alta medica melhorado;6;2020-11-12;Unidades de Internacao;Hemoglobina Glicada;Hemoglobina Glicada;5.1;%;Ver resultado tradicional;False
E31F663EE708A81F7C5E20755C3CA3AD;9BA637E09A33D8EFBE78187AB5121CD4;F;1979;2020-05-28;2020-06-01;Alta Administrativa;4;2020-05-28;Recepcao do Centro Diagnostico;Hemoglobina Glicada;Hemoglobina Glicada;7.5;%;Ver resultado tradicional;True
FAEF4ECD6AC31E53AD7AA2D8871F58C1;01EEAE5726A229E44EA9AC9A7D47358E;F;1974;2020-09-16;2020-09-23;Alta medica melhorado;7;2020-09-16;Unidades de Internacao;Hemoglobina Glicada;Hemoglobina Glicada;4.8;%;Ver resultado tradicional;False
