ID_PACIENTE;ID_ATENDIMENTO;IC_SEXO;aa_nascimento;DT_ATENDIMENTO;DT_DESFECHO;DE_DESFECHO;DAYS;DT_COLETA;DE_ORIGEM;DE_EXAME;DE_ANALITO;DE_RESULTADO;CD_UNIDADE;DE_VALOR_REFERENCIA;OUTLIERS
403A24E49FFC91491EE4F1614B64875F;012291BF2C8A07540AE7E99A75B4A5D7;M;1980;2020-10-14;2020-10-16;Alta Administrativa;2;2020-10-16;Centro de Oncologia;Hemograma automatizado pre-QT;Leucocitos;5710;/mm3;3.500 a 10.500;False
403A24E49FFC91491EE4F1614B64875F;CC2568242DFFD98310C275EF50DFDF2D;M;1980;2020-10-28;2020-11-03;Alta Administrativa;6;2020-10-28;Centro de Oncologia;Hemograma automatizado pre-QT;Leucocitos;5070;/mm3;3.500 a 10.500;False
71A95C40D67FC91FFED0098A3627ABB3;5567DA65A24BBB0E964D8EBA89D6DE46;M;2000;2020-10-13;2020-10-17;Alta Administrativa;4;2020-10-14;Centro de Oncologia;Hemograma automatizado pre-QT;Leucocitos;2080;/mm3;3.500 a 10.500;False
71A95C40D67FC91FFED0098A3627ABB3;5567DA65A24BBB0E964D8EBA89D6DE46;M;2000;2020-10-13;2020-10-17;Alta Administrativa;4;2020-10-13;Centro de Oncologia;Hemograma automatizado pre-QT;Leucocitos;1540;/mm3;3.500 a 10.500;False
71A95C40D67FC91FFED0098A3627ABB3;62F96985CEAD4F73CDBB5EC6FD695D7E;M;2000;2020-07-08;2020-07-10;Alta Administrativa;2;2020-07-10;Centro de Oncologia;Hemograma automatizado pre-QT;Leucocitos;150;/mm3;3.500 a 10.500;False
71A95C40D67FC91FFED0098A3627ABB3;84550817EB3CA6C48F80824C8F1C279E;M;2000;2020-04-11;2020-04-17;Alta Administrativa;6;2020-04-13;Centro de Oncologia;Hemograma automatizado pre-QT;Leucocitos;8290;/mm3;3.500 a 10.500;False
71A95C40D67FC91FFED0098A3627ABB3;84550817EB3CA6C48F80824C8F1C279E;M;2000;2020-04-11;2020-04-17;Alta Administrativa;6;2020-04-16;Centro de Oncologia;Hemograma automatizado pre-QT;Leucocitos;1030;/mm3;3.500 a 10.500;False
71A95C40D67FC91FFED0098A3627ABB3;ABE9EEDF894CA55405DF0165760B749F;M;2000;2020-04-01;2020-04-05;Alta Administrativa;4;2020-04-01;Centro de Oncologia;Hemograma automatizado pre-QT;Leucocitos;4620;/mm3;3.500 a 10.500;False
71A95C40D67FC91FFED0098A3627ABB3;ABE9EEDF894CA55405DF0165760B749F;M;2000;2020-04-01;2020-04-05;Alta Administrativa;4;2020-04-03;Centro de Oncologia;Hemograma automatizado pre-QT;Leucocitos;790;/mm3;3.500 a 10.500;False
71A95C40D67FC91FFED0098A3627ABB3;C170DA0CCFFF3310662B047AE1ED6BCC;M;2000;2020-11-30;2020-12-04;Alta Administrativa;4;2020-12-04;Centro de Oncologia;Hemograma automatizado pre-QT;Leucocitos;3470;/mm3;3.500 a 10.500;False
71A95C40D67FC91FFED0098A3627ABB3;CA9F7345A55F73515577AFA7DDB6920C;M;2000;2020-05-11;2020-05-15;Alta Administrativa;4;2020-05-15;Centro de Oncologia;Hemograma automatizado pre-QT;Leucocitos;4520;/mm3;3.500 a 10.500;False
71A95C40D67FC91FFED0098A3627ABB3;CC4E4F00BE4AFF6CB9916C9FD7E61042;M;2000;2020-06-03;2020-06-09;Alta Administrativa;6;2020-06-03;Central de Agendamento do SADT;Hemograma automatizado pre-QT;Leucocitos;2490;/mm3;3.500 a 10.500;False
71A95C40D67FC91FFED0098A3627ABB3;DCD20A0833DFE9B484D2073790F072F5;M;2000;2020-04-18;2020-04-24;Alta Administrativa;6;2020-04-20;Centro de Oncologia;Hemograma automatizado pre-QT;Leucocitos;640;/mm3;3.500 a 10.500;False
71A95C40D67FC91FFED0098A3627ABB3;EEA8E6B09B2C59A11E82432D1A5E2C51;M;2000;2020-04-25;2020-05-01;Alta Administrativa;6;2020-04-28;Centro de Oncologia;Hemograma automatizado pre-QT;Leucocitos;430;/mm3;3.500 a 10.500;False
71A95C40D67FC91FFED0098A3627ABB3;EEA8E6B09B2C59A11E82432D1A5E2C51;M;2000;2020-04-25;2020-05-01;Alta Administrativa;6;2020-04-30;Centro de Oncologia;Hemograma automatizado pre-QT;Leucocitos;100;/mm3;3.500 a 10.500;False
E0380908E53ED8DBCB861497B36756E0;1E6642054FFFEDF190C6332C04900336;M;1978;2020-05-25;2020-05-29;Alta Administrativa;4;2020-05-29;Centro de Oncologia;Hemograma automatizado pre-QT;Leucocitos;1750;/mm3;3.500 a 10.500;False
E0380908E53ED8DBCB861497B36756E0;998CE7A27B9048755C46AB78BE62C0EC;M;1978;2020-06-01;2020-06-07;Alta Administrativa;6;2020-06-01;Centro de Oncologia;Hemograma automatizado pre-QT;Leucocitos;1850;/mm3;3.500 a 10.500;False
