ID_PACIENTE;ID_ATENDIMENTO;IC_SEXO;aa_nascimento;DT_ATENDIMENTO;DT_DESFECHO;DE_DESFECHO;DAYS;DT_COLETA;DE_ORIGEM;DE_EXAME;DE_ANALITO;DE_RESULTADO;CD_UNIDADE;DE_VALOR_REFERENCIA;OUTLIERS
357FA4612D1A46CE54C0D0C91DE9F6EC;DF4F24044C193A1DC6E61693FFD35CFF;F;1980;2020-05-06;2020-05-08;Alta Administrativa;2;2020-05-08;Oncologia Clinica - Brasilia II;Hemograma, sangue total;RDW;12.3;%;11,9 a 15,5;False
43585341FB560D7A74608A5F244ECCD2;B2C48F1E7CFF7E8DEFED07FE5777D510;F;1977;2020-06-04;2020-06-08;Alta Administrativa;4;2020-06-04;Endoscopia;Hemograma, sangue total;RDW;14.8;%;11,9 a 15,5;False
48F950E1BB5D08CC479E6D02D9ABFF78;4D8BE118532CF35AF5218E2DB571A86E;F;1998;2020-11-30;2020-12-02;Alta Administrativa;2;2020-11-30;Radiologia Geral;Hemograma, sangue total;RDW;12.5;%;11,9 a 15,5;False
5A80D6253DEFE6E608426618C9083FD3;774B1B00C0E680A953D8C8452ECB05DD;F;1973;2020-08-28;2020-09-02;Alta Administrativa;5;2020-08-28;Ultrassonografia - Jardins;Hemograma, sangue total;RDW;14.7;%;11,9 a 15,5;False
5FC6BDB0257BD9E15E46BDAC6D0E03D5;316FF2CAA61BF235351ECA5892C0D9E9;F;1975;2020-03-27;2020-03-31;Alta medica melhorado;4;2020-03-27;Unidades de Internacao;Hemograma, sangue total;RDW;12.3;%;11,9 a 15,5;False
66A6B0004EE5481DFE62EF89CF01794A;7DF771E3F97B1A1380EB0EBDBEFF201E;F;1972;2020-05-20;2020-05-24;Alta medica melhorado;4;2020-05-20;Unidades de Internacao;Hemograma, sangue total;RDW;15.9;%;11,9 a 15,5;False
8B55D53773292E31269ED7CB8F8B8457;98FBB41D14B647290D7BC68B0325B075;F;1984;2020-05-20;2020-05-22;Alta Administrativa;2;2020-05-20;Ultrassonografia;Hemograma, sangue total;RDW;17.3;%;11,9 a 15,5;False
94D3FC92C242927FC6F8C6CD290CF80F;8721945CA57A918A02BB8F5882885356;F;1979;2020-07-28;2020-07-31;Alta Administrativa;3;2020-07-28;Ultrassonografia;Hemograma, sangue total;RDW;13.2;%;11,9 a 15,5;False
AF42A9AF331C00B3262249E44934E512;713F60FDB7B0340D63DC7A7769DF802E;F;1978;2020-08-20;2020-08-24;Alta Administrativa;4;2020-08-20;Recepcao do Centro Diagnostico;Hemograma, sangue total;RDW;12.0;%;11,9 a 15,5;False
C15B6D7CC883AA5ECB17DE5A3A689D9A;2AAE26377A78DC515F1652CB013E904D;F;1975;2020-12-20;2020-12-22;Alta Administrativa;2;2020-12-21;Oncologia Clinica - Brasilia II;Hemograma, sangue total;RDW;19.3;%;11,9 a 15,5;False
C97C86C758C3F246473D6002F1E204B6;ED8DF0403C0673C1CC89EEBCA708A123;F;1975;2020-08-25;2020-08-27;Alta Administrativa;2;2020-08-25;Ultrassonografia - Jardins;Hemograma, sangue total;RDW;12.5;%;11,9 a 15,5;False
