ID_PACIENTE;ID_ATENDIMENTO;IC_SEXO;aa_nascimento;DT_ATENDIMENTO;DT_DESFECHO;DE_DESFECHO;DAYS;DT_COLETA;DE_ORIGEM;DE_EXAME;DE_ANALITO;DE_RESULTADO;CD_UNIDADE;DE_VALOR_REFERENCIA;OUTLIERS
009F46271AA900748E4C1988E51427DC;8B850E19AEADBE71ADA977CC87601BD8;M;1974;2020-10-28;2020-10-30;Alta Administrativa;2;2020-10-28;Endoscopia - Itaim;Hemograma, sangue total;Plaquetas;217000;/mm3;150.000 a 450.000;False
16DC5FD5028117F305076A30074F7FD5;BA5D3DDEAD49ABDC1C73FA5F0401C862;M;1980;2020-10-05;2020-10-07;Alta medica melhorado;2;2020-10-05;Unidades de Internacao;Hemograma, sangue total;Plaquetas;29000;/mm3;150.000 a 450.000;False
380D91676CD5811E5E1039CBC00AFAA0;4766A7EF7926383330F0A7E9BF8DEAFE;M;1985;2020-10-31;2020-11-05;Alta medica melhorado;5;2020-10-31;Unidades de Internacao;Hemograma, sangue total;Plaquetas;217000;/mm3;150.000 a 450.000;False
4750FC1C2952FDA9F4FD9B1F88B013C2;7A3DD6FBB61F3B2BADF48B4E3A261097;M;1985;2020-04-07;2020-04-18;Alta medica melhorado;11;2020-04-07;Unidades de Internacao;Hemograma, sangue total;Plaquetas;134000;/mm3;150.000 a 450.000;False
4853CB756107979BF221084915A1EEEF;C0828D04D13B8560BF518E62E4677387;M;1977;2020-06-03;2020-06-05;Alta medica melhorado;2;2020-06-03;Unidades de Internacao;Hemograma, sangue total;Plaquetas;280000;/mm3;150.000 a 450.000;False
512D9396798DD0172B614F4CBC4BCA26;23552E9D8943F174AD07C701DA9FDFB3;M;1974;2020-08-28;2020-08-31;Alta Administrativa;3;2020-08-28;Recepcao do Centro Diagnostico;Hemograma, sangue total;Plaquetas;264000;/mm3;150.000 a 450.000;False
6F0C827724760C0427F79F83E55D1A89;806BBD561AD8264D6278BD31EC24609C;M;1990;2020-03-19;2020-03-23;Alta Administrativa;4;2020-03-19;Recepcao do Centro Diagnostico;Hemograma, sangue total;Plaquetas;229000;/mm3;150.000 a 450.000;False
7749FDB98BB4370A37C070B81581DA31;6BC3601ABF4963846820C13142F75AB4;M;1992;2020-04-27;2020-04-29;Alta medica melhorado;2;2020-04-27;Unidades de Internacao;Hemograma, sangue total;Plaquetas;168000;/mm3;150.000 a 450.000;False
AA1E0A1BBB04DBFB2D4FE21BDB45FB74;645419AC86B05340C11B86E3E72C2417;M;1977;2020-08-08;2020-08-11;Alta Administrativa;3;2020-08-08;Recepcao do Centro Diagnostico;Hemograma, sangue total;Plaquetas;316000;/mm3;150.000 a 450.000;False
BBA5D8471F18BD84FB3A53144B607466;E18058A6D14D4ED6943B3D433BCAC634;M;1972;2020-03-24;2020-04-15;Alta medica melhorado;22;2020-03-24;Unidades de Internacao;Hemograma, sangue total;Plaquetas;143000;/mm3; 150.000 a 450.000;False
C4DD39FE77D86BE0C208033AF918795A;98D8710E06AFD9CD4CB8DD68FD31549E;M;1993;2020-04-29;2020-05-23;Alta medica melhorado;24;2020-04-29;Unidades de Internacao;Hemograma, sangue total;Plaquetas;153000;/mm3;150.000 a 450.000;False
E550128723721F799B9701E321A2A56B;C1530B97281843E49F533DC903467FB5;M;1981;2020-10-24;2020-10-26;Alta Administrativa;2;2020-10-24;Recepcao do Centro Diagnostico;Hemograma, sangue total;Plaquetas;340000;/mm3;150.000 a 450.000;False
F1C72DDFD83093BD5F02037DEA10BA58;2397D7E0B59D13FE01F8AE4A5C8758CF;M;1981;2020-08-13;2020-08-17;Alta Administrativa;4;2020-08-13;Endoscopia;Hemograma, sangue total;Plaquetas;301000;/mm3;150.000 a 450.000;False
FE6F83131CFD125E3D2C3C2CE1FD0894;93A72F34F671DF0A4BC5D3F70D9339BB;M;1985;2020-04-01;2020-04-04;Alta medica melhorado;3;2020-04-01;Unidades de Internacao;Hemograma, sangue total;Plaquetas;235000;/mm3;150.000 a 450.000;False
