ID_PACIENTE;ID_ATENDIMENTO;IC_SEXO;aa_nascimento;DT_ATENDIMENTO;DT_DESFECHO;DE_DESFECHO;DAYS;DT_COLETA;DE_ORIGEM;DE_EXAME;DE_ANALITO;DE_RESULTADO;CD_UNIDADE;DE_VALOR_REFERENCIA;OUTLIERS
03921BD7EFD5787934B8900682F73608;DC9E5CE21C23834FF2527BCD51E28A8B;M;1973;2020-08-20;2020-08-31;Alta medica melhorado;11;2020-08-25;UTI;Hepar. Baixo Peso Mol  Anti-Xa;Hepar. Baixo Peso Mol Anti-Xa;0.8;UI/mL;0,5 a 1,1;False
0D4733F052B0260DB660884992D7402A;1511DBC83E99C22B39086BD8D2A22B0A;M;1975;2020-11-11;2020-11-23;Alta medica melhorado;12;2020-11-18;Unidades de Internacao;Hepar. Baixo Peso Mol  Anti-Xa;Hepar. Baixo Peso Mol Anti-Xa;1.0;UI/mL;0,5 a 1,1;False
0E16F576464C8CA8677C7E19E2CBC073;25FF6D49D3A70407DF7E7031EDB3D151;M;1972;2020-07-02;2020-07-11;Alta medica melhorado;9;2020-07-03;UTI;Hepar. Baixo Peso Mol  Anti-Xa;Hepar. Baixo Peso Mol Anti-Xa;0.8;UI/mL;0,5 a 1,1;False
1A9847F95F2853E73C897185CEB46A9E;118A2E7A5EFF07C553A317FD68616536;M;1982;2020-12-04;2020-12-18;Alta medica melhorado;14;2020-12-05;UTI;Hepar. Baixo Peso Mol  Anti-Xa;Hepar. Baixo Peso Mol Anti-Xa;0.5;UI/mL;0,5 a 1,1;False
1BB3B4F98ECF181E3E71EBD2743E69A7;A973EE096F5A17E5EAA6778939355926;M;1972;2020-11-10;2020-11-22;Alta medica melhorado;12;2020-11-12;UTI;Hepar. Baixo Peso Mol  Anti-Xa;Hepar. Baixo Peso Mol Anti-Xa;1.0;UI/mL;0,5 a 1,1;False
1E3EDF92D8E711CFA4F3DB90B39CAADD;3872C812F4E886EA6853527A4BA89D31;M;1976;2020-05-18;2020-05-26;Alta medica melhorado;8;2020-05-20;UTI;Hepar. Baixo Peso Mol  Anti-Xa;Hepar. Baixo Peso Mol Anti-Xa;0.6;UI/mL;0,5 a 1,1;False
26FC4FB8E3DCECD77AEBC335C6227D9B;BCB93A9B2CA252B41310828E41375285;M;1987;2020-11-03;2020-11-08;Alta medica melhorado;5;2020-11-04;Unidades de Internacao;Hepar. Baixo Peso Mol  Anti-Xa;Hepar. Baixo Peso Mol Anti-Xa;0.4;UI/mL;0,5 a 1,1;False
26FC4FB8E3DCECD77AEBC335C6227D9B;BCB93A9B2CA252B41310828E41375285;M;1987;2020-11-03;2020-11-08;Alta medica melhorado;5;2020-11-07;Unidades de Internacao;Hepar. Baixo Peso Mol  Anti-Xa;Hepar. Baixo Peso Mol Anti-Xa;0.7;UI/mL;0,5 a 1,1;False
275DA3F9A45DCEDFA638EA8F5D34D150;091ECF083CA28AB21211E1AC7B71DD3C;M;1973;2020-08-08;2020-08-15;Alta medica melhorado;7;2020-08-10;UTI;Hepar. Baixo Peso Mol  Anti-Xa;Hepar. Baixo Peso Mol Anti-Xa;0.6;UI/mL;0,5 a 1,1;False
2A3EC7F278955348DD9FAF23BA680B49;8CEB3B36089FFB12026FFB729774A538;M;1978;2020-10-20;2020-11-04;Alta medica melhorado;15;2020-10-27;UTI;Hepar. Baixo Peso Mol  Anti-Xa;Hepar. Baixo Peso Mol Anti-Xa;0.9;UI/mL;0,5 a 1,1;False
2A549945030A285EA74F638BB95BCB5D;8AC42995AAA0DA2C7282B10821A97BB6;M;1986;2020-12-11;2020-12-16;Alta medica melhorado;5;2020-12-14;Unidades de Internacao;Hepar. Baixo Peso Mol  Anti-Xa;Hepar. Baixo Peso Mol Anti-Xa;0.2;UI/mL;0,5 a 1,1;False
2C73E3EA44EF887B11B6734FA02E2A24;1C7563C1992D0968C13A45954E86A61A;M;1978;2020-05-29;2020-06-11;Alta medica melhorado;13;2020-06-04;UTI;Hepar. Baixo Peso Mol  Anti-Xa;Hepar. Baixo Peso Mol Anti-Xa;0.4;UI/mL;0,5 a 1,1;False
2C73E3EA44EF887B11B6734FA02E2A24;1C7563C1992D0968C13A45954E86A61A;M;1978;2020-05-29;2020-06-11;Alta medica melhorado;13;2020-06-09;Unidades de Internacao;Hepar. Baixo Peso Mol  Anti-Xa;Hepar. Baixo Peso Mol Anti-Xa;0.4;UI/mL;0,5 a 1,1;False
380D91676CD5811E5E1039CBC00AFAA0;4766A7EF7926383330F0A7E9BF8DEAFE;M;1985;2020-10-31;2020-11-05;Alta medica melhorado;5;2020-11-04;Unidades de Internacao;Hepar. Baixo Peso Mol  Anti-Xa;Hepar. Baixo Peso Mol Anti-Xa;0.6;UI/mL;0,5 a 1,1;False
3C232A34B3A4C8F458C467FF532F9AC5;C4E0C96076FDF4CD5DB7F87C2CF61D66;M;1983;2020-05-26;2020-06-05;Alta medica melhorado;10;2020-05-27;UTI;Hepar. Baixo Peso Mol  Anti-Xa;Hepar. Baixo Peso Mol Anti-Xa;0.3;UI/mL;0,5 a 1,1;False
3E9A2A991A04F37261A3AAED18DC5DC1;533659910FF867FA0D0E64BCE2C83307;M;1977;2020-11-21;2020-11-29;Alta medica melhorado;8;2020-11-25;Unidades de Internacao;Hepar. Baixo Peso Mol  Anti-Xa;Hepar. Baixo Peso Mol Anti-Xa;0.7;UI/mL;0,5 a 1,1;False
4750FC1C2952FDA9F4FD9B1F88B013C2;7A3DD6FBB61F3B2BADF48B4E3A261097;M;1985;2020-04-07;2020-04-18;Alta medica melhorado;11;2020-04-11;UTI;Hepar. Baixo Peso Mol  Anti-Xa;Hepar. Baixo Peso Mol Anti-Xa;0.2;UI/mL;0,5 a 1,1;False
4DB9CA483C65C81F9AD6BA4438E6B2A2;487953C681374965653AAB614B667A00;M;1981;2020-10-23;2020-10-27;Alta medica melhorado;4;2020-10-26;Unidades de Internacao;Hepar. Baixo Peso Mol  Anti-Xa;Hepar. Baixo Peso Mol Anti-Xa;0.6;UI/mL;0,5 a 1,1;False
5380C23D74E7A745698CADE7FB218456;FF21301DFD82DF0337BBA028988A4762;M;1996;2020-11-14;2020-11-29;Alta medica melhorado;15;2020-11-19;UTI;Hepar. Baixo Peso Mol  Anti-Xa;Hepar. Baixo Peso Mol Anti-Xa;0.6;UI/mL;0,5 a 1,1;False
5380C23D74E7A745698CADE7FB218456;FF21301DFD82DF0337BBA028988A4762;M;1996;2020-11-14;2020-11-29;Alta medica melhorado;15;2020-11-21;UTI;Hepar. Baixo Peso Mol  Anti-Xa;Hepar. Baixo Peso Mol Anti-Xa;0.7;UI/mL;0,5 a 1,1;False
575D6B54FCFB89E230A2F919278EB1CD;F4F266FE84A14A9AF657D10FB47E1130;M;1978;2020-11-17;2020-11-22;Alta medica melhorado;5;2020-11-18;Unidades de Internacao;Hepar. Baixo Peso Mol  Anti-Xa;Hepar. Baixo Peso Mol Anti-Xa;0.7;UI/mL;0,5 a 1,1;False
6688522AB8A03FA659460E58C4693832;A06A54F2F609DC32DF568C0A3133FB7E;M;1979;2020-04-13;2020-05-15;Alta medica melhorado;32;2020-04-27;UTI;Hepar. Baixo Peso Mol  Anti-Xa;Hepar. Baixo Peso Mol Anti-Xa;0.6;UI/mL;0,5 a 1,1;False
6688522AB8A03FA659460E58C4693832;A06A54F2F609DC32DF568C0A3133FB7E;M;1979;2020-04-13;2020-05-15;Alta medica melhorado;32;2020-04-17;UTI;Hepar. Baixo Peso Mol  Anti-Xa;Hepar. Baixo Peso Mol Anti-Xa;0.2;UI/mL;0,5 a 1,1;False
6688522AB8A03FA659460E58C4693832;A06A54F2F609DC32DF568C0A3133FB7E;M;1979;2020-04-13;2020-05-15;Alta medica melhorado;32;2020-04-20;UTI;Hepar. Baixo Peso Mol  Anti-Xa;Hepar. Baixo Peso Mol Anti-Xa;1.0;UI/mL;0,5 a 1,1;False
6E90A1D7EE0808B255B597990B861430;FF85894FAD964212BE5879B264202AE1;M;1978;2020-08-06;2020-09-12;Alta medica melhorado;37;2020-08-24;UTI;Hepar. Baixo Peso Mol  Anti-Xa;Hepar. Baixo Peso Mol Anti-Xa;1.5;UI/mL;0,5 a 1,1;True
6E90A1D7EE0808B255B597990B861430;FF85894FAD964212BE5879B264202AE1;M;1978;2020-08-06;2020-09-12;Alta medica melhorado;37;2020-08-11;UTI;Hepar. Baixo Peso Mol  Anti-Xa;Hepar. Baixo Peso Mol Anti-Xa;0.7;UI/mL;0,5 a 1,1;False
6E90A1D7EE0808B255B597990B861430;FF85894FAD964212BE5879B264202AE1;M;1978;2020-08-06;2020-09-12;Alta medica melhorado;37;2020-08-27;UTI;Hepar. Baixo Peso Mol  Anti-Xa;Hepar. Baixo Peso Mol Anti-Xa;1.2;UI/mL;0,5 a 1,1;True
8336A44C34EB4EDA4D10217C50C245E6;B63284F484F098EBD0066096FA165F32;M;1975;2020-12-04;2020-12-12;Alta medica melhorado;8;2020-12-09;Unidades de Internacao;Hepar. Baixo Peso Mol  Anti-Xa;Hepar. Baixo Peso Mol Anti-Xa;0.3;UI/mL;0,5 a 1,1;False
8336A44C34EB4EDA4D10217C50C245E6;B63284F484F098EBD0066096FA165F32;M;1975;2020-12-04;2020-12-12;Alta medica melhorado;8;2020-12-06;Unidades de Internacao;Hepar. Baixo Peso Mol  Anti-Xa;Hepar. Baixo Peso Mol Anti-Xa;1.0;UI/mL;0,5 a 1,1;False
83544E8DF14082545BA63AE6974BD258;8AED7A376C4D7A088D9422C7D388F2DF;M;1973;2020-07-29;2020-10-02;Alta medica melhorado;65;2020-09-07;UTI;Hepar. Baixo Peso Mol  Anti-Xa;Hepar. Baixo Peso Mol Anti-Xa;0.4;UI/mL;0,5 a 1,1;False
83544E8DF14082545BA63AE6974BD258;8AED7A376C4D7A088D9422C7D388F2DF;M;1973;2020-07-29;2020-10-02;Alta medica melhorado;65;2020-09-10;UTI;Hepar. Baixo Peso Mol  Anti-Xa;Hepar. Baixo Peso Mol Anti-Xa;0.6;UI/mL;0,5 a 1,1;False
83544E8DF14082545BA63AE6974BD258;8AED7A376C4D7A088D9422C7D388F2DF;M;1973;2020-07-29;2020-10-02;Alta medica melhorado;65;2020-08-29;UTI;Hepar. Baixo Peso Mol  Anti-Xa;Hepar. Baixo Peso Mol Anti-Xa;0.5;UI/mL;0,5 a 1,1;False
83544E8DF14082545BA63AE6974BD258;8AED7A376C4D7A088D9422C7D388F2DF;M;1973;2020-07-29;2020-10-02;Alta medica melhorado;65;2020-09-26;UTI;Hepar. Baixo Peso Mol  Anti-Xa;Hepar. Baixo Peso Mol Anti-Xa;0.6;UI/mL;0,5 a 1,1;False
83544E8DF14082545BA63AE6974BD258;8AED7A376C4D7A088D9422C7D388F2DF;M;1973;2020-07-29;2020-10-02;Alta medica melhorado;65;2020-08-04;UTI;Hepar. Baixo Peso Mol  Anti-Xa;Hepar. Baixo Peso Mol Anti-Xa;0.6;UI/mL;0,5 a 1,1;False
89A91139CE7C02A0D321CBFE74A1FA2C;7D1A5E7C7E6CEBC0EA69428B29C04632;M;1982;2020-08-01;2020-08-13;Alta medica melhorado;12;2020-08-05;UTI;Hepar. Baixo Peso Mol  Anti-Xa;Hepar. Baixo Peso Mol Anti-Xa;0.5;UI/mL;0,5 a 1,1;False
8C048326E93A94589190693897CE3456;C351875771449F94F8356709A260CD4A;M;1981;2020-05-01;2020-05-10;Alta medica melhorado;9;2020-05-05;UTI;Hepar. Baixo Peso Mol  Anti-Xa;Hepar. Baixo Peso Mol Anti-Xa;0.5;UI/mL;0,5 a 1,1;False
8E092ED81FC743593E99BA5C2BB855F2;7B7AAD49191636E3835643D49081D1F9;M;1982;2020-03-19;2020-04-09;Alta medica melhorado;21;2020-04-06;UTI;Hepar. Baixo Peso Mol  Anti-Xa;Hepar. Baixo Peso Mol Anti-Xa;0.7;UI/mL;0,5 a 1,1;False
8E092ED81FC743593E99BA5C2BB855F2;7B7AAD49191636E3835643D49081D1F9;M;1982;2020-03-19;2020-04-09;Alta medica melhorado;21;2020-04-05;UTI;Hepar. Baixo Peso Mol  Anti-Xa;Hepar. Baixo Peso Mol Anti-Xa;0.5;UI/mL;0,5 a 1,1;False
98C39C9BA80DB7F5EFB56C344932B60D;AD7CE560D6B14EB691F27E8A0E88AFC9;M;1979;2020-06-04;2020-06-14;Alta medica melhorado;10;2020-06-13;Unidades de Internacao;Hepar. Baixo Peso Mol  Anti-Xa;Hepar. Baixo Peso Mol Anti-Xa;0.7;UI/mL;0,5 a 1,1;False
98C39C9BA80DB7F5EFB56C344932B60D;AD7CE560D6B14EB691F27E8A0E88AFC9;M;1979;2020-06-04;2020-06-14;Alta medica melhorado;10;2020-06-08;UTI;Hepar. Baixo Peso Mol  Anti-Xa;Hepar. Baixo Peso Mol Anti-Xa;0.7;UI/mL;0,5 a 1,1;False
98C39C9BA80DB7F5EFB56C344932B60D;AD7CE560D6B14EB691F27E8A0E88AFC9;M;1979;2020-06-04;2020-06-14;Alta medica melhorado;10;2020-06-07;UTI;Hepar. Baixo Peso Mol  Anti-Xa;Hepar. Baixo Peso Mol Anti-Xa;0.3;UI/mL;0,5 a 1,1;False
9A4D0A9915AC7A7E4DE5853ECA648E5E;BCE6D6F3C9DC242514A0DC0D8D9029B8;M;1976;2020-08-03;2020-08-15;Alta medica melhorado;12;2020-08-10;UTI;Hepar. Baixo Peso Mol  Anti-Xa;Hepar. Baixo Peso Mol Anti-Xa;0.2;UI/mL;0,5 a 1,1;False
9A4D0A9915AC7A7E4DE5853ECA648E5E;BCE6D6F3C9DC242514A0DC0D8D9029B8;M;1976;2020-08-03;2020-08-15;Alta medica melhorado;12;2020-08-05;UTI;Hepar. Baixo Peso Mol  Anti-Xa;Hepar. Baixo Peso Mol Anti-Xa;0.1;UI/mL;0,5 a 1,1;False
A1133D14CAD791298B98CBDA52D98BC1;DB93869E6888C44D873716572EFEC904;M;1985;2020-11-03;2020-11-09;Alta medica melhorado;6;2020-11-05;Unidades de Internacao;Hepar. Baixo Peso Mol  Anti-Xa;Hepar. Baixo Peso Mol Anti-Xa;0.7;UI/mL;0,5 a 1,1;False
A75F3EA1AE2E091FDD2E2B54101E5B7C;A625F45D19BAE51BDA9D35F6A4AB12C6;M;1989;2020-05-27;2020-06-01;Alta medica melhorado;5;2020-05-29;Unidades de Internacao;Hepar. Baixo Peso Mol  Anti-Xa;Hepar. Baixo Peso Mol Anti-Xa;0.6;UI/mL;0,5 a 1,1;False
B4173D1F5AC5EDF21083CF91FDBA784F;0C206CE3971CD600E70B156A8F9955A5;M;1974;2020-08-11;2020-08-17;Alta medica melhorado;6;2020-08-12;Unidades de Internacao;Hepar. Baixo Peso Mol  Anti-Xa;Hepar. Baixo Peso Mol Anti-Xa;1.0;UI/mL;0,5 a 1,1;False
BA8ABA92F34E232FB03FD7628DF87109;AB1848C6A4B66BF02C1E064D18B6E659;M;1981;2020-06-22;2020-07-06;Alta medica melhorado;14;2020-06-30;UTI;Hepar. Baixo Peso Mol  Anti-Xa;Hepar. Baixo Peso Mol Anti-Xa;0.4;UI/mL;0,5 a 1,1;False
BBA5D8471F18BD84FB3A53144B607466;E18058A6D14D4ED6943B3D433BCAC634;M;1972;2020-03-24;2020-04-15;Alta medica melhorado;22;2020-04-05;UTI;Hepar. Baixo Peso Mol  Anti-Xa;Hepar. Baixo Peso Mol Anti-Xa;0.6;UI/mL;0,5 a 1,1;False
BBA5D8471F18BD84FB3A53144B607466;E18058A6D14D4ED6943B3D433BCAC634;M;1972;2020-03-24;2020-04-15;Alta medica melhorado;22;2020-04-07;UTI;Hepar. Baixo Peso Mol  Anti-Xa;Hepar. Baixo Peso Mol Anti-Xa;0.6;UI/mL;0,5 a 1,1;False
BD505E1C7E6464324F7CD011C1F8583D;3644E6FB91748F694A0CD2D0766E23DA;M;1978;2020-04-29;2020-05-17;Alta medica melhorado;18;2020-05-04;UTI;Hepar. Baixo Peso Mol  Anti-Xa;Hepar. Baixo Peso Mol Anti-Xa;0.3;UI/mL;0,5 a 1,1;False
C1CAF30265C12BDBBBFEB996A2FCCA57;0718E2C55C7AFD64454F57F228E5A5A2;M;1975;2020-05-27;2020-06-08;Alta medica melhorado;12;2020-05-31;UTI;Hepar. Baixo Peso Mol  Anti-Xa;Hepar. Baixo Peso Mol Anti-Xa;0.3;UI/mL;0,5 a 1,1;False
C68EBE55B24381DF5BFA26FB812569FA;9B0E5D5D678D99218D332E55C4BD7F2A;M;1973;2020-11-09;2020-11-18;Alta medica melhorado;9;2020-11-14;Unidades de Internacao;Hepar. Baixo Peso Mol  Anti-Xa;Hepar. Baixo Peso Mol Anti-Xa;1.4;UI/mL;0,5 a 1,1;True
C68EBE55B24381DF5BFA26FB812569FA;9B0E5D5D678D99218D332E55C4BD7F2A;M;1973;2020-11-09;2020-11-18;Alta medica melhorado;9;2020-11-10;Unidades de Internacao;Hepar. Baixo Peso Mol  Anti-Xa;Hepar. Baixo Peso Mol Anti-Xa;0.8;UI/mL;0,5 a 1,1;False
C68EBE55B24381DF5BFA26FB812569FA;9B0E5D5D678D99218D332E55C4BD7F2A;M;1973;2020-11-09;2020-11-18;Alta medica melhorado;9;2020-11-10;Unidades de Internacao;Hepar. Baixo Peso Mol  Anti-Xa;Hepar. Baixo Peso Mol Anti-Xa;1.0;UI/mL;0,5 a 1,1;False
C7B5F4F4EA9F6E8A25056B097827FB07;9D9CD0B0325A406AC4C95F3D4B546999;M;1973;2020-10-23;2020-11-08;Alta medica melhorado;16;2020-11-02;UTI;Hepar. Baixo Peso Mol  Anti-Xa;Hepar. Baixo Peso Mol Anti-Xa;0.6;UI/mL;0,5 a 1,1;False
D4A8997E406D089B6B3E4056AD7E062D;6BB9F129BADE8D029E71714697D3D235;M;1976;2020-09-01;2020-09-09;Alta medica melhorado;8;2020-09-04;UTI;Hepar. Baixo Peso Mol  Anti-Xa;Hepar. Baixo Peso Mol Anti-Xa;0.3;UI/mL;0,5 a 1,1;False
DCEFDE8251F36244D29702A96011F73B;40DB5723E06DAD7350E3EC5F9C132E62;M;1986;2020-09-03;2020-09-14;Alta medica melhorado;11;2020-09-13;Unidades de Internacao;Hepar. Baixo Peso Mol  Anti-Xa;Hepar. Baixo Peso Mol Anti-Xa;0.6;UI/mL;0,5 a 1,1;False
E32857191989417E4C36C129E3371E05;F7ED5454C58913A6A68E7A9F697475CA;M;1977;2020-06-20;2020-06-26;Alta medica melhorado;6;2020-06-24;Unidades de Internacao;Hepar. Baixo Peso Mol  Anti-Xa;Hepar. Baixo Peso Mol Anti-Xa;0.4;UI/mL;0,5 a 1,1;False
E97B99E0AB37D01565D008B2D4F9F939;F6694058DD51FAC94010F209427EC6ED;M;1993;2020-09-27;2020-10-08;Alta por abandono;11;2020-09-30;UTI;Hepar. Baixo Peso Mol  Anti-Xa;Hepar. Baixo Peso Mol Anti-Xa;0.5;UI/mL;0,5 a 1,1;False
E97B99E0AB37D01565D008B2D4F9F939;F6694058DD51FAC94010F209427EC6ED;M;1993;2020-09-27;2020-10-08;Alta por abandono;11;2020-10-03;UTI;Hepar. Baixo Peso Mol  Anti-Xa;Hepar. Baixo Peso Mol Anti-Xa;0.7;UI/mL;0,5 a 1,1;False
F7BF7C1E1E101400B17F53A5EA43886A;2A2F022FB7BF477BF7C9E6CED3675DB8;M;1975;2020-11-28;2020-12-06;Alta medica melhorado;8;2020-12-03;Unidades de Internacao;Hepar. Baixo Peso Mol  Anti-Xa;Hepar. Baixo Peso Mol Anti-Xa;0.4;UI/mL;0,5 a 1,1;False
F883E0D24A78B0F05DA41C6DAB3C54BB;D7BEF14602F56D6B4EDFF8641BFBBB41;M;1976;2020-08-17;2020-09-07;Alta medica melhorado;21;2020-08-28;UTI;Hepar. Baixo Peso Mol  Anti-Xa;Hepar. Baixo Peso Mol Anti-Xa;1.0;UI/mL;0,5 a 1,1;False
F883E0D24A78B0F05DA41C6DAB3C54BB;D7BEF14602F56D6B4EDFF8641BFBBB41;M;1976;2020-08-17;2020-09-07;Alta medica melhorado;21;2020-08-31;UTI;Hepar. Baixo Peso Mol  Anti-Xa;Hepar. Baixo Peso Mol Anti-Xa;1.1;UI/mL;0,5 a 1,1;False
FC37D2ADDD33B7EFABA605F14AD17997;E2512FCA581511B20C9308A3922D6767;M;1986;2020-05-11;2020-05-20;Alta medica melhorado;9;2020-05-18;Unidades de Internacao;Hepar. Baixo Peso Mol  Anti-Xa;Hepar. Baixo Peso Mol Anti-Xa;0.6;UI/mL;0,5 a 1,1;False
FC37D2ADDD33B7EFABA605F14AD17997;E2512FCA581511B20C9308A3922D6767;M;1986;2020-05-11;2020-05-20;Alta medica melhorado;9;2020-05-16;Unidades de Internacao;Hepar. Baixo Peso Mol  Anti-Xa;Hepar. Baixo Peso Mol Anti-Xa;0.5;UI/mL;0,5 a 1,1;False
