ID_PACIENTE;ID_ATENDIMENTO;IC_SEXO;aa_nascimento;DT_ATENDIMENTO;DT_DESFECHO;DE_DESFECHO;DAYS;DT_COLETA;DE_ORIGEM;DE_EXAME;DE_ANALITO;DE_RESULTADO;CD_UNIDADE;DE_VALOR_REFERENCIA;OUTLIERS
009F46271AA900748E4C1988E51427DC;8B850E19AEADBE71ADA977CC87601BD8;M;1974;2020-10-28;2020-10-30;Alta Administrativa;2;2020-10-28;Endoscopia - Itaim;Insulina;HOMA-IR;1.3;mU/L;Ver resultado tradicional;False
512D9396798DD0172B614F4CBC4BCA26;23552E9D8943F174AD07C701DA9FDFB3;M;1974;2020-08-28;2020-08-31;Alta Administrativa;3;2020-08-28;Recepcao do Centro Diagnostico;Insulina;HOMA-IR;3.8;mU/L;Ver resultado tradicional;False
6F0C827724760C0427F79F83E55D1A89;806BBD561AD8264D6278BD31EC24609C;M;1990;2020-03-19;2020-03-23;Alta Administrativa;4;2020-03-19;Recepcao do Centro Diagnostico;Insulina;HOMA-IR;5.9;mU/L;Ver resultado tradicional;False
757491094F8512D8575478A7DABBA173;BE8730724415D2F6C2323142046D22B5;M;1973;2020-12-16;2020-12-25;Alta medica melhorado;9;2020-12-24;Unidades de Internacao;Insulina;HOMA-IR;1.3;mU/L;Ver resultado tradicional;False
78D228D2884D2F1B6C6E3995C97B12AF;F6ED3447F2BE5538DC60A9AF2CE64CE8;M;1980;2020-08-13;2020-08-17;Alta medica melhorado;4;2020-08-14;Unidades de Internacao;Insulina;HOMA-IR;20.1;mU/L;Ver resultado tradicional;True
94813A86EB1C89F97CD54309E0DAC8CE;5D8A11B5582B792F4B5E6028D0DBF016;M;1974;2020-07-29;2020-08-01;Alta medica melhorado;3;2020-07-30;UTI;Insulina;HOMA-IR;4.5;mU/L;Ver resultado tradicional;False
D48C77C8131C33EDD38D14A2310C1753;445DB1D4CB6A3E72846FEC0959A6A52B;M;1985;2020-11-04;2020-11-06;Alta medica melhorado;2;2020-11-05;Unidades de Internacao;Insulina;HOMA-IR;4.4;mU/L;Ver resultado tradicional;False
F1C72DDFD83093BD5F02037DEA10BA58;2397D7E0B59D13FE01F8AE4A5C8758CF;M;1981;2020-08-13;2020-08-17;Alta Administrativa;4;2020-08-13;Endoscopia;Insulina;HOMA-IR;1.8;mU/L;Ver resultado tradicional;False
