ID_PACIENTE;ID_ATENDIMENTO;IC_SEXO;aa_nascimento;DT_ATENDIMENTO;DT_DESFECHO;DE_DESFECHO;DAYS;DT_COLETA;DE_ORIGEM;DE_EXAME;DE_ANALITO;DE_RESULTADO;CD_UNIDADE;DE_VALOR_REFERENCIA;OUTLIERS
0355D634CD7585CA76A3A3817EF99C3C;04DD2FC0F127E3C6AC335F46562AC607;F;1982;2020-08-12;2020-08-17;Alta medica melhorado;5;2020-08-12;UTI;Magnesio;Magnesio;2.1;mg/dL;1,6 a 2,6;False
0355D634CD7585CA76A3A3817EF99C3C;04DD2FC0F127E3C6AC335F46562AC607;F;1982;2020-08-12;2020-08-17;Alta medica melhorado;5;2020-08-13;Unidades de Internacao;Magnesio;Magnesio;2.0;mg/dL;1,6 a 2,6;False
0355D634CD7585CA76A3A3817EF99C3C;04DD2FC0F127E3C6AC335F46562AC607;F;1982;2020-08-12;2020-08-17;Alta medica melhorado;5;2020-08-13;Unidades de Internacao;Magnesio;Magnesio;2.2;mg/dL;1,6 a 2,6;False
0355D634CD7585CA76A3A3817EF99C3C;04DD2FC0F127E3C6AC335F46562AC607;F;1982;2020-08-12;2020-08-17;Alta medica melhorado;5;2020-08-14;Unidades de Internacao;Magnesio;Magnesio;2.2;mg/dL;1,6 a 2,6;False
0355D634CD7585CA76A3A3817EF99C3C;04DD2FC0F127E3C6AC335F46562AC607;F;1982;2020-08-12;2020-08-17;Alta medica melhorado;5;2020-08-13;Unidades de Internacao;Magnesio;Magnesio;2.2;mg/dL;1,6 a 2,6;False
05221029190B109C8BAC4474F9D639BC;A98209F43E0D0937C0DA050BD36A2B62;F;1972;2020-07-12;2020-07-16;Alta Administrativa;4;2020-07-13;Oncologia Clinica - Brasilia II;Magnesio;Magnesio;2.0;mg/dL;1,6 a 2,6;False
05221029190B109C8BAC4474F9D639BC;B614C68D29EBBF4134D42E8735C57C7D;F;1972;2020-05-20;2020-06-02;Alta medica curado;13;2020-05-20;Pronto Socorro;Magnesio;Magnesio;1.8;mg/dL;1,6 a 2,6;False
05221029190B109C8BAC4474F9D639BC;B614C68D29EBBF4134D42E8735C57C7D;F;1972;2020-05-20;2020-06-02;Alta medica curado;13;2020-05-30;Unidades de Internacao;Magnesio;Magnesio;1.8;mg/dL;1,6 a 2,6;False
05221029190B109C8BAC4474F9D639BC;B614C68D29EBBF4134D42E8735C57C7D;F;1972;2020-05-20;2020-06-02;Alta medica curado;13;2020-06-01;Unidades de Internacao;Magnesio;Magnesio;1.8;mg/dL;1,6 a 2,6;False
05221029190B109C8BAC4474F9D639BC;B614C68D29EBBF4134D42E8735C57C7D;F;1972;2020-05-20;2020-06-02;Alta medica curado;13;2020-05-21;Unidades de Internacao;Magnesio;Magnesio;1.8;mg/dL;1,6 a 2,6;False
05221029190B109C8BAC4474F9D639BC;B614C68D29EBBF4134D42E8735C57C7D;F;1972;2020-05-20;2020-06-02;Alta medica curado;13;2020-05-31;Unidades de Internacao;Magnesio;Magnesio;1.9;mg/dL;1,6 a 2,6;False
05221029190B109C8BAC4474F9D639BC;B614C68D29EBBF4134D42E8735C57C7D;F;1972;2020-05-20;2020-06-02;Alta medica curado;13;2020-05-24;Unidades de Internacao;Magnesio;Magnesio;1.8;mg/dL;1,6 a 2,6;False
05221029190B109C8BAC4474F9D639BC;B614C68D29EBBF4134D42E8735C57C7D;F;1972;2020-05-20;2020-06-02;Alta medica curado;13;2020-05-27;Unidades de Internacao;Magnesio;Magnesio;1.9;mg/dL;1,6 a 2,6;False
05221029190B109C8BAC4474F9D639BC;BEF0F2FBFD8A6A401F73D96F4D1E5DAB;F;1972;2020-07-17;2020-07-20;Alta medica melhorado;3;2020-07-17;Pronto Socorro;Magnesio;Magnesio;2.0;mg/dL;1,6 a 2,6;False
05221029190B109C8BAC4474F9D639BC;BEF0F2FBFD8A6A401F73D96F4D1E5DAB;F;1972;2020-07-17;2020-07-20;Alta medica melhorado;3;2020-07-18;Unidades de Internacao;Magnesio;Magnesio;1.9;mg/dL;1,6 a 2,6;False
07FCE3867385C1D09F6B14CFCAABEEE6;2DA110394B06A309C41E453363156F8D;F;1986;2020-10-13;2020-10-18;Alta medica melhorado;5;2020-10-13;Unidades de Internacao;Magnesio;Magnesio;2.0;mg/dL;1,6 a 2,6;False
07FCE3867385C1D09F6B14CFCAABEEE6;2DA110394B06A309C41E453363156F8D;F;1986;2020-10-13;2020-10-18;Alta medica melhorado;5;2020-10-14;Unidades de Internacao;Magnesio;Magnesio;1.8;mg/dL;1,6 a 2,6;False
07FCE3867385C1D09F6B14CFCAABEEE6;2DA110394B06A309C41E453363156F8D;F;1986;2020-10-13;2020-10-18;Alta medica melhorado;5;2020-10-17;Unidades de Internacao;Magnesio;Magnesio;2.1;mg/dL;1,6 a 2,6;False
0AE22B5DBDA25BA96B2D53DB46618E1F;E0866240F8B83FE3BC291E78A4AA671C;F;1990;2020-08-27;2020-09-08;Alta medica melhorado;12;2020-09-01;UTI;Magnesio;Magnesio;2.0;mg/dL;1,6 a 2,6;False
0AE22B5DBDA25BA96B2D53DB46618E1F;E0866240F8B83FE3BC291E78A4AA671C;F;1990;2020-08-27;2020-09-08;Alta medica melhorado;12;2020-09-02;UTI;Magnesio;Magnesio;2.1;mg/dL;1,6 a 2,6;False
111302CD85383AD2A2DF28667700AF01;48F593C1BA326152705AC337A0CB0696;F;1980;2020-04-16;2020-04-23;Alta medica melhorado;7;2020-04-17;Unidades de Internacao;Magnesio;Magnesio;1.7;mg/dL;1,6 a 2,6;False
111302CD85383AD2A2DF28667700AF01;48F593C1BA326152705AC337A0CB0696;F;1980;2020-04-16;2020-04-23;Alta medica melhorado;7;2020-04-21;Unidades de Internacao;Magnesio;Magnesio;2.0;mg/dL;1,6 a 2,6;False
111302CD85383AD2A2DF28667700AF01;48F593C1BA326152705AC337A0CB0696;F;1980;2020-04-16;2020-04-23;Alta medica melhorado;7;2020-04-21;Unidades de Internacao;Magnesio;Magnesio;2.1;mg/dL;1,6 a 2,6;False
13E420107BB293072CDC21EA2DA9892F;B9C911B96309DF01CDE89072B106B912;F;1982;2020-04-20;2020-04-29;Alta medica melhorado;9;2020-04-27;Unidades de Internacao;Magnesio;Magnesio;2.1;mg/dL;1,6 a 2,6;False
1E30364495068CD693D25BFD829266AA;52949BCE719A995D0B1768F2ABD174FF;F;1987;2020-06-27;2020-06-29;Alta medica melhorado;2;2020-06-27;Unidades de Internacao;Magnesio;Magnesio;1.8;mg/dL;1,6 a 2,6;False
1E7725F341F622CDE7C2D82863DF4753;119C6B21EC5FDD7829798ED8F3CD9B83;F;1981;2020-03-17;2020-03-26;Alta medica melhorado;9;2020-03-19;UTI;Magnesio;Magnesio;2.3;mg/dL;1,6 a 2,6;False
1E7725F341F622CDE7C2D82863DF4753;119C6B21EC5FDD7829798ED8F3CD9B83;F;1981;2020-03-17;2020-03-26;Alta medica melhorado;9;2020-03-21;Unidades de Internacao;Magnesio;Magnesio;2.3;mg/dL;1,6 a 2,6;False
1ED902263BD8BE3A05AAC19BB8EA54CD;EEA63DC870901811F8D3277599E09D43;F;1972;2020-05-15;2020-05-18;Alta medica melhorado;3;2020-05-15;Unidades de Internacao;Magnesio;Magnesio;2.0;mg/dL;1,6 a 2,6;False
1ED902263BD8BE3A05AAC19BB8EA54CD;EEA63DC870901811F8D3277599E09D43;F;1972;2020-05-15;2020-05-18;Alta medica melhorado;3;2020-05-17;Unidades de Internacao;Magnesio;Magnesio;2.1;mg/dL;1,6 a 2,6;False
1F4C9489E4CC10D2FF7CDBAA623C7AAF;1011C2F95E98FA5011E49A319F9465BD;F;1978;2020-10-13;2020-10-17;Alta medica melhorado;4;2020-10-16;Unidades de Internacao;Magnesio;Magnesio;1.9;mg/dL;1,6 a 2,6;False
1F4C9489E4CC10D2FF7CDBAA623C7AAF;1011C2F95E98FA5011E49A319F9465BD;F;1978;2020-10-13;2020-10-17;Alta medica melhorado;4;2020-10-14;UTI;Magnesio;Magnesio;2.4;mg/dL;1,6 a 2,6;False
1F4C9489E4CC10D2FF7CDBAA623C7AAF;1011C2F95E98FA5011E49A319F9465BD;F;1978;2020-10-13;2020-10-17;Alta medica melhorado;4;2020-10-14;UTI;Magnesio;Magnesio;2.6;mg/dL;1,6 a 2,6;False
1F4C9489E4CC10D2FF7CDBAA623C7AAF;1011C2F95E98FA5011E49A319F9465BD;F;1978;2020-10-13;2020-10-17;Alta medica melhorado;4;2020-10-14;UTI;Magnesio;Magnesio;2.3;mg/dL;1,6 a 2,6;False
1F4C9489E4CC10D2FF7CDBAA623C7AAF;1011C2F95E98FA5011E49A319F9465BD;F;1978;2020-10-13;2020-10-17;Alta medica melhorado;4;2020-10-15;UTI;Magnesio;Magnesio;2.0;mg/dL;1,6 a 2,6;False
2A25DDD0EEEC2A67D1921ECB208F2F4E;ABF769E54BEEBDCEF922FE8E4591C762;F;1988;2020-09-28;2020-10-01;Alta medica melhorado;3;2020-09-28;UTI;Magnesio;Magnesio;2.1;mg/dL;1,6 a 2,6;False
2A25DDD0EEEC2A67D1921ECB208F2F4E;ABF769E54BEEBDCEF922FE8E4591C762;F;1988;2020-09-28;2020-10-01;Alta medica melhorado;3;2020-09-28;UTI;Magnesio;Magnesio;2.1;mg/dL;1,6 a 2,6;False
2ADE58B5C0A3D7FB03566E56F9E0F2B1;281CD4D76C69DDF0335CD00AACF1B20D;F;1981;2020-05-19;2020-05-26;Alta medica melhorado;7;2020-05-20;Unidades de Internacao;Magnesio;Magnesio;2.0;mg/dL;1,6 a 2,6;False
2CF106B186A5FB583590B79EF92EBF85;9C5AC4C53C057313382B10AC581132C3;F;1975;2020-05-28;2020-05-30;Alta medica melhorado;2;2020-05-28;UTI;Magnesio;Magnesio;1.9;mg/dL;1,6 a 2,6;False
2E31290537D67F1603FF64F3D3D409D0;915AAD1370E1ECD28EF932947ED833EC;F;1986;2020-08-27;2020-08-29;Alta medica melhorado;2;2020-08-27;Unidades de Internacao;Magnesio;Magnesio;2.1;mg/dL;1,6 a 2,6;False
3098F4EE64AD735A1E1964DBC5336146;257545B2BB08E1E951710310FBB17587;F;1975;2020-12-19;2020-12-23;Alta medica melhorado;4;2020-12-21;Unidades de Internacao;Magnesio;Magnesio;1.9;mg/dL;1,6 a 2,6;False
3098F4EE64AD735A1E1964DBC5336146;257545B2BB08E1E951710310FBB17587;F;1975;2020-12-19;2020-12-23;Alta medica melhorado;4;2020-12-22;Unidades de Internacao;Magnesio;Magnesio;1.9;mg/dL;1,6 a 2,6;False
357FA4612D1A46CE54C0D0C91DE9F6EC;0CBE55645840D7824FDB98B295AD32B3;F;1980;2020-07-21;2020-07-24;Alta Administrativa;3;2020-07-22;Oncologia Clinica - Brasilia II;Magnesio;Magnesio;2.4;mg/dL;1,6 a 2,6;False
357FA4612D1A46CE54C0D0C91DE9F6EC;1467EA9C43F701EC3436878FFFE025D1;F;1980;2020-05-08;2020-05-10;Alta medica melhorado;2;2020-05-08;Pronto Socorro;Magnesio;Magnesio;2.2;mg/dL;1,6 a 2,6;False
357FA4612D1A46CE54C0D0C91DE9F6EC;6549FB187560C772FAD6830D95154706;F;1980;2020-05-02;2020-05-04;Alta medica melhorado;2;2020-05-02;Pronto Socorro;Magnesio;Magnesio;2.2;mg/dL;1,6 a 2,6;False
357FA4612D1A46CE54C0D0C91DE9F6EC;6549FB187560C772FAD6830D95154706;F;1980;2020-05-02;2020-05-04;Alta medica melhorado;2;2020-05-03;Unidades de Internacao;Magnesio;Magnesio;2.0;mg/dL;1,6 a 2,6;False
357FA4612D1A46CE54C0D0C91DE9F6EC;84293FF7B58ECDBB45D03B9F7224CE4B;F;1980;2020-06-01;2020-10-05;Alta Administrativa;126;2020-06-01;Oncologia Clinica - Brasilia II;Magnesio;Magnesio;2.1;mg/dL;1,6 a 2,6;False
3678F6250A5A0F08D06CCBBC283A86EB;FB42D07836879235B17A01382FA085AB;F;1974;2020-05-19;2020-05-26;Alta medica melhorado;7;2020-05-23;Unidades de Internacao;Magnesio;Magnesio;1.9;mg/dL;1,6 a 2,6;False
3798216F0EF2473C410AB250B8A8BDA8;05B97387AEED31407972B5F6F39F7497;F;1980;2020-03-30;2020-04-07;Alta medica melhorado;8;2020-03-30;Unidades de Internacao;Magnesio;Magnesio;2.0;mg/dL;1,6 a 2,6;False
3798216F0EF2473C410AB250B8A8BDA8;05B97387AEED31407972B5F6F39F7497;F;1980;2020-03-30;2020-04-07;Alta medica melhorado;8;2020-03-31;Unidades de Internacao;Magnesio;Magnesio;2.5;mg/dL;1,6 a 2,6;False
38F80F4BB32A3E84A93FFCAEDAEF35DC;B24364B5D6AD2B1E6258553242250DDE;F;1972;2020-04-18;2020-04-27;Alta medica melhorado;9;2020-04-19;Unidades de Internacao;Magnesio;Magnesio;2.4;mg/dL;1,6 a 2,6;False
38F80F4BB32A3E84A93FFCAEDAEF35DC;B24364B5D6AD2B1E6258553242250DDE;F;1972;2020-04-18;2020-04-27;Alta medica melhorado;9;2020-04-21;Unidades de Internacao;Magnesio;Magnesio;2.3;mg/dL;1,6 a 2,6;False
41E7C9A85B7C9D3CF45C4720D695537D;897C76FB43550CF8CCD7BEF55DF66DE3;F;1979;2020-05-05;2020-05-13;Alta medica melhorado;8;2020-05-05;Unidades de Internacao;Magnesio;Magnesio;2.1;mg/dL;1,6 a 2,6;False
43585341FB560D7A74608A5F244ECCD2;B2C48F1E7CFF7E8DEFED07FE5777D510;F;1977;2020-06-04;2020-06-08;Alta Administrativa;4;2020-06-04;Endoscopia;Magnesio (Mg);Magnesio;2.2;mg/dL;1,6 a 2,6;False
4788A9E787220BA10B3FA7D3235E5ADE;68F875086E8E63C37FBA256CEC6C3A44;F;1978;2020-11-25;2020-12-01;Alta medica melhorado;6;2020-11-27;Unidades de Internacao;Magnesio;Magnesio;2.2;mg/dL;1,6 a 2,6;False
4788A9E787220BA10B3FA7D3235E5ADE;68F875086E8E63C37FBA256CEC6C3A44;F;1978;2020-11-25;2020-12-01;Alta medica melhorado;6;2020-11-26;Unidades de Internacao;Magnesio;Magnesio;2.3;mg/dL;1,6 a 2,6;False
487F2C032F4D20A4A75A3C2DF03F5E53;17985D9F9204E9BCE62EE14B2E94A31D;F;1981;2020-03-17;2020-03-19;Alta medica melhorado;2;2020-03-18;Unidades de Internacao;Magnesio;Magnesio;1.9;mg/dL;1,6 a 2,6;False
487F2C032F4D20A4A75A3C2DF03F5E53;17985D9F9204E9BCE62EE14B2E94A31D;F;1981;2020-03-17;2020-03-19;Alta medica melhorado;2;2020-03-17;Unidades de Internacao;Magnesio;Magnesio;2.0;mg/dL;1,6 a 2,6;False
4AF863B9C598125B9E27296C851AEFCB;05C9A48524A5441BFC8EDA4A7246A194;F;1974;2020-12-15;2020-12-24;Alta medica melhorado;9;2020-12-15;Unidades de Internacao;Magnesio;Magnesio;2.2;mg/dL;1,6 a 2,6;False
4AF863B9C598125B9E27296C851AEFCB;05C9A48524A5441BFC8EDA4A7246A194;F;1974;2020-12-15;2020-12-24;Alta medica melhorado;9;2020-12-15;Unidades de Internacao;Magnesio;Magnesio;2.4;mg/dL;1,6 a 2,6;False
4AF863B9C598125B9E27296C851AEFCB;8B951EB2B323A719768A8C425BD9FA15;F;1974;2020-06-30;2020-07-14;Alta medica melhorado;14;2020-07-03;UTI;Magnesio;Magnesio;2.3;mg/dL;1,6 a 2,6;False
4AF863B9C598125B9E27296C851AEFCB;8B951EB2B323A719768A8C425BD9FA15;F;1974;2020-06-30;2020-07-14;Alta medica melhorado;14;2020-07-04;UTI;Magnesio;Magnesio;2.2;mg/dL;1,6 a 2,6;False
4AF863B9C598125B9E27296C851AEFCB;8B951EB2B323A719768A8C425BD9FA15;F;1974;2020-06-30;2020-07-14;Alta medica melhorado;14;2020-06-30;Unidades de Internacao;Magnesio;Magnesio;2.3;mg/dL;1,6 a 2,6;False
4AF863B9C598125B9E27296C851AEFCB;8B951EB2B323A719768A8C425BD9FA15;F;1974;2020-06-30;2020-07-14;Alta medica melhorado;14;2020-07-05;Unidades de Internacao;Magnesio;Magnesio;2.3;mg/dL;1,6 a 2,6;False
4AF863B9C598125B9E27296C851AEFCB;8B951EB2B323A719768A8C425BD9FA15;F;1974;2020-06-30;2020-07-14;Alta medica melhorado;14;2020-07-05;Unidades de Internacao;Magnesio;Magnesio;2.3;mg/dL;1,6 a 2,6;False
4AF863B9C598125B9E27296C851AEFCB;C25F2EB303421BE906A7A8C679B21040;F;1974;2020-10-18;2020-10-22;Alta medica melhorado;4;2020-10-20;UTI;Magnesio;Magnesio;1.9;mg/dL;1,6 a 2,6;False
4AF863B9C598125B9E27296C851AEFCB;C25F2EB303421BE906A7A8C679B21040;F;1974;2020-10-18;2020-10-22;Alta medica melhorado;4;2020-10-18;UTI;Magnesio;Magnesio;1.9;mg/dL;1,6 a 2,6;False
4AF863B9C598125B9E27296C851AEFCB;C25F2EB303421BE906A7A8C679B21040;F;1974;2020-10-18;2020-10-22;Alta medica melhorado;4;2020-10-21;Unidades de Internacao;Magnesio;Magnesio;1.9;mg/dL;1,6 a 2,6;False
4B6AE3302D691767A6BF220E359125C7;A442041A66611B42B9E120360EF6B172;F;1982;2020-11-12;2020-12-27;Alta medica melhorado;45;2020-11-14;UTI;Magnesio;Magnesio;1.7;mg/dL;1,6 a 2,6;False
4B6AE3302D691767A6BF220E359125C7;A442041A66611B42B9E120360EF6B172;F;1982;2020-11-12;2020-12-27;Alta medica melhorado;45;2020-11-13;UTI;Magnesio;Magnesio;2.0;mg/dL;1,6 a 2,6;False
4B6AE3302D691767A6BF220E359125C7;A442041A66611B42B9E120360EF6B172;F;1982;2020-11-12;2020-12-27;Alta medica melhorado;45;2020-11-13;UTI;Magnesio;Magnesio;1.6;mg/dL;1,6 a 2,6;False
4B6AE3302D691767A6BF220E359125C7;A442041A66611B42B9E120360EF6B172;F;1982;2020-11-12;2020-12-27;Alta medica melhorado;45;2020-11-12;UTI;Magnesio;Magnesio;2.0;mg/dL;1,6 a 2,6;False
4B6AE3302D691767A6BF220E359125C7;A442041A66611B42B9E120360EF6B172;F;1982;2020-11-12;2020-12-27;Alta medica melhorado;45;2020-12-19;Unidades de Internacao;Magnesio;Magnesio;2.3;mg/dL;1,6 a 2,6;False
4B6AE3302D691767A6BF220E359125C7;A442041A66611B42B9E120360EF6B172;F;1982;2020-11-12;2020-12-27;Alta medica melhorado;45;2020-12-18;Unidades de Internacao;Magnesio;Magnesio;1.9;mg/dL;1,6 a 2,6;False
4B6AE3302D691767A6BF220E359125C7;A442041A66611B42B9E120360EF6B172;F;1982;2020-11-12;2020-12-27;Alta medica melhorado;45;2020-12-20;Unidades de Internacao;Magnesio;Magnesio;2.2;mg/dL;1,6 a 2,6;False
4B6AE3302D691767A6BF220E359125C7;A442041A66611B42B9E120360EF6B172;F;1982;2020-11-12;2020-12-27;Alta medica melhorado;45;2020-12-20;Unidades de Internacao;Magnesio;Magnesio;2.2;mg/dL;1,6 a 2,6;False
4B6AE3302D691767A6BF220E359125C7;A442041A66611B42B9E120360EF6B172;F;1982;2020-11-12;2020-12-27;Alta medica melhorado;45;2020-12-22;Unidades de Internacao;Magnesio;Magnesio;1.9;mg/dL;1,6 a 2,6;False
4B6AE3302D691767A6BF220E359125C7;A442041A66611B42B9E120360EF6B172;F;1982;2020-11-12;2020-12-27;Alta medica melhorado;45;2020-12-21;Unidades de Internacao;Magnesio;Magnesio;2.1;mg/dL;1,6 a 2,6;False
4B6AE3302D691767A6BF220E359125C7;A442041A66611B42B9E120360EF6B172;F;1982;2020-11-12;2020-12-27;Alta medica melhorado;45;2020-12-24;Unidades de Internacao;Magnesio;Magnesio;1.9;mg/dL;1,6 a 2,6;False
4B6AE3302D691767A6BF220E359125C7;A442041A66611B42B9E120360EF6B172;F;1982;2020-11-12;2020-12-27;Alta medica melhorado;45;2020-12-23;Unidades de Internacao;Magnesio;Magnesio;2.1;mg/dL;1,6 a 2,6;False
4B6AE3302D691767A6BF220E359125C7;A442041A66611B42B9E120360EF6B172;F;1982;2020-11-12;2020-12-27;Alta medica melhorado;45;2020-12-19;Unidades de Internacao;Magnesio;Magnesio;2.5;mg/dL;1,6 a 2,6;False
4B6AE3302D691767A6BF220E359125C7;A442041A66611B42B9E120360EF6B172;F;1982;2020-11-12;2020-12-27;Alta medica melhorado;45;2020-12-19;Unidades de Internacao;Magnesio;Magnesio;1.5;mg/dL;1,6 a 2,6;False
4B6AE3302D691767A6BF220E359125C7;A442041A66611B42B9E120360EF6B172;F;1982;2020-11-12;2020-12-27;Alta medica melhorado;45;2020-11-30;UTI;Magnesio;Magnesio;1.6;mg/dL;1,6 a 2,6;False
4B6AE3302D691767A6BF220E359125C7;A442041A66611B42B9E120360EF6B172;F;1982;2020-11-12;2020-12-27;Alta medica melhorado;45;2020-11-18;UTI;Magnesio;Magnesio;1.5;mg/dL;1,6 a 2,6;False
4B6AE3302D691767A6BF220E359125C7;A442041A66611B42B9E120360EF6B172;F;1982;2020-11-12;2020-12-27;Alta medica melhorado;45;2020-11-16;UTI;Magnesio;Magnesio;1.6;mg/dL;1,6 a 2,6;False
4B6AE3302D691767A6BF220E359125C7;A442041A66611B42B9E120360EF6B172;F;1982;2020-11-12;2020-12-27;Alta medica melhorado;45;2020-11-20;UTI;Magnesio;Magnesio;1.7;mg/dL;1,6 a 2,6;False
4B6AE3302D691767A6BF220E359125C7;A442041A66611B42B9E120360EF6B172;F;1982;2020-11-12;2020-12-27;Alta medica melhorado;45;2020-11-17;UTI;Magnesio;Magnesio;1.6;mg/dL;1,6 a 2,6;False
4B6AE3302D691767A6BF220E359125C7;A442041A66611B42B9E120360EF6B172;F;1982;2020-11-12;2020-12-27;Alta medica melhorado;45;2020-11-18;UTI;Magnesio;Magnesio;1.5;mg/dL;1,6 a 2,6;False
4B6AE3302D691767A6BF220E359125C7;A442041A66611B42B9E120360EF6B172;F;1982;2020-11-12;2020-12-27;Alta medica melhorado;45;2020-11-27;UTI;Magnesio;Magnesio;1.7;mg/dL;1,6 a 2,6;False
4B6AE3302D691767A6BF220E359125C7;A442041A66611B42B9E120360EF6B172;F;1982;2020-11-12;2020-12-27;Alta medica melhorado;45;2020-11-23;UTI;Magnesio;Magnesio;1.7;mg/dL;1,6 a 2,6;False
4B6AE3302D691767A6BF220E359125C7;A442041A66611B42B9E120360EF6B172;F;1982;2020-11-12;2020-12-27;Alta medica melhorado;45;2020-11-20;UTI;Magnesio;Magnesio;1.7;mg/dL;1,6 a 2,6;False
4B6AE3302D691767A6BF220E359125C7;A442041A66611B42B9E120360EF6B172;F;1982;2020-11-12;2020-12-27;Alta medica melhorado;45;2020-11-21;UTI;Magnesio;Magnesio;1.7;mg/dL;1,6 a 2,6;False
4B6AE3302D691767A6BF220E359125C7;A442041A66611B42B9E120360EF6B172;F;1982;2020-11-12;2020-12-27;Alta medica melhorado;45;2020-11-24;UTI;Magnesio;Magnesio;1.8;mg/dL;1,6 a 2,6;False
4B6AE3302D691767A6BF220E359125C7;A442041A66611B42B9E120360EF6B172;F;1982;2020-11-12;2020-12-27;Alta medica melhorado;45;2020-11-16;UTI;Magnesio;Magnesio;1.5;mg/dL;1,6 a 2,6;False
4B6AE3302D691767A6BF220E359125C7;A442041A66611B42B9E120360EF6B172;F;1982;2020-11-12;2020-12-27;Alta medica melhorado;45;2020-12-06;Unidades de Internacao;Magnesio;Magnesio;1.7;mg/dL;1,6 a 2,6;False
4B6AE3302D691767A6BF220E359125C7;A442041A66611B42B9E120360EF6B172;F;1982;2020-11-12;2020-12-27;Alta medica melhorado;45;2020-12-12;Unidades de Internacao;Magnesio;Magnesio;2.1;mg/dL;1,6 a 2,6;False
4B6AE3302D691767A6BF220E359125C7;A442041A66611B42B9E120360EF6B172;F;1982;2020-11-12;2020-12-27;Alta medica melhorado;45;2020-12-16;Unidades de Internacao;Magnesio;Magnesio;1.5;mg/dL;1,6 a 2,6;False
4B6AE3302D691767A6BF220E359125C7;A442041A66611B42B9E120360EF6B172;F;1982;2020-11-12;2020-12-27;Alta medica melhorado;45;2020-12-11;Unidades de Internacao;Magnesio;Magnesio;1.5;mg/dL;1,6 a 2,6;False
4B6AE3302D691767A6BF220E359125C7;A442041A66611B42B9E120360EF6B172;F;1982;2020-11-12;2020-12-27;Alta medica melhorado;45;2020-12-16;Unidades de Internacao;Magnesio;Magnesio;1.4;mg/dL;1,6 a 2,6;True
4B6AE3302D691767A6BF220E359125C7;A442041A66611B42B9E120360EF6B172;F;1982;2020-11-12;2020-12-27;Alta medica melhorado;45;2020-12-17;Unidades de Internacao;Magnesio;Magnesio;2.3;mg/dL;1,6 a 2,6;False
4B6AE3302D691767A6BF220E359125C7;A442041A66611B42B9E120360EF6B172;F;1982;2020-11-12;2020-12-27;Alta medica melhorado;45;2020-12-17;Unidades de Internacao;Magnesio;Magnesio;2.1;mg/dL;1,6 a 2,6;False
4B6AE3302D691767A6BF220E359125C7;A442041A66611B42B9E120360EF6B172;F;1982;2020-11-12;2020-12-27;Alta medica melhorado;45;2020-12-26;Unidades de Internacao;Magnesio;Magnesio;2.2;mg/dL;1,6 a 2,6;False
4E59A67C5ABF07F58BB26B0659A1BBF1;AA64BB39E28488009E7DF6A328214ECE;F;1973;2020-07-31;2020-08-02;Alta medica melhorado;2;2020-07-31;Unidades de Internacao;Magnesio;Magnesio;2.3;mg/dL;1,6 a 2,6;False
4E59A67C5ABF07F58BB26B0659A1BBF1;DEDE916B3B0055F63C686B8F4C7E8A72;F;1973;2020-08-04;2020-08-08;Alta medica melhorado;4;2020-08-04;Pronto Socorro;Magnesio;Magnesio;1.8;mg/dL;1,6 a 2,6;False
4E59A67C5ABF07F58BB26B0659A1BBF1;DEDE916B3B0055F63C686B8F4C7E8A72;F;1973;2020-08-04;2020-08-08;Alta medica melhorado;4;2020-08-04;Pronto Socorro;Magnesio;Magnesio;2.1;mg/dL;1,6 a 2,6;False
4F244F7924625D9E3F1871D393431A49;7CA834381ECE8D728BF787A8C00C4B2C;F;1972;2020-07-29;2020-08-06;Alta medica melhorado;8;2020-07-30;UTI;Magnesio;Magnesio;2.0;mg/dL;1,6 a 2,6;False
50905351E99B238C3A0DFC4C91ADAE44;36AF3AD2A4D8DE5C57189E9B892F5B32;F;1975;2020-06-09;2020-06-17;Alta medica melhorado;8;2020-06-13;Unidades de Internacao;Magnesio;Magnesio;2.0;mg/dL;1,6 a 2,6;False
50905351E99B238C3A0DFC4C91ADAE44;36AF3AD2A4D8DE5C57189E9B892F5B32;F;1975;2020-06-09;2020-06-17;Alta medica melhorado;8;2020-06-09;Unidades de Internacao;Magnesio;Magnesio;1.8;mg/dL;1,6 a 2,6;False
50905351E99B238C3A0DFC4C91ADAE44;36AF3AD2A4D8DE5C57189E9B892F5B32;F;1975;2020-06-09;2020-06-17;Alta medica melhorado;8;2020-06-12;Unidades de Internacao;Magnesio;Magnesio;2.1;mg/dL;1,6 a 2,6;False
50905351E99B238C3A0DFC4C91ADAE44;36AF3AD2A4D8DE5C57189E9B892F5B32;F;1975;2020-06-09;2020-06-17;Alta medica melhorado;8;2020-06-10;Unidades de Internacao;Magnesio;Magnesio;1.9;mg/dL;1,6 a 2,6;False
50DC2C5F8F5DF48907BDDB655AD10FFD;8E4FCADDC5939474289F4CE81D7F0B1F;F;1984;2020-05-06;2020-05-11;Alta medica melhorado;5;2020-05-06;UTI;Magnesio;Magnesio;2.2;mg/dL;1,6 a 2,6;False
5128C5C92AAC18D0533970579E2471AB;C22B43DEFC01E13F73C56280D62D1D3A;F;1994;2020-12-01;2020-12-06;Alta medica melhorado;5;2020-12-01;Unidades de Internacao;Magnesio;Magnesio;2.0;mg/dL;1,6 a 2,6;False
5243249F0904F2F0907DD5DF1CF4D1FD;9A5B161003844E2151CCDB5111D25FD5;F;1990;2020-08-26;2020-08-28;Alta medica melhorado;2;2020-08-27;Unidades de Internacao;Magnesio;Magnesio;1.6;mg/dL;1,6 a 2,6;False
5243249F0904F2F0907DD5DF1CF4D1FD;9A5B161003844E2151CCDB5111D25FD5;F;1990;2020-08-26;2020-08-28;Alta medica melhorado;2;2020-08-27;Unidades de Internacao;Magnesio;Magnesio;1.7;mg/dL;1,6 a 2,6;False
5243249F0904F2F0907DD5DF1CF4D1FD;9A5B161003844E2151CCDB5111D25FD5;F;1990;2020-08-26;2020-08-28;Alta medica melhorado;2;2020-08-26;Unidades de Internacao;Magnesio;Magnesio;1.7;mg/dL;1,6 a 2,6;False
594751EB63641DEC32C0F2F856A39471;E96CEC837FD000B1FD6D931567E99678;F;1986;2020-09-01;2020-09-05;Alta medica melhorado;4;2020-09-03;Unidades de Internacao;Magnesio;Magnesio;1.8;mg/dL;1,6 a 2,6;False
5978DBBF46D7DD6751E23A7376B41121;EDEB8A0C8EFE3B74ABDE19A3D6DF0B93;F;1984;2020-07-05;2020-07-10;Alta medica melhorado;5;2020-07-08;Unidades de Internacao;Magnesio;Magnesio;2.0;mg/dL;1,6 a 2,6;False
5A80D6253DEFE6E608426618C9083FD3;774B1B00C0E680A953D8C8452ECB05DD;F;1973;2020-08-28;2020-09-02;Alta Administrativa;5;2020-08-28;Ultrassonografia - Jardins;Magnesio (Mg);Magnesio;2.0;mg/dL;1,6 a 2,6;False
5D89DFAED540F456E58C8D3164CC2FF1;3C8C0C09D5F60C29B3DAA13398AE0FE4;F;1972;2020-03-20;2020-03-22;Alta medica melhorado;2;2020-03-20;Unidades de Internacao;Magnesio;Magnesio;2.0;mg/dL;1,6 a 2,6;False
5E27351D48A31CC5CB9443A5D0057E50;4866A06D55C9F19DFFEE3E7C6984DCAD;F;1973;2020-06-05;2020-06-08;Alta medica melhorado;3;2020-06-05;Pronto Socorro;Magnesio;Magnesio;2.1;mg/dL;1,6 a 2,6;False
5E27351D48A31CC5CB9443A5D0057E50;4866A06D55C9F19DFFEE3E7C6984DCAD;F;1973;2020-06-05;2020-06-08;Alta medica melhorado;3;2020-06-06;Unidades de Internacao;Magnesio;Magnesio;2.0;mg/dL;1,6 a 2,6;False
5F0A06133563054DCBB30C9FAA9ED7FA;8E098968D134692D3A0B618FF5930976;F;1977;2020-09-02;2020-09-07;Alta medica melhorado;5;2020-09-07;Unidades de Internacao;Magnesio;Magnesio;1.7;mg/dL;1,6 a 2,6;False
5F0A06133563054DCBB30C9FAA9ED7FA;8E098968D134692D3A0B618FF5930976;F;1977;2020-09-02;2020-09-07;Alta medica melhorado;5;2020-09-05;Unidades de Internacao;Magnesio;Magnesio;1.6;mg/dL;1,6 a 2,6;False
5F0A06133563054DCBB30C9FAA9ED7FA;8E098968D134692D3A0B618FF5930976;F;1977;2020-09-02;2020-09-07;Alta medica melhorado;5;2020-09-02;Unidades de Internacao;Magnesio;Magnesio;2.0;mg/dL;1,6 a 2,6;False
5FC6BDB0257BD9E15E46BDAC6D0E03D5;316FF2CAA61BF235351ECA5892C0D9E9;F;1975;2020-03-27;2020-03-31;Alta medica melhorado;4;2020-03-30;Unidades de Internacao;Magnesio;Magnesio;2.0;mg/dL;1,6 a 2,6;False
62A24660B86A0076514250925A452F96;076633A7CB77322FAEC077BD8E842238;F;1972;2020-12-13;2020-12-17;Alta Administrativa;4;2020-12-17;Centro de Oncologia;Magnesio;Magnesio;1.7;mg/dL;1,6 a 2,6;False
62A24660B86A0076514250925A452F96;8DFE6108778202D8B663E56F3DEE7EF4;F;1972;2020-08-20;2020-08-26;Alta Administrativa;6;2020-08-20;Centro de Oncologia;Magnesio;Magnesio;1.9;mg/dL;1,6 a 2,6;False
62A24660B86A0076514250925A452F96;AC2716CF4F5E03A3F1F981B809ED50F2;F;1972;2020-11-13;2020-11-18;Alta Administrativa;5;2020-11-13;Centro de Oncologia;Magnesio;Magnesio;1.7;mg/dL;1,6 a 2,6;False
62A24660B86A0076514250925A452F96;ADD3AA3183A74F55CEE183469DDE37C8;F;1972;2020-10-16;2020-10-21;Alta Administrativa;5;2020-10-16;Centro de Oncologia;Magnesio;Magnesio;1.8;mg/dL;1,6 a 2,6;False
62A24660B86A0076514250925A452F96;E830CE4E68B1D816A1458D79ABBF2A0C;F;1972;2020-07-02;2020-07-08;Alta Administrativa;6;2020-07-02;Centro de Oncologia;Magnesio;Magnesio;1.9;mg/dL;1,6 a 2,6;False
6661328011BCF13FF115EC40587F1F53;87D35C1A6CE2690B0066183E7C43618B;F;1996;2020-03-14;2020-03-16;Alta medica melhorado;2;2020-03-14;Unidades de Internacao;Magnesio;Magnesio;2.2;mg/dL;1,6 a 2,6;False
6661328011BCF13FF115EC40587F1F53;87D35C1A6CE2690B0066183E7C43618B;F;1996;2020-03-14;2020-03-16;Alta medica melhorado;2;2020-03-15;Unidades de Internacao;Magnesio;Magnesio;2.0;mg/dL;1,6 a 2,6;False
678511CDEFA4EA0F93DFE6E430B45BFB;ABBD1165BC2A1B94AD6BC5EC46E021FD;F;1979;2020-04-17;2020-04-20;Alta medica melhorado;3;2020-04-17;Pronto Socorro;Magnesio;Magnesio;1.6;mg/dL;1,6 a 2,6;False
6960A46A81F18DECDF6CC84FC6C568B8;9325143D465E0F78800C8FAAD9D8925F;F;1977;2020-06-16;2020-06-21;Alta medica melhorado;5;2020-06-17;Unidades de Internacao;Magnesio;Magnesio;2.1;mg/dL;1,6 a 2,6;False
6960A46A81F18DECDF6CC84FC6C568B8;A9D3AB9F0452400AFE7A5E2007E90AB4;F;1977;2020-07-24;2020-07-26;Alta medica melhorado;2;2020-07-24;Unidades de Internacao;Magnesio;Magnesio;1.8;mg/dL;1,6 a 2,6;False
6960A46A81F18DECDF6CC84FC6C568B8;A9D3AB9F0452400AFE7A5E2007E90AB4;F;1977;2020-07-24;2020-07-26;Alta medica melhorado;2;2020-07-25;Unidades de Internacao;Magnesio;Magnesio;1.8;mg/dL;1,6 a 2,6;False
6F0A6A0E0839924AD125035171DD456F;8868FDC3A0E8F33E56A81745A733E82B;F;1972;2020-04-08;2020-04-24;Alta medica melhorado;16;2020-04-08;Pronto Socorro;Magnesio;Magnesio;2.2;mg/dL;1,6 a 2,6;False
6F0A6A0E0839924AD125035171DD456F;8868FDC3A0E8F33E56A81745A733E82B;F;1972;2020-04-08;2020-04-24;Alta medica melhorado;16;2020-04-15;UTI;Magnesio;Magnesio;2.1;mg/dL;1,6 a 2,6;False
6F0A6A0E0839924AD125035171DD456F;8868FDC3A0E8F33E56A81745A733E82B;F;1972;2020-04-08;2020-04-24;Alta medica melhorado;16;2020-04-14;UTI;Magnesio;Magnesio;2.1;mg/dL;1,6 a 2,6;False
6F0A6A0E0839924AD125035171DD456F;8868FDC3A0E8F33E56A81745A733E82B;F;1972;2020-04-08;2020-04-24;Alta medica melhorado;16;2020-04-12;UTI;Magnesio;Magnesio;2.2;mg/dL;1,6 a 2,6;False
6F0A6A0E0839924AD125035171DD456F;8868FDC3A0E8F33E56A81745A733E82B;F;1972;2020-04-08;2020-04-24;Alta medica melhorado;16;2020-04-18;UTI;Magnesio;Magnesio;2.0;mg/dL;1,6 a 2,6;False
6F0A6A0E0839924AD125035171DD456F;8868FDC3A0E8F33E56A81745A733E82B;F;1972;2020-04-08;2020-04-24;Alta medica melhorado;16;2020-04-10;UTI;Magnesio;Magnesio;2.0;mg/dL;1,6 a 2,6;False
6F0A6A0E0839924AD125035171DD456F;8868FDC3A0E8F33E56A81745A733E82B;F;1972;2020-04-08;2020-04-24;Alta medica melhorado;16;2020-04-13;UTI;Magnesio;Magnesio;2.1;mg/dL;1,6 a 2,6;False
6F0A6A0E0839924AD125035171DD456F;8868FDC3A0E8F33E56A81745A733E82B;F;1972;2020-04-08;2020-04-24;Alta medica melhorado;16;2020-04-16;UTI;Magnesio;Magnesio;2.1;mg/dL;1,6 a 2,6;False
6F0A6A0E0839924AD125035171DD456F;8868FDC3A0E8F33E56A81745A733E82B;F;1972;2020-04-08;2020-04-24;Alta medica melhorado;16;2020-04-09;UTI;Magnesio;Magnesio;2.1;mg/dL;1,6 a 2,6;False
6F0A6A0E0839924AD125035171DD456F;8868FDC3A0E8F33E56A81745A733E82B;F;1972;2020-04-08;2020-04-24;Alta medica melhorado;16;2020-04-09;UTI;Magnesio;Magnesio;2.1;mg/dL;1,6 a 2,6;False
6F0A6A0E0839924AD125035171DD456F;8868FDC3A0E8F33E56A81745A733E82B;F;1972;2020-04-08;2020-04-24;Alta medica melhorado;16;2020-04-17;UTI;Magnesio;Magnesio;2.1;mg/dL;1,6 a 2,6;False
6F0A6A0E0839924AD125035171DD456F;8868FDC3A0E8F33E56A81745A733E82B;F;1972;2020-04-08;2020-04-24;Alta medica melhorado;16;2020-04-19;Unidades de Internacao;Magnesio;Magnesio;1.9;mg/dL;1,6 a 2,6;False
6F0A6A0E0839924AD125035171DD456F;8868FDC3A0E8F33E56A81745A733E82B;F;1972;2020-04-08;2020-04-24;Alta medica melhorado;16;2020-04-23;Unidades de Internacao;Magnesio;Magnesio;2.1;mg/dL;1,6 a 2,6;False
6F0A6A0E0839924AD125035171DD456F;8868FDC3A0E8F33E56A81745A733E82B;F;1972;2020-04-08;2020-04-24;Alta medica melhorado;16;2020-04-20;Unidades de Internacao;Magnesio;Magnesio;2.3;mg/dL;1,6 a 2,6;False
6F0A6A0E0839924AD125035171DD456F;F04D00577DEA08C3AE78E5E545DBE736;F;1972;2020-03-30;2020-04-05;Alta medica melhorado;6;2020-03-31;Unidades de Internacao;Magnesio;Magnesio;1.8;mg/dL;1,6 a 2,6;False
6F0A6A0E0839924AD125035171DD456F;F04D00577DEA08C3AE78E5E545DBE736;F;1972;2020-03-30;2020-04-05;Alta medica melhorado;6;2020-04-03;Unidades de Internacao;Magnesio;Magnesio;2.3;mg/dL;1,6 a 2,6;False
70CF6011E358D309D29147124AA84538;23480096D535C9D7465057C84A813708;F;1976;2020-07-02;2020-07-04;Alta Administrativa;2;2020-07-02;Pronto Socorro;Magnesio;Magnesio;2.2;mg/dL;1,6 a 2,6;False
74629F0D5B584E2F4BE91A81F7E6FC1C;E12722ACE662EA5692DE9439291869CC;F;1977;2020-04-04;2020-04-10;Alta medica melhorado;6;2020-04-09;Unidades de Internacao;Magnesio;Magnesio;2.7;mg/dL;1,6 a 2,6;True
74AA2F1BA494130551BF2C11229607A6;52FF6EF7CB744664F34F1E907FBC6C5C;F;1973;2020-05-19;2020-05-24;Alta medica melhorado;5;2020-05-19;Unidades de Internacao;Magnesio;Magnesio;2.3;mg/dL;1,6 a 2,6;False
769E89D426E84A4797EF495608A0429E;946A572422AD60861E06A145A5C0A3F8;F;1974;2020-05-05;2020-05-13;Alta medica melhorado;8;2020-05-05;UTI;Magnesio;Magnesio;2.3;mg/dL;1,6 a 2,6;False
769E89D426E84A4797EF495608A0429E;946A572422AD60861E06A145A5C0A3F8;F;1974;2020-05-05;2020-05-13;Alta medica melhorado;8;2020-05-05;UTI;Magnesio;Magnesio;2.2;mg/dL;1,6 a 2,6;False
769E89D426E84A4797EF495608A0429E;946A572422AD60861E06A145A5C0A3F8;F;1974;2020-05-05;2020-05-13;Alta medica melhorado;8;2020-05-10;Unidades de Internacao;Magnesio;Magnesio;2.2;mg/dL;1,6 a 2,6;False
769E89D426E84A4797EF495608A0429E;946A572422AD60861E06A145A5C0A3F8;F;1974;2020-05-05;2020-05-13;Alta medica melhorado;8;2020-05-09;UTI;Magnesio;Magnesio;2.3;mg/dL;1,6 a 2,6;False
769E89D426E84A4797EF495608A0429E;946A572422AD60861E06A145A5C0A3F8;F;1974;2020-05-05;2020-05-13;Alta medica melhorado;8;2020-05-06;UTI;Magnesio;Magnesio;2.2;mg/dL;1,6 a 2,6;False
7A083816C578B71EA4124743D3CB5148;99E756E28DC40D6D53D0B8A35CD92E2B;F;1972;2020-05-26;2020-06-05;Alta medica melhorado;10;2020-05-30;UTI;Magnesio;Magnesio;1.9;mg/dL;1,6 a 2,6;False
7A083816C578B71EA4124743D3CB5148;99E756E28DC40D6D53D0B8A35CD92E2B;F;1972;2020-05-26;2020-06-05;Alta medica melhorado;10;2020-05-26;UTI;Magnesio;Magnesio;1.9;mg/dL;1,6 a 2,6;False
7B4B5622119E554F2132513624E95BE8;EEAFC1C59CA688671FF6D3C63AE58BDD;F;1998;2020-11-07;2020-12-01;Alta medica melhorado;24;2020-11-08;UTI;Magnesio;Magnesio;2.1;mg/dL;1,6 a 2,6;False
7B4B5622119E554F2132513624E95BE8;EEAFC1C59CA688671FF6D3C63AE58BDD;F;1998;2020-11-07;2020-12-01;Alta medica melhorado;24;2020-11-07;UTI;Magnesio;Magnesio;2.0;mg/dL;1,6 a 2,6;False
7B4B5622119E554F2132513624E95BE8;EEAFC1C59CA688671FF6D3C63AE58BDD;F;1998;2020-11-07;2020-12-01;Alta medica melhorado;24;2020-11-22;UTI;Magnesio;Magnesio;1.8;mg/dL;1,6 a 2,6;False
7B4B5622119E554F2132513624E95BE8;EEAFC1C59CA688671FF6D3C63AE58BDD;F;1998;2020-11-07;2020-12-01;Alta medica melhorado;24;2020-11-12;UTI;Magnesio;Magnesio;2.0;mg/dL;1,6 a 2,6;False
7B4B5622119E554F2132513624E95BE8;EEAFC1C59CA688671FF6D3C63AE58BDD;F;1998;2020-11-07;2020-12-01;Alta medica melhorado;24;2020-11-10;UTI;Magnesio;Magnesio;2.0;mg/dL;1,6 a 2,6;False
7B4B5622119E554F2132513624E95BE8;EEAFC1C59CA688671FF6D3C63AE58BDD;F;1998;2020-11-07;2020-12-01;Alta medica melhorado;24;2020-11-19;UTI;Magnesio;Magnesio;1.9;mg/dL;1,6 a 2,6;False
7B4B5622119E554F2132513624E95BE8;EEAFC1C59CA688671FF6D3C63AE58BDD;F;1998;2020-11-07;2020-12-01;Alta medica melhorado;24;2020-11-13;UTI;Magnesio;Magnesio;2.0;mg/dL;1,6 a 2,6;False
7B4B5622119E554F2132513624E95BE8;EEAFC1C59CA688671FF6D3C63AE58BDD;F;1998;2020-11-07;2020-12-01;Alta medica melhorado;24;2020-11-11;UTI;Magnesio;Magnesio;2.0;mg/dL;1,6 a 2,6;False
7B4B5622119E554F2132513624E95BE8;EEAFC1C59CA688671FF6D3C63AE58BDD;F;1998;2020-11-07;2020-12-01;Alta medica melhorado;24;2020-11-14;UTI;Magnesio;Magnesio;1.8;mg/dL;1,6 a 2,6;False
7B4B5622119E554F2132513624E95BE8;EEAFC1C59CA688671FF6D3C63AE58BDD;F;1998;2020-11-07;2020-12-01;Alta medica melhorado;24;2020-11-09;UTI;Magnesio;Magnesio;2.0;mg/dL;1,6 a 2,6;False
7B4B5622119E554F2132513624E95BE8;EEAFC1C59CA688671FF6D3C63AE58BDD;F;1998;2020-11-07;2020-12-01;Alta medica melhorado;24;2020-11-18;UTI;Magnesio;Magnesio;1.9;mg/dL;1,6 a 2,6;False
7B4B5622119E554F2132513624E95BE8;EEAFC1C59CA688671FF6D3C63AE58BDD;F;1998;2020-11-07;2020-12-01;Alta medica melhorado;24;2020-11-16;UTI;Magnesio;Magnesio;2.0;mg/dL;1,6 a 2,6;False
7D45FE3D655E66784DD28970EF49ADCA;7793141BCED94173B5147740DFC1B505;F;1984;2020-04-26;2020-05-04;Alta medica melhorado;8;2020-05-03;Unidades de Internacao;Magnesio;Magnesio;2.0;mg/dL;1,6 a 2,6;False
8185CB8A9220B8FA06A33C5BB26C35AD;D76895D744B84D1885057347B40FDEC6;F;1996;2020-06-05;2020-06-22;Alta medica melhorado;17;2020-06-19;Unidades de Internacao;Magnesio;Magnesio;2.1;mg/dL;1,6 a 2,6;False
86ADA87DBB5FEF2539AB38CE5BCD0FAF;DFEB89613F4C9B845291421810971014;F;1979;2020-11-19;2020-11-22;Alta medica melhorado;3;2020-11-20;Unidades de Internacao;Magnesio;Magnesio;2.9;mg/dL;1,6 a 2,6;True
893EBDEA581022CFF9667B078860BF80;8E3675CABAD64EC8A852E5F5594E1DA8;F;1988;2020-12-03;2020-12-11;Alta medica melhorado;8;2020-12-03;Unidades de Internacao;Magnesio;Magnesio;2.1;mg/dL;1,6 a 2,6;False
8CE620E5450924DE04D041EB5DB33440;3A65048EEDF3CF14AFF3EABDA25107DB;F;1972;2020-12-07;2020-12-12;Alta medica melhorado;5;2020-12-07;Unidades de Internacao;Magnesio;Magnesio;2.1;mg/dL;1,6 a 2,6;False
8CE620E5450924DE04D041EB5DB33440;3A65048EEDF3CF14AFF3EABDA25107DB;F;1972;2020-12-07;2020-12-12;Alta medica melhorado;5;2020-12-07;Unidades de Internacao;Magnesio;Magnesio;2.0;mg/dL;1,6 a 2,6;False
8E2B59AD1D05B9B0E079AD0C1DDCB4BA;9B46499DE2DC948DAE26F8B94C1ED77C;F;2000;2020-07-08;2020-07-14;Alta medica melhorado;6;2020-07-10;Unidades de Internacao;Magnesio;Magnesio;1.8;mg/dL;1,7 a 2,2;False
8F3903E17E6278D42BBD37AD7BAD65DF;F6FF97A74415CE70D8E2AB065E9B28A5;F;1981;2020-04-23;2020-05-02;Alta medica melhorado;9;2020-04-24;Unidades de Internacao;Magnesio;Magnesio;2.1;mg/dL;1,6 a 2,6;False
94D3FC92C242927FC6F8C6CD290CF80F;8721945CA57A918A02BB8F5882885356;F;1979;2020-07-28;2020-07-31;Alta Administrativa;3;2020-07-28;Ultrassonografia;Magnesio (Mg);Magnesio;1.9;mg/dL;1,6 a 2,6;False
94EA8C175E677E793A9DF85A288E97B4;504A89E48D4797E217124612653715AC;F;1979;2020-04-15;2020-04-22;Alta medica melhorado;7;2020-04-16;Unidades de Internacao;Magnesio;Magnesio;2.1;mg/dL;1,6 a 2,6;False
94EA8C175E677E793A9DF85A288E97B4;504A89E48D4797E217124612653715AC;F;1979;2020-04-15;2020-04-22;Alta medica melhorado;7;2020-04-19;Unidades de Internacao;Magnesio;Magnesio;2.1;mg/dL;1,6 a 2,6;False
94EA8C175E677E793A9DF85A288E97B4;504A89E48D4797E217124612653715AC;F;1979;2020-04-15;2020-04-22;Alta medica melhorado;7;2020-04-20;Unidades de Internacao;Magnesio;Magnesio;2.3;mg/dL;1,6 a 2,6;False
94F5F7F06F2FA95E9E3C1F8E1F954779;A5281ED1393EF55009847C3FB2C28464;F;1992;2020-03-25;2020-04-01;Alta medica melhorado;7;2020-03-25;Unidades de Internacao;Magnesio;Magnesio;1.6;mg/dL;1,6 a 2,6;False
95A393F20999483EEB632E4029594FED;06FE5C9677CE34CFCD49677A29F5A797;F;1973;2020-07-14;2020-07-19;Alta medica melhorado;5;2020-07-15;Unidades de Internacao;Magnesio;Magnesio;2.0;mg/dL;1,6 a 2,6;False
95A393F20999483EEB632E4029594FED;E94A5C4FD5FCA7683E87F15646E8F6AE;F;1973;2020-06-23;2020-07-12;Alta medica melhorado;19;2020-07-09;Unidades de Internacao;Magnesio;Magnesio;2.3;mg/dL;1,6 a 2,6;False
95A393F20999483EEB632E4029594FED;E94A5C4FD5FCA7683E87F15646E8F6AE;F;1973;2020-06-23;2020-07-12;Alta medica melhorado;19;2020-06-30;Unidades de Internacao;Magnesio;Magnesio;1.9;mg/dL;1,6 a 2,6;False
95A393F20999483EEB632E4029594FED;E94A5C4FD5FCA7683E87F15646E8F6AE;F;1973;2020-06-23;2020-07-12;Alta medica melhorado;19;2020-06-27;Unidades de Internacao;Magnesio;Magnesio;1.9;mg/dL;1,6 a 2,6;False
95A393F20999483EEB632E4029594FED;E94A5C4FD5FCA7683E87F15646E8F6AE;F;1973;2020-06-23;2020-07-12;Alta medica melhorado;19;2020-07-03;Unidades de Internacao;Magnesio;Magnesio;2.2;mg/dL;1,6 a 2,6;False
95A393F20999483EEB632E4029594FED;E94A5C4FD5FCA7683E87F15646E8F6AE;F;1973;2020-06-23;2020-07-12;Alta medica melhorado;19;2020-06-24;UTI;Magnesio;Magnesio;2.1;mg/dL;1,6 a 2,6;False
95A393F20999483EEB632E4029594FED;E94A5C4FD5FCA7683E87F15646E8F6AE;F;1973;2020-06-23;2020-07-12;Alta medica melhorado;19;2020-06-25;UTI;Magnesio;Magnesio;2.0;mg/dL;1,6 a 2,6;False
982B19FF5A781C1236E410AE1E319DB4;39DBDA5B35E61EE0C25DAC7372BCA817;F;1988;2020-12-09;2020-12-15;Alta medica melhorado;6;2020-12-09;Unidades de Internacao;Magnesio;Magnesio;2.1;mg/dL;1,6 a 2,6;False
982B19FF5A781C1236E410AE1E319DB4;39DBDA5B35E61EE0C25DAC7372BCA817;F;1988;2020-12-09;2020-12-15;Alta medica melhorado;6;2020-12-13;Unidades de Internacao;Magnesio;Magnesio;2.0;mg/dL;1,6 a 2,6;False
9957DF51F26281A932EBB462C4E91DE6;6DA581252B37D0FCF0535389DE76439C;F;1979;2020-09-10;2020-09-12;Alta medica melhorado;2;2020-09-10;Unidades de Internacao;Magnesio;Magnesio;2.1;mg/dL;1,6 a 2,6;False
9957DF51F26281A932EBB462C4E91DE6;6DA581252B37D0FCF0535389DE76439C;F;1979;2020-09-10;2020-09-12;Alta medica melhorado;2;2020-09-11;Unidades de Internacao;Magnesio;Magnesio;1.8;mg/dL;1,6 a 2,6;False
9957DF51F26281A932EBB462C4E91DE6;C2EB0BAED49004B0E04C431AE68969DC;F;1979;2020-06-22;2020-06-25;Alta medica melhorado;3;2020-06-23;Unidades de Internacao;Magnesio;Magnesio;2.3;mg/dL;1,6 a 2,6;False
9957DF51F26281A932EBB462C4E91DE6;C2EB0BAED49004B0E04C431AE68969DC;F;1979;2020-06-22;2020-06-25;Alta medica melhorado;3;2020-06-24;Unidades de Internacao;Magnesio;Magnesio;2.2;mg/dL;1,6 a 2,6;False
A304C19FA63C6B15AAF92987FD6EB5D4;6973208B2670494202CEC08B965022EC;F;1990;2020-12-24;2020-12-28;Alta medica melhorado;4;2020-12-24;Unidades de Internacao;Magnesio;Magnesio;2.1;mg/dL;1,6 a 2,6;False
AAFCA9B5DA08F3A5A4042ECD77EA5948;ADC0F4899018163EACEE4E35136DD1E2;F;1990;2020-11-12;2020-12-18;Alta medica melhorado;36;2020-11-13;UTI;Magnesio;Magnesio;1.6;mg/dL;1,6 a 2,6;False
AAFCA9B5DA08F3A5A4042ECD77EA5948;ADC0F4899018163EACEE4E35136DD1E2;F;1990;2020-11-12;2020-12-18;Alta medica melhorado;36;2020-11-14;UTI;Magnesio;Magnesio;1.9;mg/dL;1,6 a 2,6;False
AAFCA9B5DA08F3A5A4042ECD77EA5948;ADC0F4899018163EACEE4E35136DD1E2;F;1990;2020-11-12;2020-12-18;Alta medica melhorado;36;2020-11-13;UTI;Magnesio;Magnesio;1.8;mg/dL;1,6 a 2,6;False
AAFCA9B5DA08F3A5A4042ECD77EA5948;ADC0F4899018163EACEE4E35136DD1E2;F;1990;2020-11-12;2020-12-18;Alta medica melhorado;36;2020-11-25;Unidades de Internacao;Magnesio;Magnesio;1.9;mg/dL;1,6 a 2,6;False
AAFCA9B5DA08F3A5A4042ECD77EA5948;ADC0F4899018163EACEE4E35136DD1E2;F;1990;2020-11-12;2020-12-18;Alta medica melhorado;36;2020-11-17;Unidades de Internacao;Magnesio;Magnesio;1.8;mg/dL;1,6 a 2,6;False
AAFCA9B5DA08F3A5A4042ECD77EA5948;ADC0F4899018163EACEE4E35136DD1E2;F;1990;2020-11-12;2020-12-18;Alta medica melhorado;36;2020-11-25;Unidades de Internacao;Magnesio;Magnesio;1.9;mg/dL;1,6 a 2,6;False
AAFCA9B5DA08F3A5A4042ECD77EA5948;ADC0F4899018163EACEE4E35136DD1E2;F;1990;2020-11-12;2020-12-18;Alta medica melhorado;36;2020-11-22;Unidades de Internacao;Magnesio;Magnesio;1.8;mg/dL;1,6 a 2,6;False
AAFCA9B5DA08F3A5A4042ECD77EA5948;ADC0F4899018163EACEE4E35136DD1E2;F;1990;2020-11-12;2020-12-18;Alta medica melhorado;36;2020-11-22;Unidades de Internacao;Magnesio;Magnesio;1.8;mg/dL;1,6 a 2,6;False
AAFCA9B5DA08F3A5A4042ECD77EA5948;ADC0F4899018163EACEE4E35136DD1E2;F;1990;2020-11-12;2020-12-18;Alta medica melhorado;36;2020-11-15;Unidades de Internacao;Magnesio;Magnesio;1.9;mg/dL;1,6 a 2,6;False
AAFCA9B5DA08F3A5A4042ECD77EA5948;ADC0F4899018163EACEE4E35136DD1E2;F;1990;2020-11-12;2020-12-18;Alta medica melhorado;36;2020-11-18;Unidades de Internacao;Magnesio;Magnesio;1.7;mg/dL;1,6 a 2,6;False
AAFCA9B5DA08F3A5A4042ECD77EA5948;ADC0F4899018163EACEE4E35136DD1E2;F;1990;2020-11-12;2020-12-18;Alta medica melhorado;36;2020-11-16;Unidades de Internacao;Magnesio;Magnesio;1.8;mg/dL;1,6 a 2,6;False
AAFCA9B5DA08F3A5A4042ECD77EA5948;ADC0F4899018163EACEE4E35136DD1E2;F;1990;2020-11-12;2020-12-18;Alta medica melhorado;36;2020-12-07;Unidades de Internacao;Magnesio;Magnesio;1.9;mg/dL;1,6 a 2,6;False
AAFCA9B5DA08F3A5A4042ECD77EA5948;ADC0F4899018163EACEE4E35136DD1E2;F;1990;2020-11-12;2020-12-18;Alta medica melhorado;36;2020-12-06;Unidades de Internacao;Magnesio;Magnesio;1.8;mg/dL;1,6 a 2,6;False
B51BA482F42B04497C7EDDA4C20BBCBA;6C77807A8743609381A6C034AC1731D6;F;1973;2020-10-16;2020-10-27;Alta medica melhorado;11;2020-10-21;Unidades de Internacao;Magnesio;Magnesio;2.1;mg/dL;1,6 a 2,6;False
B63DA2E7EA3F8C6A33CBE86AB6042416;C589E76A0ECC6B4E671D620D1E2BECC4;F;1994;2020-09-27;2020-10-02;Alta medica melhorado;5;2020-09-28;Unidades de Internacao;Magnesio;Magnesio;2.2;mg/dL;1,6 a 2,6;False
BFA88DBDA5AD8016C16A132D197A552C;A02658A5B5D16080512977EC49674D6E;F;1982;2020-11-01;2020-11-08;Alta medica melhorado;7;2020-11-03;Unidades de Internacao;Magnesio;Magnesio;2.2;mg/dL;1,6 a 2,6;False
C0272E57333DC17CB3CFC64848A52E57;062C3BABEAAC1C01724028A8AFFD6C4D;F;2000;2020-04-25;2020-05-03;Alta medica melhorado;8;2020-04-26;Unidades de Internacao;Magnesio;Magnesio;1.7;mg/dL;1,6 a 2,6;False
C1039670D799AE6DED9888D9DD8B5E9F;96D28E9AB7509C706E915E3AB5FE3529;F;1985;2020-06-23;2020-06-29;Alta medica melhorado;6;2020-06-23;UTI;Magnesio;Magnesio;2.2;mg/dL;1,6 a 2,6;False
C15B6D7CC883AA5ECB17DE5A3A689D9A;2AAE26377A78DC515F1652CB013E904D;F;1975;2020-12-20;2020-12-22;Alta Administrativa;2;2020-12-21;Oncologia Clinica - Brasilia II;Magnesio (Mg);Magnesio;1.6;mg/dL;1,6 a 2,6;False
C15B6D7CC883AA5ECB17DE5A3A689D9A;529EF9CC6477BFC62F7261EE20BF91BE;F;1975;2020-10-16;2020-10-23;Alta medica melhorado;7;2020-10-16;Pronto Socorro;Magnesio;Magnesio;2.0;mg/dL;1,6 a 2,6;False
C15B6D7CC883AA5ECB17DE5A3A689D9A;529EF9CC6477BFC62F7261EE20BF91BE;F;1975;2020-10-16;2020-10-23;Alta medica melhorado;7;2020-10-16;UTI;Magnesio;Magnesio;2.0;mg/dL;1,6 a 2,6;False
C15B6D7CC883AA5ECB17DE5A3A689D9A;529EF9CC6477BFC62F7261EE20BF91BE;F;1975;2020-10-16;2020-10-23;Alta medica melhorado;7;2020-10-17;UTI;Magnesio;Magnesio;1.9;mg/dL;1,6 a 2,6;False
C15B6D7CC883AA5ECB17DE5A3A689D9A;529EF9CC6477BFC62F7261EE20BF91BE;F;1975;2020-10-16;2020-10-23;Alta medica melhorado;7;2020-10-20;Unidades de Internacao;Magnesio;Magnesio;2.3;mg/dL;1,6 a 2,6;False
C15B6D7CC883AA5ECB17DE5A3A689D9A;529EF9CC6477BFC62F7261EE20BF91BE;F;1975;2020-10-16;2020-10-23;Alta medica melhorado;7;2020-10-18;Unidades de Internacao;Magnesio;Magnesio;2.0;mg/dL;1,6 a 2,6;False
C15B6D7CC883AA5ECB17DE5A3A689D9A;529EF9CC6477BFC62F7261EE20BF91BE;F;1975;2020-10-16;2020-10-23;Alta medica melhorado;7;2020-10-21;Unidades de Internacao;Magnesio;Magnesio;2.4;mg/dL;1,6 a 2,6;False
C15B6D7CC883AA5ECB17DE5A3A689D9A;529EF9CC6477BFC62F7261EE20BF91BE;F;1975;2020-10-16;2020-10-23;Alta medica melhorado;7;2020-10-19;Unidades de Internacao;Magnesio;Magnesio;2.2;mg/dL;1,6 a 2,6;False
C15B6D7CC883AA5ECB17DE5A3A689D9A;529EF9CC6477BFC62F7261EE20BF91BE;F;1975;2020-10-16;2020-10-23;Alta medica melhorado;7;2020-10-22;Unidades de Internacao;Magnesio;Magnesio;2.2;mg/dL;1,6 a 2,6;False
C15B6D7CC883AA5ECB17DE5A3A689D9A;CCCE51BD88DA2A114E51CB744C47E398;F;1975;2020-11-06;2020-11-13;Alta medica melhorado;7;2020-11-11;Unidades de Internacao;Magnesio;Magnesio;2.1;mg/dL;1,6 a 2,6;False
C15B6D7CC883AA5ECB17DE5A3A689D9A;CCCE51BD88DA2A114E51CB744C47E398;F;1975;2020-11-06;2020-11-13;Alta medica melhorado;7;2020-11-06;Unidades de Internacao;Magnesio;Magnesio;2.0;mg/dL;1,6 a 2,6;False
C15B6D7CC883AA5ECB17DE5A3A689D9A;CCCE51BD88DA2A114E51CB744C47E398;F;1975;2020-11-06;2020-11-13;Alta medica melhorado;7;2020-11-09;Unidades de Internacao;Magnesio;Magnesio;2.1;mg/dL;1,6 a 2,6;False
C15B6D7CC883AA5ECB17DE5A3A689D9A;CCCE51BD88DA2A114E51CB744C47E398;F;1975;2020-11-06;2020-11-13;Alta medica melhorado;7;2020-11-12;Unidades de Internacao;Magnesio;Magnesio;2.1;mg/dL;1,6 a 2,6;False
C15B6D7CC883AA5ECB17DE5A3A689D9A;CCCE51BD88DA2A114E51CB744C47E398;F;1975;2020-11-06;2020-11-13;Alta medica melhorado;7;2020-11-10;Unidades de Internacao;Magnesio;Magnesio;2.0;mg/dL;1,6 a 2,6;False
C15B6D7CC883AA5ECB17DE5A3A689D9A;CCCE51BD88DA2A114E51CB744C47E398;F;1975;2020-11-06;2020-11-13;Alta medica melhorado;7;2020-11-07;Unidades de Internacao;Magnesio;Magnesio;2.0;mg/dL;1,6 a 2,6;False
C15B6D7CC883AA5ECB17DE5A3A689D9A;CCCE51BD88DA2A114E51CB744C47E398;F;1975;2020-11-06;2020-11-13;Alta medica melhorado;7;2020-11-08;Unidades de Internacao;Magnesio;Magnesio;2.1;mg/dL;1,6 a 2,6;False
C86CCF6F0BFF127E65018A8E330E2340;86F1078F4E6944804F4341BC359CD2CF;F;1976;2020-06-02;2020-06-09;Alta medica melhorado;7;2020-06-06;UTI;Magnesio;Magnesio;1.9;mg/dL;1,6 a 2,6;False
C86CCF6F0BFF127E65018A8E330E2340;86F1078F4E6944804F4341BC359CD2CF;F;1976;2020-06-02;2020-06-09;Alta medica melhorado;7;2020-06-02;UTI;Magnesio;Magnesio;1.9;mg/dL;1,6 a 2,6;False
CD07A2F21C8C6B9649AD638AB8E30EA6;B90DD12C3717072A8042AF367D899668;F;1973;2020-04-23;2020-05-02;Alta medica curado;9;2020-05-01;Unidades de Internacao;Magnesio;Magnesio;2.1;mg/dL;1,6 a 2,6;False
CDE81A165156B137E26EF8958E5CEAA1;D43F438873B5FDBFD41084A8AD562283;F;1987;2020-09-15;2020-09-20;Alta medica melhorado;5;2020-09-18;Unidades de Internacao;Magnesio;Magnesio;1.9;mg/dL;1,6 a 2,6;False
CDE81A165156B137E26EF8958E5CEAA1;D43F438873B5FDBFD41084A8AD562283;F;1987;2020-09-15;2020-09-20;Alta medica melhorado;5;2020-09-16;Unidades de Internacao;Magnesio;Magnesio;1.8;mg/dL;1,6 a 2,6;False
CF58DD8870CB8AD13D5889B62F19C79A;3B4305D7FBBAAB6B75C9B9BF5A9D99D0;F;1984;2020-04-03;2020-04-12;Alta medica melhorado;9;2020-04-07;Unidades de Internacao;Magnesio;Magnesio;2.0;mg/dL;1,6 a 2,6;False
D0C85DCA4A73D3299DBC6ADC46C6118D;34708D2132FBA524F137CD4A341AF9ED;F;1976;2020-04-16;2020-04-22;Alta medica melhorado;6;2020-04-17;Unidades de Internacao;Magnesio;Magnesio;2.2;mg/dL;1,6 a 2,6;False
D0CE703784E9C40CCECDF98D4C43AEA8;FD2D3605FAEB2F444906AD09B4D3CC97;F;1975;2020-12-04;2020-12-06;Alta medica melhorado;2;2020-12-06;Unidades de Internacao;Magnesio;Magnesio;2.1;mg/dL;1,6 a 2,6;False
D0CE703784E9C40CCECDF98D4C43AEA8;FD2D3605FAEB2F444906AD09B4D3CC97;F;1975;2020-12-04;2020-12-06;Alta medica melhorado;2;2020-12-04;Unidades de Internacao;Magnesio;Magnesio;1.9;mg/dL;1,6 a 2,6;False
D26DF56D570571922CB87FDA33FB42C3;FB7791F5C9349F498192252D34F933B1;F;1997;2020-05-21;2020-05-26;Alta medica melhorado;5;2020-05-23;Unidades de Internacao;Magnesio;Magnesio;1.8;mg/dL;1,6 a 2,6;False
D4910738D545CE22821F7B0450EF759A;83BA799285B242A837AB5DF9ED1547E3;F;1974;2020-05-09;2020-05-13;Alta medica melhorado;4;2020-05-10;Unidades de Internacao;Magnesio;Magnesio;1.8;mg/dL;1,6 a 2,6;False
D9791745DB75DE0CFDC580F83B523896;7F77255A7C1DDC67FA9B028A0EAC9CD0;F;1973;2020-08-21;2020-08-24;Alta medica melhorado;3;2020-08-21;Unidades de Internacao;Magnesio;Magnesio;1.9;mg/dL;1,6 a 2,6;False
D9791745DB75DE0CFDC580F83B523896;7F77255A7C1DDC67FA9B028A0EAC9CD0;F;1973;2020-08-21;2020-08-24;Alta medica melhorado;3;2020-08-22;Unidades de Internacao;Magnesio;Magnesio;2.0;mg/dL;1,6 a 2,6;False
DFFF5480393EE20C50F8C673C0DEA1F7;25FF4C8279364594DDBC15CA0D4F8D79;F;1979;2020-10-01;2020-10-05;Alta medica melhorado;4;2020-10-01;UTI;Magnesio;Magnesio;2.0;mg/dL;1,6 a 2,6;False
EB802A3962E1EB6F149A1CDB14C84E79;FDFE3BAF01F35B3D8179FDC2B586FEB4;F;1981;2020-11-12;2020-11-19;Alta medica melhorado;7;2020-11-15;Unidades de Internacao;Magnesio;Magnesio;2.3;mg/dL;1,6 a 2,6;False
EB802A3962E1EB6F149A1CDB14C84E79;FDFE3BAF01F35B3D8179FDC2B586FEB4;F;1981;2020-11-12;2020-11-19;Alta medica melhorado;7;2020-11-13;Unidades de Internacao;Magnesio;Magnesio;2.1;mg/dL;1,6 a 2,6;False
EE56049FBA79414DADDD5510BC459F87;3639B5912FC76B1774A0C3700252A034;F;1980;2020-03-16;2020-03-25;Alta medica melhorado;9;2020-03-17;UTI;Magnesio;Magnesio;1.9;mg/dL;1,6 a 2,6;False
EE56049FBA79414DADDD5510BC459F87;3639B5912FC76B1774A0C3700252A034;F;1980;2020-03-16;2020-03-25;Alta medica melhorado;9;2020-03-18;UTI;Magnesio;Magnesio;1.9;mg/dL;1,6 a 2,6;False
EE56049FBA79414DADDD5510BC459F87;3639B5912FC76B1774A0C3700252A034;F;1980;2020-03-16;2020-03-25;Alta medica melhorado;9;2020-03-24;Unidades de Internacao;Magnesio;Magnesio;2.2;mg/dL;1,6 a 2,6;False
EF50D8DA83805F7F280D9C5C08114264;5DFA5E70E9011A54D638701116B54F40;F;1972;2020-08-04;2020-08-08;Alta medica melhorado;4;2020-08-06;Unidades de Internacao;Magnesio;Magnesio;2.1;mg/dL;1,6 a 2,6;False
F169F033D7CDB4E9580A900440753616;53BE814085C607CD11A729CCDD23C252;F;1972;2020-04-17;2020-06-20;Alta medica melhorado;64;2020-05-19;UTI;Magnesio;Magnesio;2.3;mg/dL;1,6 a 2,6;False
F169F033D7CDB4E9580A900440753616;53BE814085C607CD11A729CCDD23C252;F;1972;2020-04-17;2020-06-20;Alta medica melhorado;64;2020-05-18;UTI;Magnesio;Magnesio;2.0;mg/dL;1,6 a 2,6;False
F169F033D7CDB4E9580A900440753616;53BE814085C607CD11A729CCDD23C252;F;1972;2020-04-17;2020-06-20;Alta medica melhorado;64;2020-05-18;UTI;Magnesio;Magnesio;1.9;mg/dL;1,6 a 2,6;False
F169F033D7CDB4E9580A900440753616;53BE814085C607CD11A729CCDD23C252;F;1972;2020-04-17;2020-06-20;Alta medica melhorado;64;2020-05-17;UTI;Magnesio;Magnesio;1.5;mg/dL;1,6 a 2,6;False
F169F033D7CDB4E9580A900440753616;53BE814085C607CD11A729CCDD23C252;F;1972;2020-04-17;2020-06-20;Alta medica melhorado;64;2020-04-29;UTI;Magnesio;Magnesio;2.1;mg/dL;1,6 a 2,6;False
F169F033D7CDB4E9580A900440753616;53BE814085C607CD11A729CCDD23C252;F;1972;2020-04-17;2020-06-20;Alta medica melhorado;64;2020-04-27;UTI;Magnesio;Magnesio;2.4;mg/dL;1,6 a 2,6;False
F169F033D7CDB4E9580A900440753616;53BE814085C607CD11A729CCDD23C252;F;1972;2020-04-17;2020-06-20;Alta medica melhorado;64;2020-04-28;UTI;Magnesio;Magnesio;2.2;mg/dL;1,6 a 2,6;False
F169F033D7CDB4E9580A900440753616;53BE814085C607CD11A729CCDD23C252;F;1972;2020-04-17;2020-06-20;Alta medica melhorado;64;2020-05-09;UTI;Magnesio;Magnesio;2.2;mg/dL;1,6 a 2,6;False
F169F033D7CDB4E9580A900440753616;53BE814085C607CD11A729CCDD23C252;F;1972;2020-04-17;2020-06-20;Alta medica melhorado;64;2020-04-19;UTI;Magnesio;Magnesio;2.6;mg/dL;1,6 a 2,6;False
F169F033D7CDB4E9580A900440753616;53BE814085C607CD11A729CCDD23C252;F;1972;2020-04-17;2020-06-20;Alta medica melhorado;64;2020-05-24;UTI;Magnesio;Magnesio;1.7;mg/dL;1,6 a 2,6;False
F169F033D7CDB4E9580A900440753616;53BE814085C607CD11A729CCDD23C252;F;1972;2020-04-17;2020-06-20;Alta medica melhorado;64;2020-04-17;UTI;Magnesio;Magnesio;2.3;mg/dL;1,6 a 2,6;False
F169F033D7CDB4E9580A900440753616;53BE814085C607CD11A729CCDD23C252;F;1972;2020-04-17;2020-06-20;Alta medica melhorado;64;2020-05-20;UTI;Magnesio;Magnesio;1.7;mg/dL;1,6 a 2,6;False
F169F033D7CDB4E9580A900440753616;53BE814085C607CD11A729CCDD23C252;F;1972;2020-04-17;2020-06-20;Alta medica melhorado;64;2020-04-18;UTI;Magnesio;Magnesio;2.3;mg/dL;1,6 a 2,6;False
F169F033D7CDB4E9580A900440753616;53BE814085C607CD11A729CCDD23C252;F;1972;2020-04-17;2020-06-20;Alta medica melhorado;64;2020-04-27;UTI;Magnesio;Magnesio;2.2;mg/dL;1,6 a 2,6;False
F169F033D7CDB4E9580A900440753616;53BE814085C607CD11A729CCDD23C252;F;1972;2020-04-17;2020-06-20;Alta medica melhorado;64;2020-05-21;UTI;Magnesio;Magnesio;1.7;mg/dL;1,6 a 2,6;False
F169F033D7CDB4E9580A900440753616;53BE814085C607CD11A729CCDD23C252;F;1972;2020-04-17;2020-06-20;Alta medica melhorado;64;2020-05-11;UTI;Magnesio;Magnesio;2.0;mg/dL;1,6 a 2,6;False
F169F033D7CDB4E9580A900440753616;53BE814085C607CD11A729CCDD23C252;F;1972;2020-04-17;2020-06-20;Alta medica melhorado;64;2020-05-03;UTI;Magnesio;Magnesio;2.0;mg/dL;1,6 a 2,6;False
F169F033D7CDB4E9580A900440753616;53BE814085C607CD11A729CCDD23C252;F;1972;2020-04-17;2020-06-20;Alta medica melhorado;64;2020-05-02;UTI;Magnesio;Magnesio;2.0;mg/dL;1,6 a 2,6;False
F169F033D7CDB4E9580A900440753616;53BE814085C607CD11A729CCDD23C252;F;1972;2020-04-17;2020-06-20;Alta medica melhorado;64;2020-05-10;UTI;Magnesio;Magnesio;2.2;mg/dL;1,6 a 2,6;False
F169F033D7CDB4E9580A900440753616;53BE814085C607CD11A729CCDD23C252;F;1972;2020-04-17;2020-06-20;Alta medica melhorado;64;2020-05-01;UTI;Magnesio;Magnesio;2.0;mg/dL;1,6 a 2,6;False
F169F033D7CDB4E9580A900440753616;53BE814085C607CD11A729CCDD23C252;F;1972;2020-04-17;2020-06-20;Alta medica melhorado;64;2020-05-22;UTI;Magnesio;Magnesio;1.9;mg/dL;1,6 a 2,6;False
F169F033D7CDB4E9580A900440753616;53BE814085C607CD11A729CCDD23C252;F;1972;2020-04-17;2020-06-20;Alta medica melhorado;64;2020-04-30;UTI;Magnesio;Magnesio;2.1;mg/dL;1,6 a 2,6;False
F169F033D7CDB4E9580A900440753616;53BE814085C607CD11A729CCDD23C252;F;1972;2020-04-17;2020-06-20;Alta medica melhorado;64;2020-05-12;UTI;Magnesio;Magnesio;2.2;mg/dL;1,6 a 2,6;False
F169F033D7CDB4E9580A900440753616;53BE814085C607CD11A729CCDD23C252;F;1972;2020-04-17;2020-06-20;Alta medica melhorado;64;2020-05-23;UTI;Magnesio;Magnesio;1.8;mg/dL;1,6 a 2,6;False
F169F033D7CDB4E9580A900440753616;53BE814085C607CD11A729CCDD23C252;F;1972;2020-04-17;2020-06-20;Alta medica melhorado;64;2020-04-21;UTI;Magnesio;Magnesio;2.7;mg/dL;1,6 a 2,6;True
F169F033D7CDB4E9580A900440753616;53BE814085C607CD11A729CCDD23C252;F;1972;2020-04-17;2020-06-20;Alta medica melhorado;64;2020-05-04;UTI;Magnesio;Magnesio;2.2;mg/dL;1,6 a 2,6;False
F169F033D7CDB4E9580A900440753616;53BE814085C607CD11A729CCDD23C252;F;1972;2020-04-17;2020-06-20;Alta medica melhorado;64;2020-05-14;UTI;Magnesio;Magnesio;1.9;mg/dL;1,6 a 2,6;False
F169F033D7CDB4E9580A900440753616;53BE814085C607CD11A729CCDD23C252;F;1972;2020-04-17;2020-06-20;Alta medica melhorado;64;2020-04-22;UTI;Magnesio;Magnesio;2.9;mg/dL;1,6 a 2,6;True
F169F033D7CDB4E9580A900440753616;53BE814085C607CD11A729CCDD23C252;F;1972;2020-04-17;2020-06-20;Alta medica melhorado;64;2020-04-20;UTI;Magnesio;Magnesio;3.0;mg/dL;1,6 a 2,6;True
F169F033D7CDB4E9580A900440753616;53BE814085C607CD11A729CCDD23C252;F;1972;2020-04-17;2020-06-20;Alta medica melhorado;64;2020-05-13;UTI;Magnesio;Magnesio;2.1;mg/dL;1,6 a 2,6;False
F169F033D7CDB4E9580A900440753616;53BE814085C607CD11A729CCDD23C252;F;1972;2020-04-17;2020-06-20;Alta medica melhorado;64;2020-05-07;UTI;Magnesio;Magnesio;2.3;mg/dL;1,6 a 2,6;False
F169F033D7CDB4E9580A900440753616;53BE814085C607CD11A729CCDD23C252;F;1972;2020-04-17;2020-06-20;Alta medica melhorado;64;2020-05-05;UTI;Magnesio;Magnesio;2.4;mg/dL;1,6 a 2,6;False
F169F033D7CDB4E9580A900440753616;53BE814085C607CD11A729CCDD23C252;F;1972;2020-04-17;2020-06-20;Alta medica melhorado;64;2020-05-15;UTI;Magnesio;Magnesio;1.9;mg/dL;1,6 a 2,6;False
F169F033D7CDB4E9580A900440753616;53BE814085C607CD11A729CCDD23C252;F;1972;2020-04-17;2020-06-20;Alta medica melhorado;64;2020-04-24;UTI;Magnesio;Magnesio;2.1;mg/dL;1,6 a 2,6;False
F169F033D7CDB4E9580A900440753616;53BE814085C607CD11A729CCDD23C252;F;1972;2020-04-17;2020-06-20;Alta medica melhorado;64;2020-05-08;UTI;Magnesio;Magnesio;2.2;mg/dL;1,6 a 2,6;False
F169F033D7CDB4E9580A900440753616;53BE814085C607CD11A729CCDD23C252;F;1972;2020-04-17;2020-06-20;Alta medica melhorado;64;2020-05-06;UTI;Magnesio;Magnesio;2.3;mg/dL;1,6 a 2,6;False
F169F033D7CDB4E9580A900440753616;53BE814085C607CD11A729CCDD23C252;F;1972;2020-04-17;2020-06-20;Alta medica melhorado;64;2020-05-19;UTI;Magnesio;Magnesio;2.1;mg/dL;1,6 a 2,6;False
F169F033D7CDB4E9580A900440753616;53BE814085C607CD11A729CCDD23C252;F;1972;2020-04-17;2020-06-20;Alta medica melhorado;64;2020-05-15;UTI;Magnesio;Magnesio;2.2;mg/dL;1,6 a 2,6;False
F169F033D7CDB4E9580A900440753616;53BE814085C607CD11A729CCDD23C252;F;1972;2020-04-17;2020-06-20;Alta medica melhorado;64;2020-04-23;UTI;Magnesio;Magnesio;2.7;mg/dL;1,6 a 2,6;True
F169F033D7CDB4E9580A900440753616;53BE814085C607CD11A729CCDD23C252;F;1972;2020-04-17;2020-06-20;Alta medica melhorado;64;2020-06-16;Unidades de Internacao;Magnesio;Magnesio;1.8;mg/dL;1,6 a 2,6;False
F169F033D7CDB4E9580A900440753616;53BE814085C607CD11A729CCDD23C252;F;1972;2020-04-17;2020-06-20;Alta medica melhorado;64;2020-06-12;Unidades de Internacao;Magnesio;Magnesio;1.8;mg/dL;1,6 a 2,6;False
F169F033D7CDB4E9580A900440753616;53BE814085C607CD11A729CCDD23C252;F;1972;2020-04-17;2020-06-20;Alta medica melhorado;64;2020-06-04;Unidades de Internacao;Magnesio;Magnesio;1.9;mg/dL;1,6 a 2,6;False
F169F033D7CDB4E9580A900440753616;53BE814085C607CD11A729CCDD23C252;F;1972;2020-04-17;2020-06-20;Alta medica melhorado;64;2020-06-14;Unidades de Internacao;Magnesio;Magnesio;1.7;mg/dL;1,6 a 2,6;False
F169F033D7CDB4E9580A900440753616;53BE814085C607CD11A729CCDD23C252;F;1972;2020-04-17;2020-06-20;Alta medica melhorado;64;2020-05-31;UTI;Magnesio;Magnesio;1.7;mg/dL;1,6 a 2,6;False
F169F033D7CDB4E9580A900440753616;53BE814085C607CD11A729CCDD23C252;F;1972;2020-04-17;2020-06-20;Alta medica melhorado;64;2020-05-25;UTI;Magnesio;Magnesio;1.8;mg/dL;1,6 a 2,6;False
F169F033D7CDB4E9580A900440753616;53BE814085C607CD11A729CCDD23C252;F;1972;2020-04-17;2020-06-20;Alta medica melhorado;64;2020-05-25;UTI;Magnesio;Magnesio;2.2;mg/dL;1,6 a 2,6;False
F169F033D7CDB4E9580A900440753616;53BE814085C607CD11A729CCDD23C252;F;1972;2020-04-17;2020-06-20;Alta medica melhorado;64;2020-05-27;UTI;Magnesio;Magnesio;1.7;mg/dL;1,6 a 2,6;False
F8071E1636B5D74EE4EB59F4D78C3BB3;0811317D654B0813317381022001D3BF;F;1983;2020-10-13;2020-10-16;Alta medica melhorado;3;2020-10-14;UTI;Magnesio;Magnesio;2.1;mg/dL;1,6 a 2,6;False
F8071E1636B5D74EE4EB59F4D78C3BB3;0811317D654B0813317381022001D3BF;F;1983;2020-10-13;2020-10-16;Alta medica melhorado;3;2020-10-13;UTI;Magnesio;Magnesio;1.9;mg/dL;1,6 a 2,6;False
F8071E1636B5D74EE4EB59F4D78C3BB3;0811317D654B0813317381022001D3BF;F;1983;2020-10-13;2020-10-16;Alta medica melhorado;3;2020-10-13;UTI;Magnesio;Magnesio;2.0;mg/dL;1,6 a 2,6;False
F8071E1636B5D74EE4EB59F4D78C3BB3;B2663772F49BBE62023DE66302EAC972;F;1983;2020-09-24;2020-09-27;Alta medica melhorado;3;2020-09-26;Unidades de Internacao;Magnesio;Magnesio;1.8;mg/dL;1,6 a 2,6;False
FAEF4ECD6AC31E53AD7AA2D8871F58C1;01EEAE5726A229E44EA9AC9A7D47358E;F;1974;2020-09-16;2020-09-23;Alta medica melhorado;7;2020-09-16;Unidades de Internacao;Magnesio;Magnesio;2.1;mg/dL;1,6 a 2,6;False
FC2E912E9EEBB69D232C07B90C0F49CC;55B46A7149BF27299DBDC23F23F27138;F;1975;2020-10-31;2020-11-02;Alta medica melhorado;2;2020-11-01;Unidades de Internacao;Magnesio;Magnesio;1.9;mg/dL;1,6 a 2,6;False
