ID_PACIENTE;ID_ATENDIMENTO;IC_SEXO;aa_nascimento;DT_ATENDIMENTO;DT_DESFECHO;DE_DESFECHO;DAYS;DT_COLETA;DE_ORIGEM;DE_EXAME;DE_ANALITO;DE_RESULTADO;CD_UNIDADE;DE_VALOR_REFERENCIA;OUTLIERS
0B13120E7B38BC22BA4E127465B9CCB0;9FE813AA4DBE64E947EA0A71F87881DE;M;1973;2020-08-01;2020-09-16;Alta medica melhorado;46;2020-08-02;UTI;Sodio - Kit Urg;Sodio, sangue;138;mEq/L;137 a 145;False
10F6983D71BEA947C8E6BCE14A54D954;BF9762B1CC13AFB3C2C56370BB395620;M;1985;2020-05-30;2020-06-06;Alta medica melhorado;7;2020-06-01;Unidades de Internacao;Sodio - Kit Urg;Sodio, sangue;138;mEq/L;137 a 145;False
1A9847F95F2853E73C897185CEB46A9E;118A2E7A5EFF07C553A317FD68616536;M;1982;2020-12-04;2020-12-18;Alta medica melhorado;14;2020-12-16;UTI;Sodio - Kit Urg;Sodio, sangue;140;mEq/L;137 a 145;False
2D2872B4877E7B3C9F75AFA2A301A083;F29B4FA8D380FDA9887F4CF17B8C032B;M;1975;2020-12-04;2020-12-12;Alta medica melhorado;8;2020-12-06;Unidades de Internacao;Sodio - Kit Urg;Sodio, sangue;136;mEq/L;137 a 145;False
359A0501785DCA37B0C9EB14E72CB191;5D368BE8BF8743102626618C57208DED;M;1974;2020-07-31;2020-08-17;Alta medica melhorado;17;2020-08-11;UTI;Sodio - Kit Urg;Sodio, sangue;138;mEq/L;137 a 145;False
388775F5D2E2345159A6B175C0B0949C;0DD26CB1CC068B4EB7939CB34C643245;M;1979;2020-09-18;2020-09-26;Alta medica melhorado;8;2020-09-19;UTI;Sodio - Kit Urg;Sodio, sangue;137;mEq/L;137 a 145;False
4DB65F4B4507E342776AB2282B3A3C3B;1523ECA203CF3E32898A31CEA25A9DAF;M;1986;2020-07-07;2020-07-27;Alta medica melhorado;20;2020-07-08;Unidades de Internacao;Sodio - Kit Urg;Sodio, sangue;137;mEq/L;137 a 145;False
4DB65F4B4507E342776AB2282B3A3C3B;E2BF4EFB54EF96394C5316AC9053B734;M;1986;2020-09-14;2020-09-19;Alta Administrativa;5;2020-09-19;Hemodialise;Sodio - Kit Urg;Sodio, sangue;136;mEq/L;137 a 145;False
5380C23D74E7A745698CADE7FB218456;FF21301DFD82DF0337BBA028988A4762;M;1996;2020-11-14;2020-11-29;Alta medica melhorado;15;2020-11-20;UTI;Sodio - Kit Urg;Sodio, sangue;139;mEq/L;137 a 145;False
58FDE7E201CEC6A53EC0F82353C3F31D;98EC11D77B354F9FAC7FD6881FB0256E;M;1974;2020-06-15;2020-08-12;Alta medica melhorado;58;2020-08-02;UTI;Sodio - Kit Urg;Sodio, sangue;137;mEq/L;137 a 145;False
58FDE7E201CEC6A53EC0F82353C3F31D;98EC11D77B354F9FAC7FD6881FB0256E;M;1974;2020-06-15;2020-08-12;Alta medica melhorado;58;2020-07-21;UTI;Sodio - Kit Urg;Sodio, sangue;131;mEq/L;137 a 145;False
58FDE7E201CEC6A53EC0F82353C3F31D;98EC11D77B354F9FAC7FD6881FB0256E;M;1974;2020-06-15;2020-08-12;Alta medica melhorado;58;2020-06-30;UTI;Sodio - Kit Urg;Sodio, sangue;146;mEq/L;137 a 145;False
58FDE7E201CEC6A53EC0F82353C3F31D;98EC11D77B354F9FAC7FD6881FB0256E;M;1974;2020-06-15;2020-08-12;Alta medica melhorado;58;2020-07-22;UTI;Sodio - Kit Urg;Sodio, sangue;135;mEq/L;137 a 145;False
58FDE7E201CEC6A53EC0F82353C3F31D;98EC11D77B354F9FAC7FD6881FB0256E;M;1974;2020-06-15;2020-08-12;Alta medica melhorado;58;2020-06-23;UTI;Sodio - Kit Urg;Sodio, sangue;153;mEq/L;137 a 145;True
58FDE7E201CEC6A53EC0F82353C3F31D;98EC11D77B354F9FAC7FD6881FB0256E;M;1974;2020-06-15;2020-08-12;Alta medica melhorado;58;2020-07-16;UTI;Sodio - Kit Urg;Sodio, sangue;131;mEq/L;137 a 145;False
58FDE7E201CEC6A53EC0F82353C3F31D;98EC11D77B354F9FAC7FD6881FB0256E;M;1974;2020-06-15;2020-08-12;Alta medica melhorado;58;2020-07-11;UTI;Sodio - Kit Urg;Sodio, sangue;133;mEq/L;137 a 145;False
58FDE7E201CEC6A53EC0F82353C3F31D;98EC11D77B354F9FAC7FD6881FB0256E;M;1974;2020-06-15;2020-08-12;Alta medica melhorado;58;2020-07-24;UTI;Sodio - Kit Urg;Sodio, sangue;136;mEq/L;137 a 145;False
58FDE7E201CEC6A53EC0F82353C3F31D;98EC11D77B354F9FAC7FD6881FB0256E;M;1974;2020-06-15;2020-08-12;Alta medica melhorado;58;2020-07-23;UTI;Sodio - Kit Urg;Sodio, sangue;134;mEq/L;137 a 145;False
58FDE7E201CEC6A53EC0F82353C3F31D;98EC11D77B354F9FAC7FD6881FB0256E;M;1974;2020-06-15;2020-08-12;Alta medica melhorado;58;2020-07-03;UTI;Sodio - Kit Urg;Sodio, sangue;150;mEq/L;137 a 145;False
58FDE7E201CEC6A53EC0F82353C3F31D;98EC11D77B354F9FAC7FD6881FB0256E;M;1974;2020-06-15;2020-08-12;Alta medica melhorado;58;2020-06-18;UTI;Sodio - Kit Urg;Sodio, sangue;145;mEq/L;137 a 145;False
58FDE7E201CEC6A53EC0F82353C3F31D;98EC11D77B354F9FAC7FD6881FB0256E;M;1974;2020-06-15;2020-08-12;Alta medica melhorado;58;2020-06-26;UTI;Sodio - Kit Urg;Sodio, sangue;148;mEq/L;137 a 145;False
58FDE7E201CEC6A53EC0F82353C3F31D;98EC11D77B354F9FAC7FD6881FB0256E;M;1974;2020-06-15;2020-08-12;Alta medica melhorado;58;2020-07-01;UTI;Sodio - Kit Urg;Sodio, sangue;149;mEq/L;137 a 145;False
58FDE7E201CEC6A53EC0F82353C3F31D;98EC11D77B354F9FAC7FD6881FB0256E;M;1974;2020-06-15;2020-08-12;Alta medica melhorado;58;2020-07-27;UTI;Sodio - Kit Urg;Sodio, sangue;137;mEq/L;137 a 145;False
58FDE7E201CEC6A53EC0F82353C3F31D;98EC11D77B354F9FAC7FD6881FB0256E;M;1974;2020-06-15;2020-08-12;Alta medica melhorado;58;2020-07-28;UTI;Sodio - Kit Urg;Sodio, sangue;135;mEq/L;137 a 145;False
58FDE7E201CEC6A53EC0F82353C3F31D;98EC11D77B354F9FAC7FD6881FB0256E;M;1974;2020-06-15;2020-08-12;Alta medica melhorado;58;2020-07-15;UTI;Sodio - Kit Urg;Sodio, sangue;135;mEq/L;137 a 145;False
58FDE7E201CEC6A53EC0F82353C3F31D;98EC11D77B354F9FAC7FD6881FB0256E;M;1974;2020-06-15;2020-08-12;Alta medica melhorado;58;2020-07-18;UTI;Sodio - Kit Urg;Sodio, sangue;132;mEq/L;137 a 145;False
58FDE7E201CEC6A53EC0F82353C3F31D;98EC11D77B354F9FAC7FD6881FB0256E;M;1974;2020-06-15;2020-08-12;Alta medica melhorado;58;2020-07-29;UTI;Sodio - Kit Urg;Sodio, sangue;136;mEq/L;137 a 145;False
58FDE7E201CEC6A53EC0F82353C3F31D;98EC11D77B354F9FAC7FD6881FB0256E;M;1974;2020-06-15;2020-08-12;Alta medica melhorado;58;2020-06-19;UTI;Sodio - Kit Urg;Sodio, sangue;150;mEq/L;137 a 145;False
58FDE7E201CEC6A53EC0F82353C3F31D;98EC11D77B354F9FAC7FD6881FB0256E;M;1974;2020-06-15;2020-08-12;Alta medica melhorado;58;2020-06-18;UTI;Sodio - Kit Urg;Sodio, sangue;144;mEq/L;137 a 145;False
58FDE7E201CEC6A53EC0F82353C3F31D;98EC11D77B354F9FAC7FD6881FB0256E;M;1974;2020-06-15;2020-08-12;Alta medica melhorado;58;2020-07-30;UTI;Sodio - Kit Urg;Sodio, sangue;137;mEq/L;137 a 145;False
58FDE7E201CEC6A53EC0F82353C3F31D;98EC11D77B354F9FAC7FD6881FB0256E;M;1974;2020-06-15;2020-08-12;Alta medica melhorado;58;2020-07-26;UTI;Sodio - Kit Urg;Sodio, sangue;139;mEq/L;137 a 145;False
58FDE7E201CEC6A53EC0F82353C3F31D;98EC11D77B354F9FAC7FD6881FB0256E;M;1974;2020-06-15;2020-08-12;Alta medica melhorado;58;2020-07-17;UTI;Sodio - Kit Urg;Sodio, sangue;131;mEq/L;137 a 145;False
58FDE7E201CEC6A53EC0F82353C3F31D;98EC11D77B354F9FAC7FD6881FB0256E;M;1974;2020-06-15;2020-08-12;Alta medica melhorado;58;2020-07-10;UTI;Sodio - Kit Urg;Sodio, sangue;134;mEq/L;137 a 145;False
58FDE7E201CEC6A53EC0F82353C3F31D;98EC11D77B354F9FAC7FD6881FB0256E;M;1974;2020-06-15;2020-08-12;Alta medica melhorado;58;2020-07-03;UTI;Sodio - Kit Urg;Sodio, sangue;147;mEq/L;137 a 145;False
58FDE7E201CEC6A53EC0F82353C3F31D;98EC11D77B354F9FAC7FD6881FB0256E;M;1974;2020-06-15;2020-08-12;Alta medica melhorado;58;2020-07-04;UTI;Sodio - Kit Urg;Sodio, sangue;145;mEq/L;137 a 145;False
58FDE7E201CEC6A53EC0F82353C3F31D;98EC11D77B354F9FAC7FD6881FB0256E;M;1974;2020-06-15;2020-08-12;Alta medica melhorado;58;2020-06-27;UTI;Sodio - Kit Urg;Sodio, sangue;149;mEq/L;137 a 145;False
58FDE7E201CEC6A53EC0F82353C3F31D;98EC11D77B354F9FAC7FD6881FB0256E;M;1974;2020-06-15;2020-08-12;Alta medica melhorado;58;2020-08-02;UTI;Sodio - Kit Urg;Sodio, sangue;139;mEq/L;137 a 145;False
58FDE7E201CEC6A53EC0F82353C3F31D;98EC11D77B354F9FAC7FD6881FB0256E;M;1974;2020-06-15;2020-08-12;Alta medica melhorado;58;2020-06-21;UTI;Sodio - Kit Urg;Sodio, sangue;155;mEq/L;137 a 145;True
58FDE7E201CEC6A53EC0F82353C3F31D;98EC11D77B354F9FAC7FD6881FB0256E;M;1974;2020-06-15;2020-08-12;Alta medica melhorado;58;2020-08-01;UTI;Sodio - Kit Urg;Sodio, sangue;138;mEq/L;137 a 145;False
58FDE7E201CEC6A53EC0F82353C3F31D;98EC11D77B354F9FAC7FD6881FB0256E;M;1974;2020-06-15;2020-08-12;Alta medica melhorado;58;2020-08-01;UTI;Sodio - Kit Urg;Sodio, sangue;139;mEq/L;137 a 145;False
58FDE7E201CEC6A53EC0F82353C3F31D;98EC11D77B354F9FAC7FD6881FB0256E;M;1974;2020-06-15;2020-08-12;Alta medica melhorado;58;2020-07-31;UTI;Sodio - Kit Urg;Sodio, sangue;140;mEq/L;137 a 145;False
58FDE7E201CEC6A53EC0F82353C3F31D;98EC11D77B354F9FAC7FD6881FB0256E;M;1974;2020-06-15;2020-08-12;Alta medica melhorado;58;2020-07-12;UTI;Sodio - Kit Urg;Sodio, sangue;132;mEq/L;137 a 145;False
58FDE7E201CEC6A53EC0F82353C3F31D;98EC11D77B354F9FAC7FD6881FB0256E;M;1974;2020-06-15;2020-08-12;Alta medica melhorado;58;2020-06-25;UTI;Sodio - Kit Urg;Sodio, sangue;150;mEq/L;137 a 145;False
58FDE7E201CEC6A53EC0F82353C3F31D;98EC11D77B354F9FAC7FD6881FB0256E;M;1974;2020-06-15;2020-08-12;Alta medica melhorado;58;2020-06-20;UTI;Sodio - Kit Urg;Sodio, sangue;152;mEq/L;137 a 145;True
58FDE7E201CEC6A53EC0F82353C3F31D;98EC11D77B354F9FAC7FD6881FB0256E;M;1974;2020-06-15;2020-08-12;Alta medica melhorado;58;2020-07-25;UTI;Sodio - Kit Urg;Sodio, sangue;135;mEq/L;137 a 145;False
58FDE7E201CEC6A53EC0F82353C3F31D;98EC11D77B354F9FAC7FD6881FB0256E;M;1974;2020-06-15;2020-08-12;Alta medica melhorado;58;2020-07-19;UTI;Sodio - Kit Urg;Sodio, sangue;134;mEq/L;137 a 145;False
58FDE7E201CEC6A53EC0F82353C3F31D;98EC11D77B354F9FAC7FD6881FB0256E;M;1974;2020-06-15;2020-08-12;Alta medica melhorado;58;2020-07-20;UTI;Sodio - Kit Urg;Sodio, sangue;134;mEq/L;137 a 145;False
58FDE7E201CEC6A53EC0F82353C3F31D;98EC11D77B354F9FAC7FD6881FB0256E;M;1974;2020-06-15;2020-08-12;Alta medica melhorado;58;2020-06-29;UTI;Sodio - Kit Urg;Sodio, sangue;145;mEq/L;137 a 145;False
58FDE7E201CEC6A53EC0F82353C3F31D;98EC11D77B354F9FAC7FD6881FB0256E;M;1974;2020-06-15;2020-08-12;Alta medica melhorado;58;2020-06-22;UTI;Sodio - Kit Urg;Sodio, sangue;154;mEq/L;137 a 145;True
58FDE7E201CEC6A53EC0F82353C3F31D;98EC11D77B354F9FAC7FD6881FB0256E;M;1974;2020-06-15;2020-08-12;Alta medica melhorado;58;2020-07-14;UTI;Sodio - Kit Urg;Sodio, sangue;135;mEq/L;137 a 145;False
58FDE7E201CEC6A53EC0F82353C3F31D;98EC11D77B354F9FAC7FD6881FB0256E;M;1974;2020-06-15;2020-08-12;Alta medica melhorado;58;2020-07-14;UTI;Sodio - Kit Urg;Sodio, sangue;137;mEq/L;137 a 145;False
58FDE7E201CEC6A53EC0F82353C3F31D;98EC11D77B354F9FAC7FD6881FB0256E;M;1974;2020-06-15;2020-08-12;Alta medica melhorado;58;2020-06-28;UTI;Sodio - Kit Urg;Sodio, sangue;146;mEq/L;137 a 145;False
58FDE7E201CEC6A53EC0F82353C3F31D;98EC11D77B354F9FAC7FD6881FB0256E;M;1974;2020-06-15;2020-08-12;Alta medica melhorado;58;2020-08-03;Unidades de Internacao;Sodio - Kit Urg;Sodio, sangue;141;mEq/L;137 a 145;False
58FDE7E201CEC6A53EC0F82353C3F31D;98EC11D77B354F9FAC7FD6881FB0256E;M;1974;2020-06-15;2020-08-12;Alta medica melhorado;58;2020-08-03;Unidades de Internacao;Sodio - Kit Urg;Sodio, sangue;141;mEq/L;137 a 145;False
65CF157AD767F57E7B4C645421ADA04E;F128EFDE50334E420EB37646E4DF90BB;M;1990;2020-08-24;2020-08-28;Alta medica melhorado;4;2020-08-24;Unidades de Internacao;Sodio - Kit Urg;Sodio, sangue;138;mEq/L;137 a 145;False
6B8162E25FF41FADC6BFF3A5004CD8A8;D1AA7B8576EFE2169001AD4D963C47B4;M;1979;2020-06-30;2020-07-10;Alta medica melhorado;10;2020-06-30;UTI;Sodio - Kit Urg;Sodio, sangue;141;mEq/L;137 a 145;False
6B8162E25FF41FADC6BFF3A5004CD8A8;D1AA7B8576EFE2169001AD4D963C47B4;M;1979;2020-06-30;2020-07-10;Alta medica melhorado;10;2020-07-03;UTI;Sodio - Kit Urg;Sodio, sangue;140;mEq/L;137 a 145;False
6B8162E25FF41FADC6BFF3A5004CD8A8;D1AA7B8576EFE2169001AD4D963C47B4;M;1979;2020-06-30;2020-07-10;Alta medica melhorado;10;2020-07-01;UTI;Sodio - Kit Urg;Sodio, sangue;140;mEq/L;137 a 145;False
6B8162E25FF41FADC6BFF3A5004CD8A8;D1AA7B8576EFE2169001AD4D963C47B4;M;1979;2020-06-30;2020-07-10;Alta medica melhorado;10;2020-06-30;UTI;Sodio - Kit Urg;Sodio, sangue;141;mEq/L;137 a 145;False
6B8162E25FF41FADC6BFF3A5004CD8A8;D1AA7B8576EFE2169001AD4D963C47B4;M;1979;2020-06-30;2020-07-10;Alta medica melhorado;10;2020-07-03;UTI;Sodio - Kit Urg;Sodio, sangue;141;mEq/L;137 a 145;False
6B8162E25FF41FADC6BFF3A5004CD8A8;D1AA7B8576EFE2169001AD4D963C47B4;M;1979;2020-06-30;2020-07-10;Alta medica melhorado;10;2020-07-04;UTI;Sodio - Kit Urg;Sodio, sangue;141;mEq/L;137 a 145;False
6E90A1D7EE0808B255B597990B861430;FF85894FAD964212BE5879B264202AE1;M;1978;2020-08-06;2020-09-12;Alta medica melhorado;37;2020-08-31;UTI;Sodio - Kit Urg;Sodio, sangue;131;mEq/L;137 a 145;False
6E90A1D7EE0808B255B597990B861430;FF85894FAD964212BE5879B264202AE1;M;1978;2020-08-06;2020-09-12;Alta medica melhorado;37;2020-08-30;UTI;Sodio - Kit Urg;Sodio, sangue;137;mEq/L;137 a 145;False
71A95C40D67FC91FFED0098A3627ABB3;62F96985CEAD4F73CDBB5EC6FD695D7E;M;2000;2020-07-08;2020-07-10;Alta Administrativa;2;2020-07-10;Centro de Oncologia;Sodio - Kit Urg;Sodio, sangue;137;mEq/L;137 a 145;False
83544E8DF14082545BA63AE6974BD258;8AED7A376C4D7A088D9422C7D388F2DF;M;1973;2020-07-29;2020-10-02;Alta medica melhorado;65;2020-08-22;UTI;Sodio - Kit Urg;Sodio, sangue;141;mEq/L;137 a 145;False
8E092ED81FC743593E99BA5C2BB855F2;7B7AAD49191636E3835643D49081D1F9;M;1982;2020-03-19;2020-04-09;Alta medica melhorado;21;2020-03-19;Pronto Socorro;Sodio - Kit Urg;Sodio, sangue;138;mEq/L;137 a 145;False
8E092ED81FC743593E99BA5C2BB855F2;7B7AAD49191636E3835643D49081D1F9;M;1982;2020-03-19;2020-04-09;Alta medica melhorado;21;2020-03-22;UTI;Sodio - Kit Urg;Sodio, sangue;141;mEq/L;137 a 145;False
8E092ED81FC743593E99BA5C2BB855F2;7B7AAD49191636E3835643D49081D1F9;M;1982;2020-03-19;2020-04-09;Alta medica melhorado;21;2020-03-30;UTI;Sodio - Kit Urg;Sodio, sangue;149;mEq/L;137 a 145;False
8E092ED81FC743593E99BA5C2BB855F2;7B7AAD49191636E3835643D49081D1F9;M;1982;2020-03-19;2020-04-09;Alta medica melhorado;21;2020-03-28;UTI;Sodio - Kit Urg;Sodio, sangue;139;mEq/L;137 a 145;False
8E092ED81FC743593E99BA5C2BB855F2;7B7AAD49191636E3835643D49081D1F9;M;1982;2020-03-19;2020-04-09;Alta medica melhorado;21;2020-03-22;UTI;Sodio - Kit Urg;Sodio, sangue;143;mEq/L;137 a 145;False
8E092ED81FC743593E99BA5C2BB855F2;7B7AAD49191636E3835643D49081D1F9;M;1982;2020-03-19;2020-04-09;Alta medica melhorado;21;2020-03-22;UTI;Sodio - Kit Urg;Sodio, sangue;146;mEq/L;137 a 145;False
8E092ED81FC743593E99BA5C2BB855F2;7B7AAD49191636E3835643D49081D1F9;M;1982;2020-03-19;2020-04-09;Alta medica melhorado;21;2020-04-03;UTI;Sodio - Kit Urg;Sodio, sangue;141;mEq/L;137 a 145;False
8E092ED81FC743593E99BA5C2BB855F2;7B7AAD49191636E3835643D49081D1F9;M;1982;2020-03-19;2020-04-09;Alta medica melhorado;21;2020-04-02;UTI;Sodio - Kit Urg;Sodio, sangue;139;mEq/L;137 a 145;False
8E092ED81FC743593E99BA5C2BB855F2;7B7AAD49191636E3835643D49081D1F9;M;1982;2020-03-19;2020-04-09;Alta medica melhorado;21;2020-04-06;UTI;Sodio - Kit Urg;Sodio, sangue;139;mEq/L;137 a 145;False
8E092ED81FC743593E99BA5C2BB855F2;7B7AAD49191636E3835643D49081D1F9;M;1982;2020-03-19;2020-04-09;Alta medica melhorado;21;2020-03-23;UTI;Sodio - Kit Urg;Sodio, sangue;143;mEq/L;137 a 145;False
8E092ED81FC743593E99BA5C2BB855F2;7B7AAD49191636E3835643D49081D1F9;M;1982;2020-03-19;2020-04-09;Alta medica melhorado;21;2020-04-05;UTI;Sodio - Kit Urg;Sodio, sangue;137;mEq/L;137 a 145;False
8E092ED81FC743593E99BA5C2BB855F2;7B7AAD49191636E3835643D49081D1F9;M;1982;2020-03-19;2020-04-09;Alta medica melhorado;21;2020-04-04;UTI;Sodio - Kit Urg;Sodio, sangue;138;mEq/L;137 a 145;False
8E092ED81FC743593E99BA5C2BB855F2;7B7AAD49191636E3835643D49081D1F9;M;1982;2020-03-19;2020-04-09;Alta medica melhorado;21;2020-03-24;UTI;Sodio - Kit Urg;Sodio, sangue;140;mEq/L;137 a 145;False
8E092ED81FC743593E99BA5C2BB855F2;7B7AAD49191636E3835643D49081D1F9;M;1982;2020-03-19;2020-04-09;Alta medica melhorado;21;2020-03-25;UTI;Sodio - Kit Urg;Sodio, sangue;142;mEq/L;137 a 145;False
8E092ED81FC743593E99BA5C2BB855F2;7B7AAD49191636E3835643D49081D1F9;M;1982;2020-03-19;2020-04-09;Alta medica melhorado;21;2020-03-27;UTI;Sodio - Kit Urg;Sodio, sangue;140;mEq/L;137 a 145;False
8E092ED81FC743593E99BA5C2BB855F2;7B7AAD49191636E3835643D49081D1F9;M;1982;2020-03-19;2020-04-09;Alta medica melhorado;21;2020-03-26;UTI;Sodio - Kit Urg;Sodio, sangue;142;mEq/L;137 a 145;False
9281233AE14A8ECDA7F98387F2129324;5D46F392D6CE17CF383344C99C35C6D7;M;1978;2020-07-11;2020-07-19;Alta Administrativa;8;2020-07-13;Unidades de Internacao;Sodio - Kit Urg;Sodio, sangue;139;mEq/L;137 a 145;False
96C3425A4BB8F8B9147E4E1F728D796E;44A5870DA7ADC3E2CDB9D374EF683BE3;M;1980;2020-05-17;2020-06-01;Alta medica melhorado;15;2020-05-22;UTI;Sodio - Kit Urg;Sodio, sangue;133;mEq/L;137 a 145;False
9793AD4119D17346B665FCAA950CC8B3;EAA9553BF31BAC8B21B4FD2BE9045532;M;1988;2020-07-12;2020-07-22;Alta medica melhorado;10;2020-07-15;UTI;Sodio - Kit Urg;Sodio, sangue;141;mEq/L;137 a 145;False
9793AD4119D17346B665FCAA950CC8B3;EAA9553BF31BAC8B21B4FD2BE9045532;M;1988;2020-07-12;2020-07-22;Alta medica melhorado;10;2020-07-14;UTI;Sodio - Kit Urg;Sodio, sangue;141;mEq/L;137 a 145;False
9793AD4119D17346B665FCAA950CC8B3;EAA9553BF31BAC8B21B4FD2BE9045532;M;1988;2020-07-12;2020-07-22;Alta medica melhorado;10;2020-07-12;UTI;Sodio - Kit Urg;Sodio, sangue;139;mEq/L;137 a 145;False
9793AD4119D17346B665FCAA950CC8B3;EAA9553BF31BAC8B21B4FD2BE9045532;M;1988;2020-07-12;2020-07-22;Alta medica melhorado;10;2020-07-13;UTI;Sodio - Kit Urg;Sodio, sangue;144;mEq/L;137 a 145;False
98521D3E821CADEF9E38094B2669D687;16EC2D0A0DA07236946D5306A01347CA;M;1991;2020-09-15;2020-09-17;Alta medica melhorado;2;2020-09-16;Unidades de Internacao;Sodio - Kit Urg;Sodio, sangue;138;mEq/L;137 a 145;False
98521D3E821CADEF9E38094B2669D687;16EC2D0A0DA07236946D5306A01347CA;M;1991;2020-09-15;2020-09-17;Alta medica melhorado;2;2020-09-16;Unidades de Internacao;Sodio - Kit Urg;Sodio, sangue;140;mEq/L;137 a 145;False
991BA67B68E8C432E6E96F217E6783D2;2FD538EB74C4642E1A143E5FA80EE4C4;M;1989;2020-07-24;2020-07-31;Alta medica melhorado;7;2020-07-25;Centro Cirurgico;Sodio - Kit Urg;Sodio, sangue;136;mEq/L;137 a 145;False
991BA67B68E8C432E6E96F217E6783D2;2FD538EB74C4642E1A143E5FA80EE4C4;M;1989;2020-07-24;2020-07-31;Alta medica melhorado;7;2020-07-25;Centro Cirurgico;Sodio - Kit Urg;Sodio, sangue;137;mEq/L;137 a 145;False
991BA67B68E8C432E6E96F217E6783D2;2FD538EB74C4642E1A143E5FA80EE4C4;M;1989;2020-07-24;2020-07-31;Alta medica melhorado;7;2020-07-25;UTI;Sodio - Kit Urg;Sodio, sangue;135;mEq/L;137 a 145;False
991BA67B68E8C432E6E96F217E6783D2;2FD538EB74C4642E1A143E5FA80EE4C4;M;1989;2020-07-24;2020-07-31;Alta medica melhorado;7;2020-07-25;Unidades de Internacao;Sodio - Kit Urg;Sodio, sangue;136;mEq/L;137 a 145;False
991BA67B68E8C432E6E96F217E6783D2;2FD538EB74C4642E1A143E5FA80EE4C4;M;1989;2020-07-24;2020-07-31;Alta medica melhorado;7;2020-07-25;Unidades de Internacao;Sodio - Kit Urg;Sodio, sangue;134;mEq/L;137 a 145;False
991BA67B68E8C432E6E96F217E6783D2;2FD538EB74C4642E1A143E5FA80EE4C4;M;1989;2020-07-24;2020-07-31;Alta medica melhorado;7;2020-07-26;Unidades de Internacao;Sodio - Kit Urg;Sodio, sangue;139;mEq/L;137 a 145;False
B13CAEDE6903215CAFF02DEBD325CA64;2C1AAA908D453413A68020663464CA84;M;1974;2020-12-07;2020-12-14;Alta medica melhorado;7;2020-12-10;UTI;Sodio - Kit Urg;Sodio, sangue;135;mEq/L;137 a 145;False
B13CAEDE6903215CAFF02DEBD325CA64;2C1AAA908D453413A68020663464CA84;M;1974;2020-12-07;2020-12-14;Alta medica melhorado;7;2020-12-11;Unidades de Internacao;Sodio - Kit Urg;Sodio, sangue;136;mEq/L;137 a 145;False
B13CAEDE6903215CAFF02DEBD325CA64;2C1AAA908D453413A68020663464CA84;M;1974;2020-12-07;2020-12-14;Alta medica melhorado;7;2020-12-11;Unidades de Internacao;Sodio - Kit Urg;Sodio, sangue;135;mEq/L;137 a 145;False
B22445338B4D589E3DEF8EB9E6820B9D;2EED73484737E7C5F5B30F5F527D3CA8;M;1978;2020-10-08;2020-11-07;Alta medica melhorado;30;2020-10-22;UTI;Sodio - Kit Urg;Sodio, sangue;146;mEq/L;137 a 145;False
B22445338B4D589E3DEF8EB9E6820B9D;2EED73484737E7C5F5B30F5F527D3CA8;M;1978;2020-10-08;2020-11-07;Alta medica melhorado;30;2020-10-20;UTI;Sodio - Kit Urg;Sodio, sangue;141;mEq/L;137 a 145;False
B22445338B4D589E3DEF8EB9E6820B9D;2EED73484737E7C5F5B30F5F527D3CA8;M;1978;2020-10-08;2020-11-07;Alta medica melhorado;30;2020-10-14;UTI;Sodio - Kit Urg;Sodio, sangue;150;mEq/L;137 a 145;False
B22445338B4D589E3DEF8EB9E6820B9D;2EED73484737E7C5F5B30F5F527D3CA8;M;1978;2020-10-08;2020-11-07;Alta medica melhorado;30;2020-10-21;UTI;Sodio - Kit Urg;Sodio, sangue;146;mEq/L;137 a 145;False
B22445338B4D589E3DEF8EB9E6820B9D;2EED73484737E7C5F5B30F5F527D3CA8;M;1978;2020-10-08;2020-11-07;Alta medica melhorado;30;2020-10-24;UTI;Sodio - Kit Urg;Sodio, sangue;143;mEq/L;137 a 145;False
B22445338B4D589E3DEF8EB9E6820B9D;2EED73484737E7C5F5B30F5F527D3CA8;M;1978;2020-10-08;2020-11-07;Alta medica melhorado;30;2020-10-26;UTI;Sodio - Kit Urg;Sodio, sangue;137;mEq/L;137 a 145;False
B22445338B4D589E3DEF8EB9E6820B9D;2EED73484737E7C5F5B30F5F527D3CA8;M;1978;2020-10-08;2020-11-07;Alta medica melhorado;30;2020-10-26;UTI;Sodio - Kit Urg;Sodio, sangue;140;mEq/L;137 a 145;False
B22445338B4D589E3DEF8EB9E6820B9D;2EED73484737E7C5F5B30F5F527D3CA8;M;1978;2020-10-08;2020-11-07;Alta medica melhorado;30;2020-10-28;UTI;Sodio - Kit Urg;Sodio, sangue;138;mEq/L;137 a 145;False
B22445338B4D589E3DEF8EB9E6820B9D;2EED73484737E7C5F5B30F5F527D3CA8;M;1978;2020-10-08;2020-11-07;Alta medica melhorado;30;2020-10-23;UTI;Sodio - Kit Urg;Sodio, sangue;146;mEq/L;137 a 145;False
B22445338B4D589E3DEF8EB9E6820B9D;2EED73484737E7C5F5B30F5F527D3CA8;M;1978;2020-10-08;2020-11-07;Alta medica melhorado;30;2020-10-19;UTI;Sodio - Kit Urg;Sodio, sangue;140;mEq/L;137 a 145;False
B22445338B4D589E3DEF8EB9E6820B9D;2EED73484737E7C5F5B30F5F527D3CA8;M;1978;2020-10-08;2020-11-07;Alta medica melhorado;30;2020-10-17;UTI;Sodio - Kit Urg;Sodio, sangue;143;mEq/L;137 a 145;False
B22445338B4D589E3DEF8EB9E6820B9D;2EED73484737E7C5F5B30F5F527D3CA8;M;1978;2020-10-08;2020-11-07;Alta medica melhorado;30;2020-10-18;UTI;Sodio - Kit Urg;Sodio, sangue;138;mEq/L;137 a 145;False
B22445338B4D589E3DEF8EB9E6820B9D;2EED73484737E7C5F5B30F5F527D3CA8;M;1978;2020-10-08;2020-11-07;Alta medica melhorado;30;2020-10-16;UTI;Sodio - Kit Urg;Sodio, sangue;146;mEq/L;137 a 145;False
B22445338B4D589E3DEF8EB9E6820B9D;2EED73484737E7C5F5B30F5F527D3CA8;M;1978;2020-10-08;2020-11-07;Alta medica melhorado;30;2020-10-15;UTI;Sodio - Kit Urg;Sodio, sangue;148;mEq/L;137 a 145;False
B22445338B4D589E3DEF8EB9E6820B9D;2EED73484737E7C5F5B30F5F527D3CA8;M;1978;2020-10-08;2020-11-07;Alta medica melhorado;30;2020-10-25;UTI;Sodio - Kit Urg;Sodio, sangue;137;mEq/L;137 a 145;False
B22445338B4D589E3DEF8EB9E6820B9D;2EED73484737E7C5F5B30F5F527D3CA8;M;1978;2020-10-08;2020-11-07;Alta medica melhorado;30;2020-10-12;UTI;Sodio - Kit Urg;Sodio, sangue;139;mEq/L;137 a 145;False
B22445338B4D589E3DEF8EB9E6820B9D;2EED73484737E7C5F5B30F5F527D3CA8;M;1978;2020-10-08;2020-11-07;Alta medica melhorado;30;2020-10-11;UTI;Sodio - Kit Urg;Sodio, sangue;134;mEq/L;137 a 145;False
B22445338B4D589E3DEF8EB9E6820B9D;2EED73484737E7C5F5B30F5F527D3CA8;M;1978;2020-10-08;2020-11-07;Alta medica melhorado;30;2020-10-13;UTI;Sodio - Kit Urg;Sodio, sangue;142;mEq/L;137 a 145;False
B22445338B4D589E3DEF8EB9E6820B9D;2EED73484737E7C5F5B30F5F527D3CA8;M;1978;2020-10-08;2020-11-07;Alta medica melhorado;30;2020-10-27;UTI;Sodio - Kit Urg;Sodio, sangue;129;mEq/L;137 a 145;False
B22445338B4D589E3DEF8EB9E6820B9D;2EED73484737E7C5F5B30F5F527D3CA8;M;1978;2020-10-08;2020-11-07;Alta medica melhorado;30;2020-10-31;Unidades de Internacao;Sodio - Kit Urg;Sodio, sangue;139;mEq/L;137 a 145;False
B22445338B4D589E3DEF8EB9E6820B9D;2EED73484737E7C5F5B30F5F527D3CA8;M;1978;2020-10-08;2020-11-07;Alta medica melhorado;30;2020-10-29;Unidades de Internacao;Sodio - Kit Urg;Sodio, sangue;136;mEq/L;137 a 145;False
E1CEA0A43CAEE48229C9F95664FA9B12;05D4C3802C542D2B3B75B146AF8515E1;M;1981;2020-10-16;2020-10-24;Alta medica melhorado;8;2020-10-23;Unidades de Internacao;Sodio - Kit Urg;Sodio, sangue;141;mEq/L;137 a 145;False
F883E0D24A78B0F05DA41C6DAB3C54BB;D7BEF14602F56D6B4EDFF8641BFBBB41;M;1976;2020-08-17;2020-09-07;Alta medica melhorado;21;2020-08-21;UTI;Sodio - Kit Urg;Sodio, sangue;142;mEq/L;137 a 145;False
FB04AD7CAC1E9456858BF633601085B1;1FCC19A3B9D73292E5C6167E4D11CC02;M;1996;2020-08-22;2020-08-26;Alta medica melhorado;4;2020-08-25;Unidades de Internacao;Sodio - Kit Urg;Sodio, sangue;137;mEq/L;137 a 145;False
