ID_PACIENTE;ID_ATENDIMENTO;IC_SEXO;aa_nascimento;DT_ATENDIMENTO;DT_DESFECHO;DE_DESFECHO;DAYS;DT_COLETA;DE_ORIGEM;DE_EXAME;DE_ANALITO;DE_RESULTADO;CD_UNIDADE;DE_VALOR_REFERENCIA;OUTLIERS
009F46271AA900748E4C1988E51427DC;8B850E19AEADBE71ADA977CC87601BD8;M;1974;2020-10-28;2020-10-30;Alta Administrativa;2;2020-10-28;Endoscopia - Itaim;T4L, livre, soro;T4 Livre;1.0;ng/dL;Ver resultado tradicional;False
03F88C460CB54521F2310AB3663708F2;040A11F1E0218F09BBF2A7298E7BA49B;M;1976;2020-05-11;2020-05-18;Alta medica melhorado;7;2020-05-11;Unidades de Internacao;T4L, livre, soro;T4 Livre;0.9;ng/dL;Ver resultado tradicional;False
0AA76D3097610B266CE70AEB68DE4CAA;55A2828AC8DF548A9417157640B634BD;M;1975;2020-08-14;2020-08-17;Alta medica melhorado;3;2020-08-14;Pronto Socorro;T4L, livre, soro;T4 Livre;1.1;ng/dL;Ver resultado tradicional;False
1F6DF737A24216DD85A29332501A50B9;A331F988EAFDD88E043FB96743CC4655;M;1983;2020-08-06;2020-08-13;Alta medica melhorado;7;2020-08-07;Unidades de Internacao;T4L, livre, soro;T4 Livre;0.8;ng/dL;Ver resultado tradicional;False
205D594619506E3751F97BCB3F2BE66A;A8D4FBAE88DEC0332EAF6148B6285845;M;1992;2020-07-31;2020-08-03;Alta medica melhorado;3;2020-07-31;Unidades de Internacao;T4L, livre, soro;T4 Livre;1.2;ng/dL;Ver resultado tradicional;False
359A0501785DCA37B0C9EB14E72CB191;5D368BE8BF8743102626618C57208DED;M;1974;2020-07-31;2020-08-17;Alta medica melhorado;17;2020-08-12;UTI;T4L, livre, soro;T4 Livre;0.9;ng/dL;Ver resultado tradicional;False
3E7ECC131C345570BC6961EE9F7C8E33;9B97E1EEBF2BC3E059A9DD30934DD98F;M;1989;2020-05-24;2020-06-02;Alta medica melhorado;9;2020-05-27;Unidades de Internacao;T4L, livre, soro;T4 Livre;1.2;ng/dL;Ver resultado tradicional;False
4DB65F4B4507E342776AB2282B3A3C3B;1523ECA203CF3E32898A31CEA25A9DAF;M;1986;2020-07-07;2020-07-27;Alta medica melhorado;20;2020-07-07;Unidades de Internacao;T4L, livre, soro;T4 Livre;0.7;ng/dL;Ver resultado tradicional;False
512D9396798DD0172B614F4CBC4BCA26;23552E9D8943F174AD07C701DA9FDFB3;M;1974;2020-08-28;2020-08-31;Alta Administrativa;3;2020-08-28;Recepcao do Centro Diagnostico;T4L, livre, soro;T4 Livre;1.1;ng/dL;Ver resultado tradicional;False
5F5AC03DB40564B6907DFADE9FE2AC10;7647BCD7701A31BA311B2E3FA34B55FD;M;1986;2020-03-20;2020-04-22;Alta medica melhorado;33;2020-04-19;Unidades de Internacao;T4L, livre, soro;T4 Livre;0.9;ng/dL;Ver resultado tradicional;False
65A1797670A470119E8A2909164BBD0C;CAEC7A3644E047A5226D0AF1B34DABF9;M;1973;2020-08-10;2020-08-21;Alta medica melhorado;11;2020-08-18;UTI;T4L, livre, soro;T4 Livre;1.1;ng/dL;Ver resultado tradicional;False
71A95C40D67FC91FFED0098A3627ABB3;CF5D403CF4F61A9F39444FA4CF7D0F64;M;2000;2020-06-12;2020-06-18;Alta medica melhorado;6;2020-06-12;Unidades de Internacao;T4L, livre, soro;T4 Livre;1.0;ng/dL;Ver resultado tradicional;False
7507DC8F9C3FBBC321718AF9D9DB4827;5F9E098CBC4D2EF7DDB243804095131A;M;1983;2020-07-02;2020-07-19;Alta Administrativa;17;2020-07-03;Unidades de Internacao;T4L, livre, soro;T4 Livre - Eletroquimioluminescencia;1.5;ng/dL;Ver resultado tradicional;True
78D228D2884D2F1B6C6E3995C97B12AF;F6ED3447F2BE5538DC60A9AF2CE64CE8;M;1980;2020-08-13;2020-08-17;Alta medica melhorado;4;2020-08-14;Unidades de Internacao;T4L, livre, soro;T4 Livre - Eletroquimioluminescencia;0.9;ng/dL;Ver resultado tradicional;False
96C3425A4BB8F8B9147E4E1F728D796E;44A5870DA7ADC3E2CDB9D374EF683BE3;M;1980;2020-05-17;2020-06-01;Alta medica melhorado;15;2020-05-18;Unidades de Internacao;T4L, livre, soro;T4 Livre;1.0;ng/dL;Ver resultado tradicional;False
9A2FEF0E972CE7E63B4D268080E58085;2CEE5CBCA4AA85F449F7B4EE9764F456;M;1998;2020-03-10;2020-03-12;Alta Administrativa;2;2020-03-11;Oncologia Clinica - Brasilia;T4L, livre, soro;T4 Livre - Eletroquimioluminescencia;1.4;ng/dL;Ver resultado tradicional;False
9F0062E1BD4A5603EBAF4593C7866332;A13779924543E5A8F2125C7B4DF07940;M;1985;2020-07-18;2020-07-22;Alta medica melhorado;4;2020-07-19;UTI;T4L, livre, soro;T4 Livre;1.0;ng/dL;Ver resultado tradicional;False
A6EB6D96A26EBEF9FF30A5CB7DA40C04;93E17DCABE86F67D278CDEE3FC13D214;M;1973;2020-06-30;2020-07-08;Alta medica melhorado;8;2020-06-30;UTI;T4L, livre, soro;T4 Livre;1.0;ng/dL;Ver resultado tradicional;False
AA1E0A1BBB04DBFB2D4FE21BDB45FB74;645419AC86B05340C11B86E3E72C2417;M;1977;2020-08-08;2020-08-11;Alta Administrativa;3;2020-08-08;Recepcao do Centro Diagnostico;T4L, livre, soro;T4 Livre;1.0;ng/dL;Ver resultado tradicional;False
AF513D11AFDA9E48A94836A3F587D9EA;3578F59885E3ED195EADAEDDC4CB8A85;M;1981;2020-06-02;2020-07-31;Alta medica curado;59;2020-07-13;Unidades de Internacao;T4L, livre, soro;T4 Livre;0.8;ng/dL;Ver resultado tradicional;False
AF513D11AFDA9E48A94836A3F587D9EA;3578F59885E3ED195EADAEDDC4CB8A85;M;1981;2020-06-02;2020-07-31;Alta medica curado;59;2020-07-04;Unidades de Internacao;T4L, livre, soro;T4 Livre;0.8;ng/dL;Ver resultado tradicional;False
AF513D11AFDA9E48A94836A3F587D9EA;3578F59885E3ED195EADAEDDC4CB8A85;M;1981;2020-06-02;2020-07-31;Alta medica curado;59;2020-07-08;Unidades de Internacao;T4L, livre, soro;T4 Livre;0.9;ng/dL;Ver resultado tradicional;False
B4102D002D0FF995E23072AF92302BEB;4A46C999E690B0FFF50296BE7FD25E0F;M;1981;2020-05-15;2020-05-20;Alta medica melhorado;5;2020-05-15;Unidades de Internacao;T4L, livre, soro;T4 Livre;0.9;ng/dL;Ver resultado tradicional;False
BC55696360C76C7F68F1CC4C0B8A5F0D;A5A242D0C4884F891108CB51E6FEB585;M;1982;2020-04-27;2020-05-12;Alta medica melhorado;15;2020-05-10;Unidades de Internacao;T4L, livre, soro;T4 Livre;0.8;ng/dL;Ver resultado tradicional;False
C6251C08399C03360AE05CB45F6ECBFB;C33E88D1035B90665A8483846762D961;M;1974;2020-05-02;2020-05-14;Alta medica melhorado;12;2020-05-02;Unidades de Internacao;T4L, livre, soro;T4 Livre;1.1;ng/dL;Ver resultado tradicional;False
C6251C08399C03360AE05CB45F6ECBFB;C33E88D1035B90665A8483846762D961;M;1974;2020-05-02;2020-05-14;Alta medica melhorado;12;2020-05-04;Unidades de Internacao;T4L, livre, soro;T4 Livre;1.1;ng/dL;Ver resultado tradicional;False
CB38AD7D77DBB0AA017BFF94916FC74B;4F4BAADFC703DC0EB5734CA5ADDBA415;M;1973;2020-05-26;2020-06-05;Alta medica melhorado;10;2020-06-04;Unidades de Internacao;T4L, livre, soro;T4 Livre;1.0;ng/dL;Ver resultado tradicional;False
D9833C43AE13CFD23AD5B0D688F7D31C;980B1244A379800E6489BC1B61D2E591;M;1984;2020-05-01;2020-05-21;Alta medica melhorado;20;2020-05-01;Unidades de Internacao;T4L, livre, soro;T4 Livre;0.8;ng/dL;Ver resultado tradicional;False
E8B257CD19D78900C73F248B342A2AB7;5F9CEA0D368E4C8DA53613629B0B638A;M;1974;2020-05-19;2020-05-28;Alta medica melhorado;9;2020-05-19;UTI;T4L, livre, soro;T4 Livre;1.0;ng/dL;Ver resultado tradicional;False
F1C72DDFD83093BD5F02037DEA10BA58;2397D7E0B59D13FE01F8AE4A5C8758CF;M;1981;2020-08-13;2020-08-17;Alta Administrativa;4;2020-08-13;Endoscopia;T4L, livre, soro;T4 Livre;0.9;ng/dL;Ver resultado tradicional;False
FACA2D3CAD7DE512DFC6A52F652B25A4;2B29D7D4C13F97DA30F08952367A4DDF;M;1973;2020-03-26;2020-03-31;Alta medica curado;5;2020-03-28;Unidades de Internacao;T4L, livre, soro;T4 Livre;0.9;ng/dL;Ver resultado tradicional;False
