ID_PACIENTE;ID_ATENDIMENTO;IC_SEXO;aa_nascimento;DT_ATENDIMENTO;DT_DESFECHO;DE_DESFECHO;DAYS;DT_COLETA;DE_ORIGEM;DE_EXAME;DE_ANALITO;DE_RESULTADO;CD_UNIDADE;DE_VALOR_REFERENCIA;OUTLIERS
03921BD7EFD5787934B8900682F73608;DC9E5CE21C23834FF2527BCD51E28A8B;M;1973;2020-08-20;2020-08-31;Alta medica melhorado;11;2020-08-20;UTI;Tempo E Ativid. Protrombina (Tp);Tempo de Protrombina;13.1;segundos;10,1 a 12,8;False
03921BD7EFD5787934B8900682F73608;DC9E5CE21C23834FF2527BCD51E28A8B;M;1973;2020-08-20;2020-08-31;Alta medica melhorado;11;2020-08-25;UTI;Tempo E Ativid. Protrombina (Tp);Tempo de Protrombina;13.1;segundos;10,1 a 12,8;False
03921BD7EFD5787934B8900682F73608;DC9E5CE21C23834FF2527BCD51E28A8B;M;1973;2020-08-20;2020-08-31;Alta medica melhorado;11;2020-08-28;UTI;Tempo E Ativid. Protrombina (Tp);Tempo de Protrombina;12.1;segundos;10,1 a 12,8;False
03921BD7EFD5787934B8900682F73608;DC9E5CE21C23834FF2527BCD51E28A8B;M;1973;2020-08-20;2020-08-31;Alta medica melhorado;11;2020-08-26;UTI;Tempo E Ativid. Protrombina (Tp);Tempo de Protrombina;12.6;segundos;10,1 a 12,8;False
03F88C460CB54521F2310AB3663708F2;040A11F1E0218F09BBF2A7298E7BA49B;M;1976;2020-05-11;2020-05-18;Alta medica melhorado;7;2020-05-11;Unidades de Internacao;Tempo E Ativid. Protrombina (Tp);Tempo de Protrombina;10.8;segundos;10,1 a 12,8;False
03F88C460CB54521F2310AB3663708F2;040A11F1E0218F09BBF2A7298E7BA49B;M;1976;2020-05-11;2020-05-18;Alta medica melhorado;7;2020-05-12;Unidades de Internacao;Tempo E Ativid. Protrombina (Tp);Tempo de Protrombina;11.5;segundos;10,1 a 12,8;False
047309D42D5FEFCFF0AD823EF648E5A2;3C531986319155AD2387CD7D90967E34;M;1992;2020-11-01;2020-11-15;Alta medica melhorado;14;2020-11-01;UTI;Tempo E Ativid. Protrombina (Tp);Tempo de Protrombina;14.2;segundos;10,1 a 12,8;False
04EB49CF786BEEE9F253DDE6725CB715;DFC4355CE15E037021D18D6D62A09C18;M;1973;2020-11-07;2020-11-09;Alta medica melhorado;2;2020-11-07;Unidades de Internacao;Tempo E Ativid. Protrombina (Tp);Tempo de Protrombina;13.8;segundos;10,1 a 12,8;False
0AA76D3097610B266CE70AEB68DE4CAA;55A2828AC8DF548A9417157640B634BD;M;1975;2020-08-14;2020-08-17;Alta medica melhorado;3;2020-08-14;Pronto Socorro;Tempo E Ativid. Protrombina (Tp);Tempo de Protrombina;12.0;segundos;10,1 a 12,8;False
0B13120E7B38BC22BA4E127465B9CCB0;9FE813AA4DBE64E947EA0A71F87881DE;M;1973;2020-08-01;2020-09-16;Alta medica melhorado;46;2020-08-07;UTI;Tempo E Ativid. Protrombina (Tp);Tempo de Protrombina;12.6;segundos;10,1 a 12,8;False
0B13120E7B38BC22BA4E127465B9CCB0;9FE813AA4DBE64E947EA0A71F87881DE;M;1973;2020-08-01;2020-09-16;Alta medica melhorado;46;2020-08-03;UTI;Tempo E Ativid. Protrombina (Tp);Tempo de Protrombina;12.6;segundos;10,1 a 12,8;False
0B13120E7B38BC22BA4E127465B9CCB0;9FE813AA4DBE64E947EA0A71F87881DE;M;1973;2020-08-01;2020-09-16;Alta medica melhorado;46;2020-08-10;UTI;Tempo E Ativid. Protrombina (Tp);Tempo de Protrombina;12.9;segundos;10,1 a 12,8;False
0B13120E7B38BC22BA4E127465B9CCB0;9FE813AA4DBE64E947EA0A71F87881DE;M;1973;2020-08-01;2020-09-16;Alta medica melhorado;46;2020-08-03;UTI;Tempo E Ativid. Protrombina (Tp);Tempo de Protrombina;12.7;segundos;10,1 a 12,8;False
0B13120E7B38BC22BA4E127465B9CCB0;9FE813AA4DBE64E947EA0A71F87881DE;M;1973;2020-08-01;2020-09-16;Alta medica melhorado;46;2020-08-04;UTI;Tempo E Ativid. Protrombina (Tp);Tempo de Protrombina;13.1;segundos;10,1 a 12,8;False
0B13120E7B38BC22BA4E127465B9CCB0;9FE813AA4DBE64E947EA0A71F87881DE;M;1973;2020-08-01;2020-09-16;Alta medica melhorado;46;2020-08-11;UTI;Tempo E Ativid. Protrombina (Tp);Tempo de Protrombina;13.1;segundos;10,1 a 12,8;False
0B13120E7B38BC22BA4E127465B9CCB0;9FE813AA4DBE64E947EA0A71F87881DE;M;1973;2020-08-01;2020-09-16;Alta medica melhorado;46;2020-08-06;UTI;Tempo E Ativid. Protrombina (Tp);Tempo de Protrombina;12.9;segundos;10,1 a 12,8;False
0B13120E7B38BC22BA4E127465B9CCB0;9FE813AA4DBE64E947EA0A71F87881DE;M;1973;2020-08-01;2020-09-16;Alta medica melhorado;46;2020-08-05;UTI;Tempo E Ativid. Protrombina (Tp);Tempo de Protrombina;13.2;segundos;10,1 a 12,8;False
0B13120E7B38BC22BA4E127465B9CCB0;9FE813AA4DBE64E947EA0A71F87881DE;M;1973;2020-08-01;2020-09-16;Alta medica melhorado;46;2020-08-09;UTI;Tempo E Ativid. Protrombina (Tp);Tempo de Protrombina;12.7;segundos;10,1 a 12,8;False
0B13120E7B38BC22BA4E127465B9CCB0;9FE813AA4DBE64E947EA0A71F87881DE;M;1973;2020-08-01;2020-09-16;Alta medica melhorado;46;2020-08-01;UTI;Tempo E Ativid. Protrombina (Tp);Tempo de Protrombina;12.3;segundos;10,1 a 12,8;False
0B13120E7B38BC22BA4E127465B9CCB0;9FE813AA4DBE64E947EA0A71F87881DE;M;1973;2020-08-01;2020-09-16;Alta medica melhorado;46;2020-08-01;UTI;Tempo E Ativid. Protrombina (Tp);Tempo de Protrombina;12.7;segundos;10,1 a 12,8;False
0B3B431848F804FE8224FC5C386CD361;514A2CF4861AE42270B8FE5279CD6776;M;1975;2020-06-28;2020-06-30;Alta medica melhorado;2;2020-06-28;Unidades de Internacao;Tempo E Ativid. Protrombina (Tp);Tempo de Protrombina;12.3;segundos;10,1 a 12,8;False
10357584BCAB138E5845DA86DA057AE0;47B0DF6DC6A718AAF4EFC9D4EAECD0CB;M;1981;2020-10-22;2020-10-26;Alta medica melhorado;4;2020-10-25;UTI;Tempo E Ativid. Protrombina (Tp);Tempo de Protrombina;11.9;segundos;10,1 a 12,8;False
10357584BCAB138E5845DA86DA057AE0;47B0DF6DC6A718AAF4EFC9D4EAECD0CB;M;1981;2020-10-22;2020-10-26;Alta medica melhorado;4;2020-10-24;UTI;Tempo E Ativid. Protrombina (Tp);Tempo de Protrombina;11.9;segundos;10,1 a 12,8;False
10357584BCAB138E5845DA86DA057AE0;AA7C682F94DE7DEC8C5835082A28CACD;M;1981;2020-10-11;2020-10-19;Alta Administrativa;8;2020-10-13;Unidades de Internacao;Tempo E Ativid. Protrombina (Tp);Tempo de Protrombina;11.7;segundos;10,1 a 12,8;False
10F6983D71BEA947C8E6BCE14A54D954;BF9762B1CC13AFB3C2C56370BB395620;M;1985;2020-05-30;2020-06-06;Alta medica melhorado;7;2020-06-01;Unidades de Internacao;Tempo E Ativid. Protrombina (Tp);Tempo de Protrombina;12.8;segundos;10,1 a 12,8;False
129870EDC9C04FB9F4AD5D463C73206E;BDED7A55198D595BF47008B53C8EAA8C;M;1993;2020-07-12;2020-08-03;Alta medica melhorado;22;2020-07-12;UTI;Tempo E Ativid. Protrombina (Tp);Tempo de Protrombina;13.0;segundos;10,1 a 12,8;False
129870EDC9C04FB9F4AD5D463C73206E;BDED7A55198D595BF47008B53C8EAA8C;M;1993;2020-07-12;2020-08-03;Alta medica melhorado;22;2020-07-29;UTI;Tempo E Ativid. Protrombina (Tp);Tempo de Protrombina;13.3;segundos;10,1 a 12,8;False
16DC5FD5028117F305076A30074F7FD5;BA5D3DDEAD49ABDC1C73FA5F0401C862;M;1980;2020-10-05;2020-10-07;Alta medica melhorado;2;2020-10-05;Unidades de Internacao;Tempo E Ativid. Protrombina (Tp);Tempo de Protrombina;11.6;segundos;10,1 a 12,8;False
1852D365D115C2F05A5534123CDCCB97;96EA1C1C018D4A446B1D026E97E683E7;M;1972;2020-07-20;2020-07-30;Alta medica melhorado;10;2020-07-20;Unidades de Internacao;Tempo E Ativid. Protrombina (Tp);Tempo de Protrombina;12.2;segundos;10,1 a 12,8;False
1A9847F95F2853E73C897185CEB46A9E;118A2E7A5EFF07C553A317FD68616536;M;1982;2020-12-04;2020-12-18;Alta medica melhorado;14;2020-12-15;UTI;Tempo E Ativid. Protrombina (Tp);Tempo de Protrombina;12.9;segundos;10,1 a 12,8;False
1A9847F95F2853E73C897185CEB46A9E;118A2E7A5EFF07C553A317FD68616536;M;1982;2020-12-04;2020-12-18;Alta medica melhorado;14;2020-12-16;UTI;Tempo E Ativid. Protrombina (Tp);Tempo de Protrombina;12.2;segundos;10,1 a 12,8;False
1A9847F95F2853E73C897185CEB46A9E;118A2E7A5EFF07C553A317FD68616536;M;1982;2020-12-04;2020-12-18;Alta medica melhorado;14;2020-12-04;UTI;Tempo E Ativid. Protrombina (Tp);Tempo de Protrombina;13.0;segundos;10,1 a 12,8;False
1AC4AECFFD37FEFEABAD4FC2F57E777A;8A51AD86B3E3B6FF670CB973BCBEA648;M;1984;2020-05-04;2020-05-16;Alta medica curado;12;2020-05-09;UTI;Tempo E Ativid. Protrombina (Tp);Tempo de Protrombina;14.3;segundos;10,1 a 12,8;False
1AC4AECFFD37FEFEABAD4FC2F57E777A;8A51AD86B3E3B6FF670CB973BCBEA648;M;1984;2020-05-04;2020-05-16;Alta medica curado;12;2020-05-04;UTI;Tempo E Ativid. Protrombina (Tp);Tempo de Protrombina;14.8;segundos;10,1 a 12,8;False
1AC4AECFFD37FEFEABAD4FC2F57E777A;8A51AD86B3E3B6FF670CB973BCBEA648;M;1984;2020-05-04;2020-05-16;Alta medica curado;12;2020-05-04;UTI;Tempo E Ativid. Protrombina (Tp);Tempo de Protrombina;13.5;segundos;10,1 a 12,8;False
1BB3B4F98ECF181E3E71EBD2743E69A7;A973EE096F5A17E5EAA6778939355926;M;1972;2020-11-10;2020-11-22;Alta medica melhorado;12;2020-11-11;UTI;Tempo E Ativid. Protrombina (Tp);Tempo de Protrombina;12.4;segundos;10,1 a 12,8;False
1C31B8E34F89E0AA7823024CA0D9AA01;F7FACD0B9D392D9E211670EE0F36065A;M;1981;2020-09-16;2020-09-26;Alta medica melhorado;10;2020-09-16;Unidades de Internacao;Tempo E Ativid. Protrombina (Tp);Tempo de Protrombina;11.6;segundos;10,1 a 12,8;False
1E3EDF92D8E711CFA4F3DB90B39CAADD;3872C812F4E886EA6853527A4BA89D31;M;1976;2020-05-18;2020-05-26;Alta medica melhorado;8;2020-05-18;UTI;Tempo E Ativid. Protrombina (Tp);Tempo de Protrombina;13.0;segundos;10,1 a 12,8;False
1EBD35B8739F28DD9E56A148EA19A8F3;7AF0426A43DFFD9701D0A1850C55B7CF;M;1973;2020-06-23;2020-06-30;Alta medica melhorado;7;2020-06-24;UTI;Tempo E Ativid. Protrombina (Tp);Tempo de Protrombina;13.6;segundos;10,1 a 12,8;False
1EBD35B8739F28DD9E56A148EA19A8F3;7AF0426A43DFFD9701D0A1850C55B7CF;M;1973;2020-06-23;2020-06-30;Alta medica melhorado;7;2020-06-25;UTI;Tempo E Ativid. Protrombina (Tp);Tempo de Protrombina;11.3;segundos;10,1 a 12,8;False
1EBD35B8739F28DD9E56A148EA19A8F3;7AF0426A43DFFD9701D0A1850C55B7CF;M;1973;2020-06-23;2020-06-30;Alta medica melhorado;7;2020-06-24;UTI;Tempo E Ativid. Protrombina (Tp);Tempo de Protrombina;12.9;segundos;10,1 a 12,8;False
1EBD35B8739F28DD9E56A148EA19A8F3;7AF0426A43DFFD9701D0A1850C55B7CF;M;1973;2020-06-23;2020-06-30;Alta medica melhorado;7;2020-06-23;UTI;Tempo E Ativid. Protrombina (Tp);Tempo de Protrombina;14.1;segundos;10,1 a 12,8;False
1F6DF737A24216DD85A29332501A50B9;A331F988EAFDD88E043FB96743CC4655;M;1983;2020-08-06;2020-08-13;Alta medica melhorado;7;2020-08-06;Unidades de Internacao;Tempo E Ativid. Protrombina (Tp);Tempo de Protrombina;11.8;segundos;10,1 a 12,8;False
205D594619506E3751F97BCB3F2BE66A;A8D4FBAE88DEC0332EAF6148B6285845;M;1992;2020-07-31;2020-08-03;Alta medica melhorado;3;2020-07-31;Unidades de Internacao;Tempo E Ativid. Protrombina (Tp);Tempo de Protrombina;17.4;segundos;10,1 a 12,8;True
221F125BA52439E8790494D8EAB45146;95F762FB3B53C111F6011A31FDDDACB1;M;1982;2020-11-01;2020-11-07;Alta medica melhorado;6;2020-11-01;Unidades de Internacao;Tempo E Ativid. Protrombina (Tp);Tempo de Protrombina;12.2;segundos;10,1 a 12,8;False
275DA3F9A45DCEDFA638EA8F5D34D150;091ECF083CA28AB21211E1AC7B71DD3C;M;1973;2020-08-08;2020-08-15;Alta medica melhorado;7;2020-08-08;UTI;Tempo E Ativid. Protrombina (Tp);Tempo de Protrombina;12.4;segundos;10,1 a 12,8;False
275DA3F9A45DCEDFA638EA8F5D34D150;091ECF083CA28AB21211E1AC7B71DD3C;M;1973;2020-08-08;2020-08-15;Alta medica melhorado;7;2020-08-11;UTI;Tempo E Ativid. Protrombina (Tp);Tempo de Protrombina;12.2;segundos;10,1 a 12,8;False
275DA3F9A45DCEDFA638EA8F5D34D150;091ECF083CA28AB21211E1AC7B71DD3C;M;1973;2020-08-08;2020-08-15;Alta medica melhorado;7;2020-08-09;UTI;Tempo E Ativid. Protrombina (Tp);Tempo de Protrombina;12.1;segundos;10,1 a 12,8;False
2A549945030A285EA74F638BB95BCB5D;8AC42995AAA0DA2C7282B10821A97BB6;M;1986;2020-12-11;2020-12-16;Alta medica melhorado;5;2020-12-11;Unidades de Internacao;Tempo E Ativid. Protrombina (Tp);Tempo de Protrombina;13.6;segundos;10,1 a 12,8;False
2C73E3EA44EF887B11B6734FA02E2A24;1C7563C1992D0968C13A45954E86A61A;M;1978;2020-05-29;2020-06-11;Alta medica melhorado;13;2020-05-31;UTI;Tempo E Ativid. Protrombina (Tp);Tempo de Protrombina;13.3;segundos;10,1 a 12,8;False
2C73E3EA44EF887B11B6734FA02E2A24;1C7563C1992D0968C13A45954E86A61A;M;1978;2020-05-29;2020-06-11;Alta medica melhorado;13;2020-05-29;UTI;Tempo E Ativid. Protrombina (Tp);Tempo de Protrombina;15.5;segundos;10,1 a 12,8;False
2D2872B4877E7B3C9F75AFA2A301A083;F29B4FA8D380FDA9887F4CF17B8C032B;M;1975;2020-12-04;2020-12-12;Alta medica melhorado;8;2020-12-06;Unidades de Internacao;Tempo E Ativid. Protrombina (Tp);Tempo de Protrombina;18.4;segundos;10,1 a 12,8;True
2D2872B4877E7B3C9F75AFA2A301A083;F29B4FA8D380FDA9887F4CF17B8C032B;M;1975;2020-12-04;2020-12-12;Alta medica melhorado;8;2020-12-05;UTI;Tempo E Ativid. Protrombina (Tp);Tempo de Protrombina;20.8;segundos;10,1 a 12,8;True
2D2872B4877E7B3C9F75AFA2A301A083;F29B4FA8D380FDA9887F4CF17B8C032B;M;1975;2020-12-04;2020-12-12;Alta medica melhorado;8;2020-12-05;UTI;Tempo E Ativid. Protrombina (Tp);Tempo de Protrombina;20.9;segundos;10,1 a 12,8;True
2D2872B4877E7B3C9F75AFA2A301A083;F29B4FA8D380FDA9887F4CF17B8C032B;M;1975;2020-12-04;2020-12-12;Alta medica melhorado;8;2020-12-05;UTI;Tempo E Ativid. Protrombina (Tp);Tempo de Protrombina;18.8;segundos;10,1 a 12,8;True
2D8FA64EADAC298D990AFF5056CE74E2;45586AC66465001B489E9F9C719CAAF2;M;1983;2020-12-14;2020-12-21;Alta medica melhorado;7;2020-12-14;UTI;Tempo E Ativid. Protrombina (Tp);Tempo de Protrombina;11.3;segundos;10,1 a 12,8;False
2FFB052315DDFF8E553A8EF37EA7BC2E;3CF7A26A0E3AC02543EA6AB4B8FAF01E;M;1988;2020-10-11;2020-10-15;Alta medica melhorado;4;2020-10-12;Unidades de Internacao;Tempo E Ativid. Protrombina (Tp);Tempo de Protrombina;12.7;segundos;10,1 a 12,8;False
312C3ACC5DF34BF537CBA7F3F02F27DD;414A0F1839C73C251014B9418E3DC86D;M;1977;2020-10-10;2020-10-18;Alta medica melhorado;8;2020-10-10;Unidades de Internacao;Tempo E Ativid. Protrombina (Tp);Tempo de Protrombina;12.7;segundos;10,1 a 12,8;False
3400179DE31CD28E6DD1D2368A7304DC;1C7BD18231EAFDD05067DD30EB2F450D;M;1974;2020-11-27;2020-12-03;Alta medica Inalterado;6;2020-11-27;Unidades de Internacao;Tempo E Ativid. Protrombina (Tp);Tempo de Protrombina;11.4;segundos;10,1 a 12,8;False
3400179DE31CD28E6DD1D2368A7304DC;1C7BD18231EAFDD05067DD30EB2F450D;M;1974;2020-11-27;2020-12-03;Alta medica Inalterado;6;2020-11-29;Unidades de Internacao;Tempo E Ativid. Protrombina (Tp);Tempo de Protrombina;11.6;segundos;10,1 a 12,8;False
3400179DE31CD28E6DD1D2368A7304DC;A5D6E758FF32B7CB34C9AF628636FA81;M;1974;2020-12-07;2020-12-09;Alta medica melhorado;2;2020-12-07;Unidades de Internacao;Tempo E Ativid. Protrombina (Tp);Tempo de Protrombina;11.5;segundos;10,1 a 12,8;False
388775F5D2E2345159A6B175C0B0949C;0DD26CB1CC068B4EB7939CB34C643245;M;1979;2020-09-18;2020-09-26;Alta medica melhorado;8;2020-09-22;Unidades de Internacao;Tempo E Ativid. Protrombina (Tp);Tempo de Protrombina;12.4;segundos;10,1 a 12,8;False
388775F5D2E2345159A6B175C0B0949C;0DD26CB1CC068B4EB7939CB34C643245;M;1979;2020-09-18;2020-09-26;Alta medica melhorado;8;2020-09-23;Unidades de Internacao;Tempo E Ativid. Protrombina (Tp);Tempo de Protrombina;12.8;segundos;10,1 a 12,8;False
388775F5D2E2345159A6B175C0B0949C;0DD26CB1CC068B4EB7939CB34C643245;M;1979;2020-09-18;2020-09-26;Alta medica melhorado;8;2020-09-20;UTI;Tempo E Ativid. Protrombina (Tp);Tempo de Protrombina;12.2;segundos;10,1 a 12,8;False
388775F5D2E2345159A6B175C0B0949C;0DD26CB1CC068B4EB7939CB34C643245;M;1979;2020-09-18;2020-09-26;Alta medica melhorado;8;2020-09-20;UTI;Tempo E Ativid. Protrombina (Tp);Tempo de Protrombina;12.6;segundos;10,1 a 12,8;False
388775F5D2E2345159A6B175C0B0949C;0DD26CB1CC068B4EB7939CB34C643245;M;1979;2020-09-18;2020-09-26;Alta medica melhorado;8;2020-09-19;UTI;Tempo E Ativid. Protrombina (Tp);Tempo de Protrombina;13.5;segundos;10,1 a 12,8;False
388775F5D2E2345159A6B175C0B0949C;0DD26CB1CC068B4EB7939CB34C643245;M;1979;2020-09-18;2020-09-26;Alta medica melhorado;8;2020-09-19;UTI;Tempo E Ativid. Protrombina (Tp);Tempo de Protrombina;13.6;segundos;10,1 a 12,8;False
388775F5D2E2345159A6B175C0B0949C;0DD26CB1CC068B4EB7939CB34C643245;M;1979;2020-09-18;2020-09-26;Alta medica melhorado;8;2020-09-21;UTI;Tempo E Ativid. Protrombina (Tp);Tempo de Protrombina;14.3;segundos;10,1 a 12,8;False
3C232A34B3A4C8F458C467FF532F9AC5;C4E0C96076FDF4CD5DB7F87C2CF61D66;M;1983;2020-05-26;2020-06-05;Alta medica melhorado;10;2020-05-26;UTI;Tempo E Ativid. Protrombina (Tp);Tempo de Protrombina;12.3;segundos;10,1 a 12,8;False
3C232A34B3A4C8F458C467FF532F9AC5;C4E0C96076FDF4CD5DB7F87C2CF61D66;M;1983;2020-05-26;2020-06-05;Alta medica melhorado;10;2020-05-29;UTI;Tempo E Ativid. Protrombina (Tp);Tempo de Protrombina;11.8;segundos;10,1 a 12,8;False
3E72C52BCB0D7EA1C5D85204597DF2DD;86DE9D93C94F3E84565DC8ABB3BAF8B5;M;1975;2020-05-18;2020-05-23;Alta medica melhorado;5;2020-05-18;Unidades de Internacao;Tempo E Ativid. Protrombina (Tp);Tempo de Protrombina;12.2;segundos;10,1 a 12,8;False
3E7ECC131C345570BC6961EE9F7C8E33;9B97E1EEBF2BC3E059A9DD30934DD98F;M;1989;2020-05-24;2020-06-02;Alta medica melhorado;9;2020-05-24;UTI;Tempo E Ativid. Protrombina (Tp);Tempo de Protrombina;13.8;segundos;10,1 a 12,8;False
3E7ECC131C345570BC6961EE9F7C8E33;9B97E1EEBF2BC3E059A9DD30934DD98F;M;1989;2020-05-24;2020-06-02;Alta medica melhorado;9;2020-05-27;Unidades de Internacao;Tempo E Ativid. Protrombina (Tp);Tempo de Protrombina;12.2;segundos;10,1 a 12,8;False
3E9A2A991A04F37261A3AAED18DC5DC1;533659910FF867FA0D0E64BCE2C83307;M;1977;2020-11-21;2020-11-29;Alta medica melhorado;8;2020-11-21;Unidades de Internacao;Tempo E Ativid. Protrombina (Tp);Tempo de Protrombina;12.0;segundos;10,1 a 12,8;False
3FC618E35CE334C0BB939DCA3819CBD5;7F74737C9274988A6641ED16F14999CE;M;1988;2020-09-24;2020-10-05;Alta medica melhorado;11;2020-09-24;UTI;Tempo E Ativid. Protrombina (Tp);Tempo de Protrombina;12.5;segundos;10,1 a 12,8;False
42DABE2E6286CF615054F8AE42A2D912;27EE47694A56A4C3E90C6AE4D3441D8F;M;1981;2020-10-25;2020-10-27;Alta medica melhorado;2;2020-10-26;Unidades de Internacao;Tempo E Ativid. Protrombina (Tp);Tempo de Protrombina;13.4;segundos;10,1 a 12,8;False
4464531BB3CDDD2F87CFA3946FD4EF43;9BE97E21AFB1188FF404F768931A057C;M;1989;2020-11-05;2020-11-09;Alta medica melhorado;4;2020-11-05;Unidades de Internacao;Tempo E Ativid. Protrombina (Tp);Tempo de Protrombina;13.9;segundos;10,1 a 12,8;False
45CC4361D0C16DB68A270354E8429BF2;C543B23337805C4EDCE0EBFFB004CA08;M;1976;2020-11-13;2020-11-19;Alta medica melhorado;6;2020-11-13;UTI;Tempo E Ativid. Protrombina (Tp);Tempo de Protrombina;13.7;segundos;10,1 a 12,8;False
4750FC1C2952FDA9F4FD9B1F88B013C2;7A3DD6FBB61F3B2BADF48B4E3A261097;M;1985;2020-04-07;2020-04-18;Alta medica melhorado;11;2020-04-07;Unidades de Internacao;Tempo E Ativid. Protrombina (Tp);Tempo de Protrombina;13.7;segundos;10,1 a 12,8;False
477D0790393A23FFC6228034D6B08D8A;318B5978D581270F8D65B432A73A592C;M;1979;2020-09-23;2020-09-28;Alta medica melhorado;5;2020-09-23;Unidades de Internacao;Tempo E Ativid. Protrombina (Tp);Tempo de Protrombina;12.3;segundos;10,1 a 12,8;False
495E67D109A9233DA13660CF0C909071;52B9B013CCCDFD24A185D09F906D7007;M;1992;2020-12-13;2020-12-18;Alta medica melhorado;5;2020-12-13;Unidades de Internacao;Tempo E Ativid. Protrombina (Tp);Tempo de Protrombina;13.6;segundos;10,1 a 12,8;False
495E67D109A9233DA13660CF0C909071;DAFAB51535E55D1AF768269B37CE0BF8;M;1992;2020-04-18;2020-04-21;Alta medica melhorado;3;2020-04-18;Unidades de Internacao;Tempo E Ativid. Protrombina (Tp);Tempo de Protrombina;12.8;segundos;10,1 a 12,8;False
4AD7B823E33E91F464EC0B3C88EA42E5;6FF3807680EA9A3A52D4A6DC17955B4F;M;1975;2020-03-02;2020-03-12;Alta medica melhorado;10;2020-03-02;Unidades de Internacao;Tempo E Ativid. Protrombina (Tp);Tempo de Protrombina;11.6;segundos;10,1 a 12,8;False
4AD7B823E33E91F464EC0B3C88EA42E5;84E6AA481402E87E8CAB9C4C2326E407;M;1975;2020-06-30;2020-07-11;Alta medica melhorado;11;2020-06-30;Unidades de Internacao;Tempo E Ativid. Protrombina (Tp);Tempo de Protrombina;11.7;segundos;10,1 a 12,8;False
4AD7B823E33E91F464EC0B3C88EA42E5;84E6AA481402E87E8CAB9C4C2326E407;M;1975;2020-06-30;2020-07-11;Alta medica melhorado;11;2020-07-03;Unidades de Internacao;Tempo E Ativid. Protrombina (Tp);Tempo de Protrombina;11.4;segundos;10,1 a 12,8;False
4DB65F4B4507E342776AB2282B3A3C3B;0CF1D9161AE57C6449834BB3CA118033;M;1986;2020-08-10;2020-08-15;Alta Administrativa;5;2020-08-11;Hemodialise;Tempo E Ativid. Protrombina (Tp);Tempo de Protrombina;13.3;segundos;10,1 a 12,8;False
4DB65F4B4507E342776AB2282B3A3C3B;1523ECA203CF3E32898A31CEA25A9DAF;M;1986;2020-07-07;2020-07-27;Alta medica melhorado;20;2020-07-22;Unidades de Internacao;Tempo E Ativid. Protrombina (Tp);Tempo de Protrombina;11.5;segundos;10,1 a 12,8;False
4DB65F4B4507E342776AB2282B3A3C3B;1523ECA203CF3E32898A31CEA25A9DAF;M;1986;2020-07-07;2020-07-27;Alta medica melhorado;20;2020-07-18;Unidades de Internacao;Tempo E Ativid. Protrombina (Tp);Tempo de Protrombina;11.2;segundos;10,1 a 12,8;False
4DB65F4B4507E342776AB2282B3A3C3B;1523ECA203CF3E32898A31CEA25A9DAF;M;1986;2020-07-07;2020-07-27;Alta medica melhorado;20;2020-07-24;Unidades de Internacao;Tempo E Ativid. Protrombina (Tp);Tempo de Protrombina;15.4;segundos;10,1 a 12,8;False
4DB65F4B4507E342776AB2282B3A3C3B;1523ECA203CF3E32898A31CEA25A9DAF;M;1986;2020-07-07;2020-07-27;Alta medica melhorado;20;2020-07-07;Unidades de Internacao;Tempo E Ativid. Protrombina (Tp);Tempo de Protrombina;11.4;segundos;10,1 a 12,8;False
4DB65F4B4507E342776AB2282B3A3C3B;1523ECA203CF3E32898A31CEA25A9DAF;M;1986;2020-07-07;2020-07-27;Alta medica melhorado;20;2020-07-26;Unidades de Internacao;Tempo E Ativid. Protrombina (Tp);Tempo de Protrombina;36.3;segundos;10,1 a 12,8;True
4DB65F4B4507E342776AB2282B3A3C3B;1523ECA203CF3E32898A31CEA25A9DAF;M;1986;2020-07-07;2020-07-27;Alta medica melhorado;20;2020-07-23;Unidades de Internacao;Tempo E Ativid. Protrombina (Tp);Tempo de Protrombina;12.6;segundos;10,1 a 12,8;False
4DB65F4B4507E342776AB2282B3A3C3B;3C10C44CC7C026321679D839372D2068;M;1986;2020-08-17;2020-08-22;Alta Administrativa;5;2020-08-20;Hemodialise;Tempo E Ativid. Protrombina (Tp);Tempo de Protrombina;50.3;segundos;10,1 a 12,8;True
4DB65F4B4507E342776AB2282B3A3C3B;3C10C44CC7C026321679D839372D2068;M;1986;2020-08-17;2020-08-22;Alta Administrativa;5;2020-08-22;Hemodialise;Tempo E Ativid. Protrombina (Tp);Tempo de Protrombina;29.9;segundos;10,1 a 12,8;True
4DB65F4B4507E342776AB2282B3A3C3B;90223DF59B20392C8B92192AD238B17C;M;1986;2020-08-24;2020-08-29;Alta Administrativa;5;2020-08-29;Hemodialise;Tempo E Ativid. Protrombina (Tp);Tempo de Protrombina;14.3;segundos;10,1 a 12,8;False
4DB65F4B4507E342776AB2282B3A3C3B;90223DF59B20392C8B92192AD238B17C;M;1986;2020-08-24;2020-08-29;Alta Administrativa;5;2020-08-27;Hemodialise;Tempo E Ativid. Protrombina (Tp);Tempo de Protrombina;14.7;segundos;10,1 a 12,8;False
4DB65F4B4507E342776AB2282B3A3C3B;96481ADDE43E7D6136B35C1A179328EC;M;1986;2020-08-31;2020-09-05;Alta Administrativa;5;2020-09-05;Hemodialise;Tempo E Ativid. Protrombina (Tp);Tempo de Protrombina;14.5;segundos;10,1 a 12,8;False
4DB65F4B4507E342776AB2282B3A3C3B;96481ADDE43E7D6136B35C1A179328EC;M;1986;2020-08-31;2020-09-05;Alta Administrativa;5;2020-09-01;Hemodialise;Tempo E Ativid. Protrombina (Tp);Tempo de Protrombina;29.3;segundos;10,1 a 12,8;True
4DB65F4B4507E342776AB2282B3A3C3B;ADB3FFE072FCE1B4A0D56AA040FF9659;M;1986;2020-08-03;2020-08-08;Alta Administrativa;5;2020-08-06;Hemodialise;Tempo E Ativid. Protrombina (Tp);Tempo de Protrombina;14.8;segundos;10,1 a 12,8;False
4DB65F4B4507E342776AB2282B3A3C3B;B60DC02FFE4ADFF27A2678D408D55FE9;M;1986;2020-07-28;2020-08-01;Alta Administrativa;4;2020-07-30;Hemodialise;Tempo E Ativid. Protrombina (Tp);Tempo de Protrombina;43.0;segundos;10,1 a 12,8;True
4DB65F4B4507E342776AB2282B3A3C3B;B60DC02FFE4ADFF27A2678D408D55FE9;M;1986;2020-07-28;2020-08-01;Alta Administrativa;4;2020-08-01;Hemodialise;Tempo E Ativid. Protrombina (Tp);Tempo de Protrombina;35.0;segundos;10,1 a 12,8;True
4E47EA303D46FD96E74153C80784C16E;816B2EF2BC30CF7F6A6C7AC92D487E67;M;1984;2020-11-14;2020-11-17;Alta medica melhorado;3;2020-11-14;Unidades de Internacao;Tempo E Ativid. Protrombina (Tp);Tempo de Protrombina;12.0;segundos;10,1 a 12,8;False
4EF8F819365BE6F1CDBEF0CF30A93171;9991FD8F66F76154F69A75444A5BA3D7;M;1993;2020-04-20;2020-04-23;Alta medica melhorado;3;2020-04-20;Unidades de Internacao;Tempo E Ativid. Protrombina (Tp);Tempo de Protrombina;11.3;segundos;10,1 a 12,8;False
4FF4D80A41C10D1FB3789904B43DC5BD;4A187A8F5C213F2B9DD345079D4586FC;M;1974;2020-04-17;2020-05-14;Alta medica melhorado;27;2020-04-17;UTI;Tempo E Ativid. Protrombina (Tp);Tempo de Protrombina;11.8;segundos;10,1 a 12,8;False
4FF4D80A41C10D1FB3789904B43DC5BD;4A187A8F5C213F2B9DD345079D4586FC;M;1974;2020-04-17;2020-05-14;Alta medica melhorado;27;2020-04-17;UTI;Tempo E Ativid. Protrombina (Tp);Tempo de Protrombina;11.8;segundos;10,1 a 12,8;False
4FF4D80A41C10D1FB3789904B43DC5BD;4A187A8F5C213F2B9DD345079D4586FC;M;1974;2020-04-17;2020-05-14;Alta medica melhorado;27;2020-04-19;UTI;Tempo E Ativid. Protrombina (Tp);Tempo de Protrombina;12.3;segundos;10,1 a 12,8;False
50F9B38AFE79E5FA75AFBEB41E70D12C;F030D1272D53862FBD131CAF778C6FAE;M;1980;2020-03-12;2020-03-25;Alta medica melhorado;13;2020-03-17;Unidades de Internacao;Tempo E Ativid. Protrombina (Tp);Tempo de Protrombina;13.2;segundos;10,1 a 12,8;False
50F9B38AFE79E5FA75AFBEB41E70D12C;F030D1272D53862FBD131CAF778C6FAE;M;1980;2020-03-12;2020-03-25;Alta medica melhorado;13;2020-03-23;Unidades de Internacao;Tempo E Ativid. Protrombina (Tp);Tempo de Protrombina;12.1;segundos;10,1 a 12,8;False
5380C23D74E7A745698CADE7FB218456;FF21301DFD82DF0337BBA028988A4762;M;1996;2020-11-14;2020-11-29;Alta medica melhorado;15;2020-11-23;UTI;Tempo E Ativid. Protrombina (Tp);Tempo de Protrombina;15.4;segundos;10,1 a 12,8;False
5380C23D74E7A745698CADE7FB218456;FF21301DFD82DF0337BBA028988A4762;M;1996;2020-11-14;2020-11-29;Alta medica melhorado;15;2020-11-21;UTI;Tempo E Ativid. Protrombina (Tp);Tempo de Protrombina;17.7;segundos;10,1 a 12,8;True
5380C23D74E7A745698CADE7FB218456;FF21301DFD82DF0337BBA028988A4762;M;1996;2020-11-14;2020-11-29;Alta medica melhorado;15;2020-11-20;UTI;Tempo E Ativid. Protrombina (Tp);Tempo de Protrombina;18.6;segundos;10,1 a 12,8;True
5494273A26E9ADA1E7800FB968D09819;EB4F0FBAB232916DB8AEB4E57849E655;M;1978;2020-05-08;2020-06-02;Alta medica melhorado;25;2020-05-18;UTI;Tempo E Ativid. Protrombina (Tp);Tempo de Protrombina;13.8;segundos;10,1 a 12,8;False
58FDE7E201CEC6A53EC0F82353C3F31D;98EC11D77B354F9FAC7FD6881FB0256E;M;1974;2020-06-15;2020-08-12;Alta medica melhorado;58;2020-07-21;UTI;Tempo E Ativid. Protrombina (Tp);Tempo de Protrombina;12.8;segundos;10,1 a 12,8;False
58FDE7E201CEC6A53EC0F82353C3F31D;98EC11D77B354F9FAC7FD6881FB0256E;M;1974;2020-06-15;2020-08-12;Alta medica melhorado;58;2020-06-30;UTI;Tempo E Ativid. Protrombina (Tp);Tempo de Protrombina;12.3;segundos;10,1 a 12,8;False
58FDE7E201CEC6A53EC0F82353C3F31D;98EC11D77B354F9FAC7FD6881FB0256E;M;1974;2020-06-15;2020-08-12;Alta medica melhorado;58;2020-07-22;UTI;Tempo E Ativid. Protrombina (Tp);Tempo de Protrombina;12.6;segundos;10,1 a 12,8;False
58FDE7E201CEC6A53EC0F82353C3F31D;98EC11D77B354F9FAC7FD6881FB0256E;M;1974;2020-06-15;2020-08-12;Alta medica melhorado;58;2020-06-23;UTI;Tempo E Ativid. Protrombina (Tp);Tempo de Protrombina;12.8;segundos;10,1 a 12,8;False
58FDE7E201CEC6A53EC0F82353C3F31D;98EC11D77B354F9FAC7FD6881FB0256E;M;1974;2020-06-15;2020-08-12;Alta medica melhorado;58;2020-07-16;UTI;Tempo E Ativid. Protrombina (Tp);Tempo de Protrombina;14.1;segundos;10,1 a 12,8;False
58FDE7E201CEC6A53EC0F82353C3F31D;98EC11D77B354F9FAC7FD6881FB0256E;M;1974;2020-06-15;2020-08-12;Alta medica melhorado;58;2020-07-11;UTI;Tempo E Ativid. Protrombina (Tp);Tempo de Protrombina;13.4;segundos;10,1 a 12,8;False
58FDE7E201CEC6A53EC0F82353C3F31D;98EC11D77B354F9FAC7FD6881FB0256E;M;1974;2020-06-15;2020-08-12;Alta medica melhorado;58;2020-07-24;UTI;Tempo E Ativid. Protrombina (Tp);Tempo de Protrombina;12.4;segundos;10,1 a 12,8;False
58FDE7E201CEC6A53EC0F82353C3F31D;98EC11D77B354F9FAC7FD6881FB0256E;M;1974;2020-06-15;2020-08-12;Alta medica melhorado;58;2020-07-23;UTI;Tempo E Ativid. Protrombina (Tp);Tempo de Protrombina;12.2;segundos;10,1 a 12,8;False
58FDE7E201CEC6A53EC0F82353C3F31D;98EC11D77B354F9FAC7FD6881FB0256E;M;1974;2020-06-15;2020-08-12;Alta medica melhorado;58;2020-07-03;UTI;Tempo E Ativid. Protrombina (Tp);Tempo de Protrombina;12.7;segundos;10,1 a 12,8;False
58FDE7E201CEC6A53EC0F82353C3F31D;98EC11D77B354F9FAC7FD6881FB0256E;M;1974;2020-06-15;2020-08-12;Alta medica melhorado;58;2020-06-18;UTI;Tempo E Ativid. Protrombina (Tp);Tempo de Protrombina;12.2;segundos;10,1 a 12,8;False
58FDE7E201CEC6A53EC0F82353C3F31D;98EC11D77B354F9FAC7FD6881FB0256E;M;1974;2020-06-15;2020-08-12;Alta medica melhorado;58;2020-06-26;UTI;Tempo E Ativid. Protrombina (Tp);Tempo de Protrombina;13.3;segundos;10,1 a 12,8;False
58FDE7E201CEC6A53EC0F82353C3F31D;98EC11D77B354F9FAC7FD6881FB0256E;M;1974;2020-06-15;2020-08-12;Alta medica melhorado;58;2020-06-24;UTI;Tempo E Ativid. Protrombina (Tp);Tempo de Protrombina;13.5;segundos;10,1 a 12,8;False
58FDE7E201CEC6A53EC0F82353C3F31D;98EC11D77B354F9FAC7FD6881FB0256E;M;1974;2020-06-15;2020-08-12;Alta medica melhorado;58;2020-06-16;UTI;Tempo E Ativid. Protrombina (Tp);Tempo de Protrombina;12.7;segundos;10,1 a 12,8;False
58FDE7E201CEC6A53EC0F82353C3F31D;98EC11D77B354F9FAC7FD6881FB0256E;M;1974;2020-06-15;2020-08-12;Alta medica melhorado;58;2020-07-27;UTI;Tempo E Ativid. Protrombina (Tp);Tempo de Protrombina;13.1;segundos;10,1 a 12,8;False
58FDE7E201CEC6A53EC0F82353C3F31D;98EC11D77B354F9FAC7FD6881FB0256E;M;1974;2020-06-15;2020-08-12;Alta medica melhorado;58;2020-07-15;UTI;Tempo E Ativid. Protrombina (Tp);Tempo de Protrombina;13.5;segundos;10,1 a 12,8;False
58FDE7E201CEC6A53EC0F82353C3F31D;98EC11D77B354F9FAC7FD6881FB0256E;M;1974;2020-06-15;2020-08-12;Alta medica melhorado;58;2020-07-18;UTI;Tempo E Ativid. Protrombina (Tp);Tempo de Protrombina;12.8;segundos;10,1 a 12,8;False
58FDE7E201CEC6A53EC0F82353C3F31D;98EC11D77B354F9FAC7FD6881FB0256E;M;1974;2020-06-15;2020-08-12;Alta medica melhorado;58;2020-07-01;UTI;Tempo E Ativid. Protrombina (Tp);Tempo de Protrombina;12.7;segundos;10,1 a 12,8;False
58FDE7E201CEC6A53EC0F82353C3F31D;98EC11D77B354F9FAC7FD6881FB0256E;M;1974;2020-06-15;2020-08-12;Alta medica melhorado;58;2020-07-29;UTI;Tempo E Ativid. Protrombina (Tp);Tempo de Protrombina;12.8;segundos;10,1 a 12,8;False
58FDE7E201CEC6A53EC0F82353C3F31D;98EC11D77B354F9FAC7FD6881FB0256E;M;1974;2020-06-15;2020-08-12;Alta medica melhorado;58;2020-06-19;UTI;Tempo E Ativid. Protrombina (Tp);Tempo de Protrombina;11.7;segundos;10,1 a 12,8;False
58FDE7E201CEC6A53EC0F82353C3F31D;98EC11D77B354F9FAC7FD6881FB0256E;M;1974;2020-06-15;2020-08-12;Alta medica melhorado;58;2020-06-18;UTI;Tempo E Ativid. Protrombina (Tp);Tempo de Protrombina;12.9;segundos;10,1 a 12,8;False
58FDE7E201CEC6A53EC0F82353C3F31D;98EC11D77B354F9FAC7FD6881FB0256E;M;1974;2020-06-15;2020-08-12;Alta medica melhorado;58;2020-07-30;UTI;Tempo E Ativid. Protrombina (Tp);Tempo de Protrombina;12.5;segundos;10,1 a 12,8;False
58FDE7E201CEC6A53EC0F82353C3F31D;98EC11D77B354F9FAC7FD6881FB0256E;M;1974;2020-06-15;2020-08-12;Alta medica melhorado;58;2020-06-19;UTI;Tempo E Ativid. Protrombina (Tp);Tempo de Protrombina;11.8;segundos;10,1 a 12,8;False
58FDE7E201CEC6A53EC0F82353C3F31D;98EC11D77B354F9FAC7FD6881FB0256E;M;1974;2020-06-15;2020-08-12;Alta medica melhorado;58;2020-07-26;UTI;Tempo E Ativid. Protrombina (Tp);Tempo de Protrombina;12.8;segundos;10,1 a 12,8;False
58FDE7E201CEC6A53EC0F82353C3F31D;98EC11D77B354F9FAC7FD6881FB0256E;M;1974;2020-06-15;2020-08-12;Alta medica melhorado;58;2020-07-17;UTI;Tempo E Ativid. Protrombina (Tp);Tempo de Protrombina;12.4;segundos;10,1 a 12,8;False
58FDE7E201CEC6A53EC0F82353C3F31D;98EC11D77B354F9FAC7FD6881FB0256E;M;1974;2020-06-15;2020-08-12;Alta medica melhorado;58;2020-07-10;UTI;Tempo E Ativid. Protrombina (Tp);Tempo de Protrombina;13.5;segundos;10,1 a 12,8;False
58FDE7E201CEC6A53EC0F82353C3F31D;98EC11D77B354F9FAC7FD6881FB0256E;M;1974;2020-06-15;2020-08-12;Alta medica melhorado;58;2020-07-03;UTI;Tempo E Ativid. Protrombina (Tp);Tempo de Protrombina;13.3;segundos;10,1 a 12,8;False
58FDE7E201CEC6A53EC0F82353C3F31D;98EC11D77B354F9FAC7FD6881FB0256E;M;1974;2020-06-15;2020-08-12;Alta medica melhorado;58;2020-07-04;UTI;Tempo E Ativid. Protrombina (Tp);Tempo de Protrombina;13.2;segundos;10,1 a 12,8;False
58FDE7E201CEC6A53EC0F82353C3F31D;98EC11D77B354F9FAC7FD6881FB0256E;M;1974;2020-06-15;2020-08-12;Alta medica melhorado;58;2020-06-27;UTI;Tempo E Ativid. Protrombina (Tp);Tempo de Protrombina;13.8;segundos;10,1 a 12,8;False
58FDE7E201CEC6A53EC0F82353C3F31D;98EC11D77B354F9FAC7FD6881FB0256E;M;1974;2020-06-15;2020-08-12;Alta medica melhorado;58;2020-06-21;UTI;Tempo E Ativid. Protrombina (Tp);Tempo de Protrombina;11.6;segundos;10,1 a 12,8;False
58FDE7E201CEC6A53EC0F82353C3F31D;98EC11D77B354F9FAC7FD6881FB0256E;M;1974;2020-06-15;2020-08-12;Alta medica melhorado;58;2020-08-02;UTI;Tempo E Ativid. Protrombina (Tp);Tempo de Protrombina;12.5;segundos;10,1 a 12,8;False
58FDE7E201CEC6A53EC0F82353C3F31D;98EC11D77B354F9FAC7FD6881FB0256E;M;1974;2020-06-15;2020-08-12;Alta medica melhorado;58;2020-08-01;UTI;Tempo E Ativid. Protrombina (Tp);Tempo de Protrombina;13.0;segundos;10,1 a 12,8;False
58FDE7E201CEC6A53EC0F82353C3F31D;98EC11D77B354F9FAC7FD6881FB0256E;M;1974;2020-06-15;2020-08-12;Alta medica melhorado;58;2020-07-31;UTI;Tempo E Ativid. Protrombina (Tp);Tempo de Protrombina;12.6;segundos;10,1 a 12,8;False
58FDE7E201CEC6A53EC0F82353C3F31D;98EC11D77B354F9FAC7FD6881FB0256E;M;1974;2020-06-15;2020-08-12;Alta medica melhorado;58;2020-07-12;UTI;Tempo E Ativid. Protrombina (Tp);Tempo de Protrombina;13.8;segundos;10,1 a 12,8;False
58FDE7E201CEC6A53EC0F82353C3F31D;98EC11D77B354F9FAC7FD6881FB0256E;M;1974;2020-06-15;2020-08-12;Alta medica melhorado;58;2020-06-25;UTI;Tempo E Ativid. Protrombina (Tp);Tempo de Protrombina;13.3;segundos;10,1 a 12,8;False
58FDE7E201CEC6A53EC0F82353C3F31D;98EC11D77B354F9FAC7FD6881FB0256E;M;1974;2020-06-15;2020-08-12;Alta medica melhorado;58;2020-06-20;UTI;Tempo E Ativid. Protrombina (Tp);Tempo de Protrombina;11.6;segundos;10,1 a 12,8;False
58FDE7E201CEC6A53EC0F82353C3F31D;98EC11D77B354F9FAC7FD6881FB0256E;M;1974;2020-06-15;2020-08-12;Alta medica melhorado;58;2020-07-25;UTI;Tempo E Ativid. Protrombina (Tp);Tempo de Protrombina;12.2;segundos;10,1 a 12,8;False
58FDE7E201CEC6A53EC0F82353C3F31D;98EC11D77B354F9FAC7FD6881FB0256E;M;1974;2020-06-15;2020-08-12;Alta medica melhorado;58;2020-07-19;UTI;Tempo E Ativid. Protrombina (Tp);Tempo de Protrombina;13.0;segundos;10,1 a 12,8;False
58FDE7E201CEC6A53EC0F82353C3F31D;98EC11D77B354F9FAC7FD6881FB0256E;M;1974;2020-06-15;2020-08-12;Alta medica melhorado;58;2020-07-20;UTI;Tempo E Ativid. Protrombina (Tp);Tempo de Protrombina;12.9;segundos;10,1 a 12,8;False
58FDE7E201CEC6A53EC0F82353C3F31D;98EC11D77B354F9FAC7FD6881FB0256E;M;1974;2020-06-15;2020-08-12;Alta medica melhorado;58;2020-06-29;UTI;Tempo E Ativid. Protrombina (Tp);Tempo de Protrombina;12.5;segundos;10,1 a 12,8;False
58FDE7E201CEC6A53EC0F82353C3F31D;98EC11D77B354F9FAC7FD6881FB0256E;M;1974;2020-06-15;2020-08-12;Alta medica melhorado;58;2020-06-22;UTI;Tempo E Ativid. Protrombina (Tp);Tempo de Protrombina;12.4;segundos;10,1 a 12,8;False
58FDE7E201CEC6A53EC0F82353C3F31D;98EC11D77B354F9FAC7FD6881FB0256E;M;1974;2020-06-15;2020-08-12;Alta medica melhorado;58;2020-07-14;UTI;Tempo E Ativid. Protrombina (Tp);Tempo de Protrombina;13.3;segundos;10,1 a 12,8;False
58FDE7E201CEC6A53EC0F82353C3F31D;98EC11D77B354F9FAC7FD6881FB0256E;M;1974;2020-06-15;2020-08-12;Alta medica melhorado;58;2020-07-14;UTI;Tempo E Ativid. Protrombina (Tp);Tempo de Protrombina;13.7;segundos;10,1 a 12,8;False
58FDE7E201CEC6A53EC0F82353C3F31D;98EC11D77B354F9FAC7FD6881FB0256E;M;1974;2020-06-15;2020-08-12;Alta medica melhorado;58;2020-06-28;UTI;Tempo E Ativid. Protrombina (Tp);Tempo de Protrombina;13.6;segundos;10,1 a 12,8;False
58FDE7E201CEC6A53EC0F82353C3F31D;98EC11D77B354F9FAC7FD6881FB0256E;M;1974;2020-06-15;2020-08-12;Alta medica melhorado;58;2020-08-03;Unidades de Internacao;Tempo E Ativid. Protrombina (Tp);Tempo de Protrombina;11.4;segundos;10,1 a 12,8;False
5945BFEFF6A6D4D9046CC90F044AB3DF;CD09F340B5DE37EDA851B2A4D5B7AFBD;M;1982;2020-06-11;2020-06-21;Alta medica melhorado;10;2020-06-11;UTI;Tempo E Ativid. Protrombina (Tp);Tempo de Protrombina;13.0;segundos;10,1 a 12,8;False
5C2ADE4DCB146BEF332174AF43D5B411;56F97E326D24660609E7A331F6172C7B;M;1984;2020-08-28;2020-09-08;Alta medica melhorado;11;2020-08-29;UTI;Tempo E Ativid. Protrombina (Tp);Tempo de Protrombina;12.9;segundos;10,1 a 12,8;False
5F5AC03DB40564B6907DFADE9FE2AC10;7647BCD7701A31BA311B2E3FA34B55FD;M;1986;2020-03-20;2020-04-22;Alta medica melhorado;33;2020-03-21;Unidades de Internacao;Tempo E Ativid. Protrombina (Tp);Tempo de Protrombina;12.1;segundos;10,1 a 12,8;False
5F65B4B14B15017B11477ACA52933923;FAF74A04C14CE2630CDBD65B1FA7D394;M;1976;2020-07-17;2020-08-05;Alta medica melhorado;19;2020-07-29;UTI;Tempo E Ativid. Protrombina (Tp);Tempo de Protrombina;14.6;segundos;10,1 a 12,8;False
5F65B4B14B15017B11477ACA52933923;FAF74A04C14CE2630CDBD65B1FA7D394;M;1976;2020-07-17;2020-08-05;Alta medica melhorado;19;2020-07-21;UTI;Tempo E Ativid. Protrombina (Tp);Tempo de Protrombina;14.5;segundos;10,1 a 12,8;False
5F65B4B14B15017B11477ACA52933923;FAF74A04C14CE2630CDBD65B1FA7D394;M;1976;2020-07-17;2020-08-05;Alta medica melhorado;19;2020-07-22;UTI;Tempo E Ativid. Protrombina (Tp);Tempo de Protrombina;14.7;segundos;10,1 a 12,8;False
61C0DE7A15ABBF37EFF51808B8C98C2A;844A1376A255E66AE6C8E496C2AB245B;M;1980;2020-05-19;2020-05-28;Alta medica melhorado;9;2020-05-20;Unidades de Internacao;Tempo E Ativid. Protrombina (Tp);Tempo de Protrombina;12.2;segundos;10,1 a 12,8;False
63B60D38BB09A5E09495F2EFAEB5C48C;692BA8E4E2576DBBE9747D9886C1ABAB;M;1974;2020-10-05;2020-10-16;Alta medica melhorado;11;2020-10-05;UTI;Tempo E Ativid. Protrombina (Tp);Tempo de Protrombina;15.0;segundos;10,1 a 12,8;False
65A1797670A470119E8A2909164BBD0C;CAEC7A3644E047A5226D0AF1B34DABF9;M;1973;2020-08-10;2020-08-21;Alta medica melhorado;11;2020-08-20;UTI;Tempo E Ativid. Protrombina (Tp);Tempo de Protrombina;11.4;segundos;10,1 a 12,8;False
65A1797670A470119E8A2909164BBD0C;CAEC7A3644E047A5226D0AF1B34DABF9;M;1973;2020-08-10;2020-08-21;Alta medica melhorado;11;2020-08-10;UTI;Tempo E Ativid. Protrombina (Tp);Tempo de Protrombina;11.9;segundos;10,1 a 12,8;False
65CF157AD767F57E7B4C645421ADA04E;F128EFDE50334E420EB37646E4DF90BB;M;1990;2020-08-24;2020-08-28;Alta medica melhorado;4;2020-08-24;Unidades de Internacao;Tempo E Ativid. Protrombina (Tp);Tempo de Protrombina;11.7;segundos;10,1 a 12,8;False
665D839E4937E1559AF9EEA0BD6772D4;B6C4B5AA21E8FA91D281B929445EA182;M;1992;2020-10-28;2020-10-30;Alta Administrativa;2;2020-10-29;Oncologia Clinica - Itaim;Tempo E Ativid. Protrombina (Tp);Tempo de Protrombina;12.3;segundos;10,1 a 12,8;False
6688522AB8A03FA659460E58C4693832;A06A54F2F609DC32DF568C0A3133FB7E;M;1979;2020-04-13;2020-05-15;Alta medica melhorado;32;2020-04-13;UTI;Tempo E Ativid. Protrombina (Tp);Tempo de Protrombina;12.3;segundos;10,1 a 12,8;False
6719ED11DF53988643E038B42D1E09F9;0A8B826C2A245ED4A313C0C2204447C0;M;1979;2020-04-07;2020-04-26;Alta medica melhorado;19;2020-04-09;UTI;Tempo E Ativid. Protrombina (Tp);Tempo de Protrombina;12.9;segundos;10,1 a 12,8;False
6719ED11DF53988643E038B42D1E09F9;0A8B826C2A245ED4A313C0C2204447C0;M;1979;2020-04-07;2020-04-26;Alta medica melhorado;19;2020-04-25;Unidades de Internacao;Tempo E Ativid. Protrombina (Tp);Tempo de Protrombina;13.1;segundos;10,1 a 12,8;False
6A0F152CFA8FC4FCC3B316344AE1D921;24B33251FB66EC9CD1CB595CB8D234AC;M;1981;2020-10-28;2020-10-30;Alta medica melhorado;2;2020-10-28;Unidades de Internacao;Tempo E Ativid. Protrombina (Tp);Tempo de Protrombina;14.0;segundos;10,1 a 12,8;False
6B8162E25FF41FADC6BFF3A5004CD8A8;D1AA7B8576EFE2169001AD4D963C47B4;M;1979;2020-06-30;2020-07-10;Alta medica melhorado;10;2020-06-30;UTI;Tempo E Ativid. Protrombina (Tp);Tempo de Protrombina;13.0;segundos;10,1 a 12,8;False
6B8162E25FF41FADC6BFF3A5004CD8A8;D1AA7B8576EFE2169001AD4D963C47B4;M;1979;2020-06-30;2020-07-10;Alta medica melhorado;10;2020-07-03;UTI;Tempo E Ativid. Protrombina (Tp);Tempo de Protrombina;12.0;segundos;10,1 a 12,8;False
6B8162E25FF41FADC6BFF3A5004CD8A8;D1AA7B8576EFE2169001AD4D963C47B4;M;1979;2020-06-30;2020-07-10;Alta medica melhorado;10;2020-07-01;UTI;Tempo E Ativid. Protrombina (Tp);Tempo de Protrombina;11.7;segundos;10,1 a 12,8;False
6B8162E25FF41FADC6BFF3A5004CD8A8;D1AA7B8576EFE2169001AD4D963C47B4;M;1979;2020-06-30;2020-07-10;Alta medica melhorado;10;2020-06-30;UTI;Tempo E Ativid. Protrombina (Tp);Tempo de Protrombina;11.7;segundos;10,1 a 12,8;False
6B8162E25FF41FADC6BFF3A5004CD8A8;D1AA7B8576EFE2169001AD4D963C47B4;M;1979;2020-06-30;2020-07-10;Alta medica melhorado;10;2020-07-03;UTI;Tempo E Ativid. Protrombina (Tp);Tempo de Protrombina;12.4;segundos;10,1 a 12,8;False
6B8162E25FF41FADC6BFF3A5004CD8A8;D1AA7B8576EFE2169001AD4D963C47B4;M;1979;2020-06-30;2020-07-10;Alta medica melhorado;10;2020-07-04;UTI;Tempo E Ativid. Protrombina (Tp);Tempo de Protrombina;12.0;segundos;10,1 a 12,8;False
6E90A1D7EE0808B255B597990B861430;FF85894FAD964212BE5879B264202AE1;M;1978;2020-08-06;2020-09-12;Alta medica melhorado;37;2020-08-12;UTI;Tempo E Ativid. Protrombina (Tp);Tempo de Protrombina;12.7;segundos;10,1 a 12,8;False
6E90A1D7EE0808B255B597990B861430;FF85894FAD964212BE5879B264202AE1;M;1978;2020-08-06;2020-09-12;Alta medica melhorado;37;2020-08-06;UTI;Tempo E Ativid. Protrombina (Tp);Tempo de Protrombina;11.9;segundos;10,1 a 12,8;False
6F7E07377F2152F768C85EF6798459FA;ECF3B91D2EDD27735A1BF70A02CB87F7;M;1985;2020-12-16;2020-12-27;Alta medica melhorado;11;2020-12-16;Unidades de Internacao;Tempo E Ativid. Protrombina (Tp);Tempo de Protrombina;12.2;segundos;10,1 a 12,8;False
71A95C40D67FC91FFED0098A3627ABB3;8B3F90498E9920299EBA44B9F4DA302B;M;2000;2020-02-27;2020-03-10;Alta medica melhorado;12;2020-03-07;Unidades de Internacao;Tempo E Ativid. Protrombina (Tp);Tempo de Protrombina;12.1;segundos;10,1 a 12,8;False
71A95C40D67FC91FFED0098A3627ABB3;8B3F90498E9920299EBA44B9F4DA302B;M;2000;2020-02-27;2020-03-10;Alta medica melhorado;12;2020-03-01;UTI;Tempo E Ativid. Protrombina (Tp);Tempo de Protrombina;12.4;segundos;10,1 a 12,8;False
71A95C40D67FC91FFED0098A3627ABB3;8B3F90498E9920299EBA44B9F4DA302B;M;2000;2020-02-27;2020-03-10;Alta medica melhorado;12;2020-02-29;UTI;Tempo E Ativid. Protrombina (Tp);Tempo de Protrombina;13.3;segundos;10,1 a 12,8;False
71A95C40D67FC91FFED0098A3627ABB3;CF5D403CF4F61A9F39444FA4CF7D0F64;M;2000;2020-06-12;2020-06-18;Alta medica melhorado;6;2020-06-12;Unidades de Internacao;Tempo E Ativid. Protrombina (Tp);Tempo de Protrombina;12.8;segundos;10,1 a 12,8;False
71A95C40D67FC91FFED0098A3627ABB3;E56E6A2B896B653A9F32241E31932052;M;2000;2020-10-24;2020-10-29;Alta medica melhorado;5;2020-10-24;Unidades de Internacao;Tempo E Ativid. Protrombina (Tp);Tempo de Protrombina;12.3;segundos;10,1 a 12,8;False
71A95C40D67FC91FFED0098A3627ABB3;E7919E82AA670F6930031697514E63FC;M;2000;2020-06-20;2020-06-25;Alta Administrativa;5;2020-06-22;Centro de Oncologia;Tempo E Ativid. Protrombina (Tp);Tempo de Protrombina;12.4;segundos;10,1 a 12,8;False
7507DC8F9C3FBBC321718AF9D9DB4827;5F9E098CBC4D2EF7DDB243804095131A;M;1983;2020-07-02;2020-07-19;Alta Administrativa;17;2020-07-03;Unidades de Internacao;Tempo E Ativid. Protrombina (Tp);Tempo de Protrombina;12.0;segundos;10,1 a 12,8;False
757491094F8512D8575478A7DABBA173;BE8730724415D2F6C2323142046D22B5;M;1973;2020-12-16;2020-12-25;Alta medica melhorado;9;2020-12-19;Unidades de Internacao;Tempo E Ativid. Protrombina (Tp);Tempo de Protrombina;12.9;segundos;10,1 a 12,8;False
757491094F8512D8575478A7DABBA173;BE8730724415D2F6C2323142046D22B5;M;1973;2020-12-16;2020-12-25;Alta medica melhorado;9;2020-12-21;Unidades de Internacao;Tempo E Ativid. Protrombina (Tp);Tempo de Protrombina;12.4;segundos;10,1 a 12,8;False
757491094F8512D8575478A7DABBA173;BE8730724415D2F6C2323142046D22B5;M;1973;2020-12-16;2020-12-25;Alta medica melhorado;9;2020-12-16;Unidades de Internacao;Tempo E Ativid. Protrombina (Tp);Tempo de Protrombina;11.0;segundos;10,1 a 12,8;False
7749FDB98BB4370A37C070B81581DA31;6BC3601ABF4963846820C13142F75AB4;M;1992;2020-04-27;2020-04-29;Alta medica melhorado;2;2020-04-27;Unidades de Internacao;Tempo E Ativid. Protrombina (Tp);Tempo de Protrombina;11.7;segundos;10,1 a 12,8;False
778444F4883E0172B159376F3D9B8E6C;A7536BF1909C2F77F9581B8B4F53EAA6;M;1979;2020-09-09;2020-09-12;Alta medica melhorado;3;2020-09-09;Unidades de Internacao;Tempo E Ativid. Protrombina (Tp);Tempo de Protrombina;12.7;segundos;10,1 a 12,8;False
7DBD70BBD04BCF581CB56516E15DBA71;35DF64509A507905ABFE267A866C4151;M;1985;2020-04-29;2020-05-04;Alta medica melhorado;5;2020-04-29;UTI;Tempo E Ativid. Protrombina (Tp);Tempo de Protrombina;11.3;segundos;10,1 a 12,8;False
7DBD70BBD04BCF581CB56516E15DBA71;35DF64509A507905ABFE267A866C4151;M;1985;2020-04-29;2020-05-04;Alta medica melhorado;5;2020-05-01;UTI;Tempo E Ativid. Protrombina (Tp);Tempo de Protrombina;11.2;segundos;10,1 a 12,8;False
7F11ABC5462EB4009597557911F7FB28;746E81F0D5C61CF329105D6F40BE0A18;M;1979;2020-07-28;2020-08-06;Alta medica melhorado;9;2020-07-28;UTI;Tempo E Ativid. Protrombina (Tp);Tempo de Protrombina;12.1;segundos;10,1 a 12,8;False
8108BBCB649D4460EDDBBF27C4FC4DD9;FA061D69E2424E0A66BF6C7C6312E1D0;M;1987;2020-09-08;2020-09-14;Alta medica melhorado;6;2020-09-08;Pronto Socorro;Tempo E Ativid. Protrombina (Tp);Tempo de Protrombina;11.4;segundos;10,1 a 12,8;False
83544E8DF14082545BA63AE6974BD258;8AED7A376C4D7A088D9422C7D388F2DF;M;1973;2020-07-29;2020-10-02;Alta medica melhorado;65;2020-08-31;UTI;Tempo E Ativid. Protrombina (Tp);Tempo de Protrombina;13.1;segundos;10,1 a 12,8;False
83544E8DF14082545BA63AE6974BD258;8AED7A376C4D7A088D9422C7D388F2DF;M;1973;2020-07-29;2020-10-02;Alta medica melhorado;65;2020-08-27;UTI;Tempo E Ativid. Protrombina (Tp);Tempo de Protrombina;13.0;segundos;10,1 a 12,8;False
83544E8DF14082545BA63AE6974BD258;8AED7A376C4D7A088D9422C7D388F2DF;M;1973;2020-07-29;2020-10-02;Alta medica melhorado;65;2020-08-29;UTI;Tempo E Ativid. Protrombina (Tp);Tempo de Protrombina;13.5;segundos;10,1 a 12,8;False
83544E8DF14082545BA63AE6974BD258;8AED7A376C4D7A088D9422C7D388F2DF;M;1973;2020-07-29;2020-10-02;Alta medica melhorado;65;2020-08-15;UTI;Tempo E Ativid. Protrombina (Tp);Tempo de Protrombina;14.1;segundos;10,1 a 12,8;False
83544E8DF14082545BA63AE6974BD258;8AED7A376C4D7A088D9422C7D388F2DF;M;1973;2020-07-29;2020-10-02;Alta medica melhorado;65;2020-09-02;UTI;Tempo E Ativid. Protrombina (Tp);Tempo de Protrombina;13.5;segundos;10,1 a 12,8;False
83544E8DF14082545BA63AE6974BD258;8AED7A376C4D7A088D9422C7D388F2DF;M;1973;2020-07-29;2020-10-02;Alta medica melhorado;65;2020-08-09;UTI;Tempo E Ativid. Protrombina (Tp);Tempo de Protrombina;15.6;segundos;10,1 a 12,8;False
83544E8DF14082545BA63AE6974BD258;8AED7A376C4D7A088D9422C7D388F2DF;M;1973;2020-07-29;2020-10-02;Alta medica melhorado;65;2020-08-28;UTI;Tempo E Ativid. Protrombina (Tp);Tempo de Protrombina;12.6;segundos;10,1 a 12,8;False
83544E8DF14082545BA63AE6974BD258;8AED7A376C4D7A088D9422C7D388F2DF;M;1973;2020-07-29;2020-10-02;Alta medica melhorado;65;2020-08-30;UTI;Tempo E Ativid. Protrombina (Tp);Tempo de Protrombina;13.2;segundos;10,1 a 12,8;False
83544E8DF14082545BA63AE6974BD258;8AED7A376C4D7A088D9422C7D388F2DF;M;1973;2020-07-29;2020-10-02;Alta medica melhorado;65;2020-08-25;UTI;Tempo E Ativid. Protrombina (Tp);Tempo de Protrombina;12.9;segundos;10,1 a 12,8;False
83544E8DF14082545BA63AE6974BD258;8AED7A376C4D7A088D9422C7D388F2DF;M;1973;2020-07-29;2020-10-02;Alta medica melhorado;65;2020-08-22;UTI;Tempo E Ativid. Protrombina (Tp);Tempo de Protrombina;12.2;segundos;10,1 a 12,8;False
83544E8DF14082545BA63AE6974BD258;8AED7A376C4D7A088D9422C7D388F2DF;M;1973;2020-07-29;2020-10-02;Alta medica melhorado;65;2020-08-26;UTI;Tempo E Ativid. Protrombina (Tp);Tempo de Protrombina;12.7;segundos;10,1 a 12,8;False
83544E8DF14082545BA63AE6974BD258;8AED7A376C4D7A088D9422C7D388F2DF;M;1973;2020-07-29;2020-10-02;Alta medica melhorado;65;2020-08-26;UTI;Tempo E Ativid. Protrombina (Tp);Tempo de Protrombina;14.1;segundos;10,1 a 12,8;False
83544E8DF14082545BA63AE6974BD258;8AED7A376C4D7A088D9422C7D388F2DF;M;1973;2020-07-29;2020-10-02;Alta medica melhorado;65;2020-09-01;UTI;Tempo E Ativid. Protrombina (Tp);Tempo de Protrombina;13.7;segundos;10,1 a 12,8;False
83544E8DF14082545BA63AE6974BD258;8AED7A376C4D7A088D9422C7D388F2DF;M;1973;2020-07-29;2020-10-02;Alta medica melhorado;65;2020-08-02;UTI;Tempo E Ativid. Protrombina (Tp);Tempo de Protrombina;13.5;segundos;10,1 a 12,8;False
89A91139CE7C02A0D321CBFE74A1FA2C;7D1A5E7C7E6CEBC0EA69428B29C04632;M;1982;2020-08-01;2020-08-13;Alta medica melhorado;12;2020-08-02;UTI;Tempo E Ativid. Protrombina (Tp);Tempo de Protrombina;11.9;segundos;10,1 a 12,8;False
89A91139CE7C02A0D321CBFE74A1FA2C;7D1A5E7C7E6CEBC0EA69428B29C04632;M;1982;2020-08-01;2020-08-13;Alta medica melhorado;12;2020-08-01;UTI;Tempo E Ativid. Protrombina (Tp);Tempo de Protrombina;12.1;segundos;10,1 a 12,8;False
8C1CCAC70235541BCE271FA2EB28D797;E4FEECFF2FF0D891EE8EFAF1EFC05192;M;1972;2020-08-17;2020-08-27;Alta medica melhorado;10;2020-08-25;UTI;Tempo E Ativid. Protrombina (Tp);Tempo de Protrombina;13.1;segundos;10,1 a 12,8;False
8C1CCAC70235541BCE271FA2EB28D797;E4FEECFF2FF0D891EE8EFAF1EFC05192;M;1972;2020-08-17;2020-08-27;Alta medica melhorado;10;2020-08-24;UTI;Tempo E Ativid. Protrombina (Tp);Tempo de Protrombina;13.0;segundos;10,1 a 12,8;False
8C795BCB8461CE7487B992A48D1DD0DA;978DB5890EB4D30B77DD7361CEA74144;M;1974;2020-08-19;2020-08-21;Alta medica melhorado;2;2020-08-19;Unidades de Internacao;Tempo E Ativid. Protrombina (Tp);Tempo de Protrombina;12.0;segundos;10,1 a 12,8;False
8D418771A4DC9248AE8E04F451A121F8;D722B5972B89C8688F6AC3178A1617C8;M;1975;2020-07-06;2020-07-13;Alta medica melhorado;7;2020-07-06;Unidades de Internacao;Tempo E Ativid. Protrombina (Tp);Tempo de Protrombina;11.0;segundos;10,1 a 12,8;False
8D80443957B88EB53A5072036AD6488A;31E1B03E21E9F9FD4561AD7FB139E94F;M;1990;2020-11-08;2020-11-11;Alta medica melhorado;3;2020-11-09;Unidades de Internacao;Tempo E Ativid. Protrombina (Tp);Tempo de Protrombina;13.1;segundos;10,1 a 12,8;False
8E092ED81FC743593E99BA5C2BB855F2;7B7AAD49191636E3835643D49081D1F9;M;1982;2020-03-19;2020-04-09;Alta medica melhorado;21;2020-03-19;Pronto Socorro;Tempo E Ativid. Protrombina (Tp);Tempo de Protrombina;13.3;segundos;10,1 a 12,8;False
8E092ED81FC743593E99BA5C2BB855F2;7B7AAD49191636E3835643D49081D1F9;M;1982;2020-03-19;2020-04-09;Alta medica melhorado;21;2020-03-22;UTI;Tempo E Ativid. Protrombina (Tp);Tempo de Protrombina;14.1;segundos;10,1 a 12,8;False
8E092ED81FC743593E99BA5C2BB855F2;7B7AAD49191636E3835643D49081D1F9;M;1982;2020-03-19;2020-04-09;Alta medica melhorado;21;2020-04-02;UTI;Tempo E Ativid. Protrombina (Tp);Tempo de Protrombina;12.9;segundos;10,1 a 12,8;False
8E092ED81FC743593E99BA5C2BB855F2;7B7AAD49191636E3835643D49081D1F9;M;1982;2020-03-19;2020-04-09;Alta medica melhorado;21;2020-03-30;UTI;Tempo E Ativid. Protrombina (Tp);Tempo de Protrombina;12.2;segundos;10,1 a 12,8;False
8E092ED81FC743593E99BA5C2BB855F2;7B7AAD49191636E3835643D49081D1F9;M;1982;2020-03-19;2020-04-09;Alta medica melhorado;21;2020-03-30;UTI;Tempo E Ativid. Protrombina (Tp);Tempo de Protrombina;12.8;segundos;10,1 a 12,8;False
8E092ED81FC743593E99BA5C2BB855F2;7B7AAD49191636E3835643D49081D1F9;M;1982;2020-03-19;2020-04-09;Alta medica melhorado;21;2020-03-28;UTI;Tempo E Ativid. Protrombina (Tp);Tempo de Protrombina;12.2;segundos;10,1 a 12,8;False
8E092ED81FC743593E99BA5C2BB855F2;7B7AAD49191636E3835643D49081D1F9;M;1982;2020-03-19;2020-04-09;Alta medica melhorado;21;2020-03-22;UTI;Tempo E Ativid. Protrombina (Tp);Tempo de Protrombina;13.2;segundos;10,1 a 12,8;False
8E092ED81FC743593E99BA5C2BB855F2;7B7AAD49191636E3835643D49081D1F9;M;1982;2020-03-19;2020-04-09;Alta medica melhorado;21;2020-03-22;UTI;Tempo E Ativid. Protrombina (Tp);Tempo de Protrombina;13.4;segundos;10,1 a 12,8;False
8E092ED81FC743593E99BA5C2BB855F2;7B7AAD49191636E3835643D49081D1F9;M;1982;2020-03-19;2020-04-09;Alta medica melhorado;21;2020-04-03;UTI;Tempo E Ativid. Protrombina (Tp);Tempo de Protrombina;12.5;segundos;10,1 a 12,8;False
8E092ED81FC743593E99BA5C2BB855F2;7B7AAD49191636E3835643D49081D1F9;M;1982;2020-03-19;2020-04-09;Alta medica melhorado;21;2020-04-02;UTI;Tempo E Ativid. Protrombina (Tp);Tempo de Protrombina;12.5;segundos;10,1 a 12,8;False
8E092ED81FC743593E99BA5C2BB855F2;7B7AAD49191636E3835643D49081D1F9;M;1982;2020-03-19;2020-04-09;Alta medica melhorado;21;2020-04-06;UTI;Tempo E Ativid. Protrombina (Tp);Tempo de Protrombina;12.9;segundos;10,1 a 12,8;False
8E092ED81FC743593E99BA5C2BB855F2;7B7AAD49191636E3835643D49081D1F9;M;1982;2020-03-19;2020-04-09;Alta medica melhorado;21;2020-03-23;UTI;Tempo E Ativid. Protrombina (Tp);Tempo de Protrombina;12.5;segundos;10,1 a 12,8;False
8E092ED81FC743593E99BA5C2BB855F2;7B7AAD49191636E3835643D49081D1F9;M;1982;2020-03-19;2020-04-09;Alta medica melhorado;21;2020-03-27;UTI;Tempo E Ativid. Protrombina (Tp);Tempo de Protrombina;12.5;segundos;10,1 a 12,8;False
8E092ED81FC743593E99BA5C2BB855F2;7B7AAD49191636E3835643D49081D1F9;M;1982;2020-03-19;2020-04-09;Alta medica melhorado;21;2020-04-05;UTI;Tempo E Ativid. Protrombina (Tp);Tempo de Protrombina;12.9;segundos;10,1 a 12,8;False
8E092ED81FC743593E99BA5C2BB855F2;7B7AAD49191636E3835643D49081D1F9;M;1982;2020-03-19;2020-04-09;Alta medica melhorado;21;2020-03-24;UTI;Tempo E Ativid. Protrombina (Tp);Tempo de Protrombina;12.4;segundos;10,1 a 12,8;False
8E092ED81FC743593E99BA5C2BB855F2;7B7AAD49191636E3835643D49081D1F9;M;1982;2020-03-19;2020-04-09;Alta medica melhorado;21;2020-04-04;UTI;Tempo E Ativid. Protrombina (Tp);Tempo de Protrombina;13.1;segundos;10,1 a 12,8;False
8E092ED81FC743593E99BA5C2BB855F2;7B7AAD49191636E3835643D49081D1F9;M;1982;2020-03-19;2020-04-09;Alta medica melhorado;21;2020-03-25;UTI;Tempo E Ativid. Protrombina (Tp);Tempo de Protrombina;12.2;segundos;10,1 a 12,8;False
8E092ED81FC743593E99BA5C2BB855F2;7B7AAD49191636E3835643D49081D1F9;M;1982;2020-03-19;2020-04-09;Alta medica melhorado;21;2020-04-01;UTI;Tempo E Ativid. Protrombina (Tp);Tempo de Protrombina;12.4;segundos;10,1 a 12,8;False
8E092ED81FC743593E99BA5C2BB855F2;7B7AAD49191636E3835643D49081D1F9;M;1982;2020-03-19;2020-04-09;Alta medica melhorado;21;2020-03-26;UTI;Tempo E Ativid. Protrombina (Tp);Tempo de Protrombina;12.4;segundos;10,1 a 12,8;False
8E092ED81FC743593E99BA5C2BB855F2;7B7AAD49191636E3835643D49081D1F9;M;1982;2020-03-19;2020-04-09;Alta medica melhorado;21;2020-04-07;Unidades de Internacao;Tempo E Ativid. Protrombina (Tp);Tempo de Protrombina;12.6;segundos;10,1 a 12,8;False
8ED47A9825E13A6440E6F0BDE32745E3;305C21E3ECA3713B8F31BE0CD3C501D9;M;1973;2020-10-11;2020-10-13;Alta medica melhorado;2;2020-10-11;Unidades de Internacao;Tempo E Ativid. Protrombina (Tp);Tempo de Protrombina;13.5;segundos;10,1 a 12,8;False
9793AD4119D17346B665FCAA950CC8B3;EAA9553BF31BAC8B21B4FD2BE9045532;M;1988;2020-07-12;2020-07-22;Alta medica melhorado;10;2020-07-14;UTI;Tempo E Ativid. Protrombina (Tp);Tempo de Protrombina;10.9;segundos;10,1 a 12,8;False
9793AD4119D17346B665FCAA950CC8B3;EAA9553BF31BAC8B21B4FD2BE9045532;M;1988;2020-07-12;2020-07-22;Alta medica melhorado;10;2020-07-15;UTI;Tempo E Ativid. Protrombina (Tp);Tempo de Protrombina;11.5;segundos;10,1 a 12,8;False
9793AD4119D17346B665FCAA950CC8B3;EAA9553BF31BAC8B21B4FD2BE9045532;M;1988;2020-07-12;2020-07-22;Alta medica melhorado;10;2020-07-12;UTI;Tempo E Ativid. Protrombina (Tp);Tempo de Protrombina;10.9;segundos;10,1 a 12,8;False
9793AD4119D17346B665FCAA950CC8B3;EAA9553BF31BAC8B21B4FD2BE9045532;M;1988;2020-07-12;2020-07-22;Alta medica melhorado;10;2020-07-13;UTI;Tempo E Ativid. Protrombina (Tp);Tempo de Protrombina;11.1;segundos;10,1 a 12,8;False
98015A89D2C3D22B00A189FFC9D470CD;BA46EB4D12B9EB60DADDD3360F2D9DB9;M;1979;2020-04-27;2020-05-06;Alta medica melhorado;9;2020-04-28;Unidades de Internacao;Tempo E Ativid. Protrombina (Tp);Tempo de Protrombina;12.9;segundos;10,1 a 12,8;False
98521D3E821CADEF9E38094B2669D687;16EC2D0A0DA07236946D5306A01347CA;M;1991;2020-09-15;2020-09-17;Alta medica melhorado;2;2020-09-16;Unidades de Internacao;Tempo E Ativid. Protrombina (Tp);Tempo de Protrombina;12.5;segundos;10,1 a 12,8;False
991BA67B68E8C432E6E96F217E6783D2;2FD538EB74C4642E1A143E5FA80EE4C4;M;1989;2020-07-24;2020-07-31;Alta medica melhorado;7;2020-07-24;Unidades de Internacao;Tempo E Ativid. Protrombina (Tp);Tempo de Protrombina;12.6;segundos;10,1 a 12,8;False
991BA67B68E8C432E6E96F217E6783D2;2FD538EB74C4642E1A143E5FA80EE4C4;M;1989;2020-07-24;2020-07-31;Alta medica melhorado;7;2020-07-25;UTI;Tempo E Ativid. Protrombina (Tp);Tempo de Protrombina;15.5;segundos;10,1 a 12,8;False
991BA67B68E8C432E6E96F217E6783D2;2FD538EB74C4642E1A143E5FA80EE4C4;M;1989;2020-07-24;2020-07-31;Alta medica melhorado;7;2020-07-25;UTI;Tempo E Ativid. Protrombina (Tp);Tempo de Protrombina;15.3;segundos;10,1 a 12,8;False
9A4D0A9915AC7A7E4DE5853ECA648E5E;BCE6D6F3C9DC242514A0DC0D8D9029B8;M;1976;2020-08-03;2020-08-15;Alta medica melhorado;12;2020-08-03;UTI;Tempo E Ativid. Protrombina (Tp);Tempo de Protrombina;15.0;segundos;10,1 a 12,8;False
A1CC86679EA47CCE56F0C9877EC45569;0D8F5C8270AC8929D4A94E620BCF867C;M;1979;2020-07-19;2020-07-22;Alta medica melhorado;3;2020-07-19;Unidades de Internacao;Tempo E Ativid. Protrombina (Tp);Tempo de Protrombina;10.8;segundos;10,1 a 12,8;False
A52A900A6AD0CF13642BCEBE1EF92276;A3CFBB9D7E0FD677BCE7E9E19BE1EFD7;M;1981;2020-09-01;2020-09-04;Alta medica melhorado;3;2020-09-01;Unidades de Internacao;Tempo E Ativid. Protrombina (Tp);Tempo de Protrombina;12.8;segundos;10,1 a 12,8;False
A5716AE3E613EADCA69C3FB53FA19129;609DA7B5C1AF54925A36CFB0568BA48E;M;1973;2020-11-29;2020-12-08;Alta medica melhorado;9;2020-11-30;UTI;Tempo E Ativid. Protrombina (Tp);Tempo de Protrombina;13.4;segundos;10,1 a 12,8;False
A5716AE3E613EADCA69C3FB53FA19129;609DA7B5C1AF54925A36CFB0568BA48E;M;1973;2020-11-29;2020-12-08;Alta medica melhorado;9;2020-11-30;UTI;Tempo E Ativid. Protrombina (Tp);Tempo de Protrombina;13.9;segundos;10,1 a 12,8;False
A6EB6D96A26EBEF9FF30A5CB7DA40C04;93E17DCABE86F67D278CDEE3FC13D214;M;1973;2020-06-30;2020-07-08;Alta medica melhorado;8;2020-06-30;UTI;Tempo E Ativid. Protrombina (Tp);Tempo de Protrombina;12.4;segundos;10,1 a 12,8;False
A75F3EA1AE2E091FDD2E2B54101E5B7C;A625F45D19BAE51BDA9D35F6A4AB12C6;M;1989;2020-05-27;2020-06-01;Alta medica melhorado;5;2020-05-27;UTI;Tempo E Ativid. Protrombina (Tp);Tempo de Protrombina;14.1;segundos;10,1 a 12,8;False
A99BABE48B8F8B33656AB167A861C59C;EEE9A893341E0EFCBA88080C3928C634;M;1978;2020-09-28;2020-10-06;Alta medica melhorado;8;2020-09-28;Unidades de Internacao;Tempo E Ativid. Protrombina (Tp);Tempo de Protrombina;15.6;segundos;10,1 a 12,8;False
A99BABE48B8F8B33656AB167A861C59C;EEE9A893341E0EFCBA88080C3928C634;M;1978;2020-09-28;2020-10-06;Alta medica melhorado;8;2020-09-29;UTI;Tempo E Ativid. Protrombina (Tp);Tempo de Protrombina;14.9;segundos;10,1 a 12,8;False
AF39CAC9D23814E160BD1CEA9BDD0983;79D5F05989C50230DF7037DBA73A8F40;M;1986;2020-08-14;2020-08-20;Alta Administrativa;6;2020-08-14;Centro de Oncologia;Tempo E Ativid. Protrombina (Tp);Tempo de Protrombina;10.7;segundos;10,1 a 12,8;False
AF39CAC9D23814E160BD1CEA9BDD0983;7E662F496DEAEF5AA09E46AD3F71678C;M;1986;2020-08-04;2020-08-11;Alta medica melhorado;7;2020-08-08;Unidades de Internacao;Tempo E Ativid. Protrombina (Tp);Tempo de Protrombina;11.0;segundos;10,1 a 12,8;False
AF39CAC9D23814E160BD1CEA9BDD0983;7E662F496DEAEF5AA09E46AD3F71678C;M;1986;2020-08-04;2020-08-11;Alta medica melhorado;7;2020-08-05;Unidades de Internacao;Tempo E Ativid. Protrombina (Tp);Tempo de Protrombina;12.1;segundos;10,1 a 12,8;False
AF39CAC9D23814E160BD1CEA9BDD0983;7E662F496DEAEF5AA09E46AD3F71678C;M;1986;2020-08-04;2020-08-11;Alta medica melhorado;7;2020-08-10;Unidades de Internacao;Tempo E Ativid. Protrombina (Tp);Tempo de Protrombina;10.6;segundos;10,1 a 12,8;False
AF513D11AFDA9E48A94836A3F587D9EA;3578F59885E3ED195EADAEDDC4CB8A85;M;1981;2020-06-02;2020-07-31;Alta medica curado;59;2020-06-03;UTI;Tempo E Ativid. Protrombina (Tp);Tempo de Protrombina;12.8;segundos;10,1 a 12,8;False
AF513D11AFDA9E48A94836A3F587D9EA;3578F59885E3ED195EADAEDDC4CB8A85;M;1981;2020-06-02;2020-07-31;Alta medica curado;59;2020-06-05;UTI;Tempo E Ativid. Protrombina (Tp);Tempo de Protrombina;12.6;segundos;10,1 a 12,8;False
AF513D11AFDA9E48A94836A3F587D9EA;5902E52764E9CBD360069CB5F4B14A3A;M;1981;2020-05-11;2020-05-26;Alta medica melhorado;15;2020-05-11;UTI;Tempo E Ativid. Protrombina (Tp);Tempo de Protrombina;13.6;segundos;10,1 a 12,8;False
AFE2660E2B8D0BF1C0FEE02B5FBC6FD5;ECDE810DAD24E884B601E49A807303F4;M;1980;2020-10-31;2020-11-02;Alta medica melhorado;2;2020-10-31;Unidades de Internacao;Tempo E Ativid. Protrombina (Tp);Tempo de Protrombina;11.6;segundos;10,1 a 12,8;False
B13CAEDE6903215CAFF02DEBD325CA64;2C1AAA908D453413A68020663464CA84;M;1974;2020-12-07;2020-12-14;Alta medica melhorado;7;2020-12-11;Unidades de Internacao;Tempo E Ativid. Protrombina (Tp);Tempo de Protrombina;13.2;segundos;10,1 a 12,8;False
B13CAEDE6903215CAFF02DEBD325CA64;2C1AAA908D453413A68020663464CA84;M;1974;2020-12-07;2020-12-14;Alta medica melhorado;7;2020-12-11;Unidades de Internacao;Tempo E Ativid. Protrombina (Tp);Tempo de Protrombina;13.5;segundos;10,1 a 12,8;False
B22445338B4D589E3DEF8EB9E6820B9D;2EED73484737E7C5F5B30F5F527D3CA8;M;1978;2020-10-08;2020-11-07;Alta medica melhorado;30;2020-10-22;UTI;Tempo E Ativid. Protrombina (Tp);Tempo de Protrombina;14.9;segundos;10,1 a 12,8;False
B22445338B4D589E3DEF8EB9E6820B9D;2EED73484737E7C5F5B30F5F527D3CA8;M;1978;2020-10-08;2020-11-07;Alta medica melhorado;30;2020-10-20;UTI;Tempo E Ativid. Protrombina (Tp);Tempo de Protrombina;13.7;segundos;10,1 a 12,8;False
B22445338B4D589E3DEF8EB9E6820B9D;2EED73484737E7C5F5B30F5F527D3CA8;M;1978;2020-10-08;2020-11-07;Alta medica melhorado;30;2020-10-14;UTI;Tempo E Ativid. Protrombina (Tp);Tempo de Protrombina;13.2;segundos;10,1 a 12,8;False
B22445338B4D589E3DEF8EB9E6820B9D;2EED73484737E7C5F5B30F5F527D3CA8;M;1978;2020-10-08;2020-11-07;Alta medica melhorado;30;2020-10-21;UTI;Tempo E Ativid. Protrombina (Tp);Tempo de Protrombina;15.1;segundos;10,1 a 12,8;False
B22445338B4D589E3DEF8EB9E6820B9D;2EED73484737E7C5F5B30F5F527D3CA8;M;1978;2020-10-08;2020-11-07;Alta medica melhorado;30;2020-10-24;UTI;Tempo E Ativid. Protrombina (Tp);Tempo de Protrombina;14.7;segundos;10,1 a 12,8;False
B22445338B4D589E3DEF8EB9E6820B9D;2EED73484737E7C5F5B30F5F527D3CA8;M;1978;2020-10-08;2020-11-07;Alta medica melhorado;30;2020-10-26;UTI;Tempo E Ativid. Protrombina (Tp);Tempo de Protrombina;15.5;segundos;10,1 a 12,8;False
B22445338B4D589E3DEF8EB9E6820B9D;2EED73484737E7C5F5B30F5F527D3CA8;M;1978;2020-10-08;2020-11-07;Alta medica melhorado;30;2020-10-28;UTI;Tempo E Ativid. Protrombina (Tp);Tempo de Protrombina;16.1;segundos;10,1 a 12,8;True
B22445338B4D589E3DEF8EB9E6820B9D;2EED73484737E7C5F5B30F5F527D3CA8;M;1978;2020-10-08;2020-11-07;Alta medica melhorado;30;2020-10-23;UTI;Tempo E Ativid. Protrombina (Tp);Tempo de Protrombina;15.3;segundos;10,1 a 12,8;False
B22445338B4D589E3DEF8EB9E6820B9D;2EED73484737E7C5F5B30F5F527D3CA8;M;1978;2020-10-08;2020-11-07;Alta medica melhorado;30;2020-10-19;UTI;Tempo E Ativid. Protrombina (Tp);Tempo de Protrombina;14.3;segundos;10,1 a 12,8;False
B22445338B4D589E3DEF8EB9E6820B9D;2EED73484737E7C5F5B30F5F527D3CA8;M;1978;2020-10-08;2020-11-07;Alta medica melhorado;30;2020-10-17;UTI;Tempo E Ativid. Protrombina (Tp);Tempo de Protrombina;12.7;segundos;10,1 a 12,8;False
B22445338B4D589E3DEF8EB9E6820B9D;2EED73484737E7C5F5B30F5F527D3CA8;M;1978;2020-10-08;2020-11-07;Alta medica melhorado;30;2020-10-18;UTI;Tempo E Ativid. Protrombina (Tp);Tempo de Protrombina;15.4;segundos;10,1 a 12,8;False
B22445338B4D589E3DEF8EB9E6820B9D;2EED73484737E7C5F5B30F5F527D3CA8;M;1978;2020-10-08;2020-11-07;Alta medica melhorado;30;2020-10-16;UTI;Tempo E Ativid. Protrombina (Tp);Tempo de Protrombina;13.9;segundos;10,1 a 12,8;False
B22445338B4D589E3DEF8EB9E6820B9D;2EED73484737E7C5F5B30F5F527D3CA8;M;1978;2020-10-08;2020-11-07;Alta medica melhorado;30;2020-10-15;UTI;Tempo E Ativid. Protrombina (Tp);Tempo de Protrombina;14.8;segundos;10,1 a 12,8;False
B22445338B4D589E3DEF8EB9E6820B9D;2EED73484737E7C5F5B30F5F527D3CA8;M;1978;2020-10-08;2020-11-07;Alta medica melhorado;30;2020-10-25;UTI;Tempo E Ativid. Protrombina (Tp);Tempo de Protrombina;14.3;segundos;10,1 a 12,8;False
B22445338B4D589E3DEF8EB9E6820B9D;2EED73484737E7C5F5B30F5F527D3CA8;M;1978;2020-10-08;2020-11-07;Alta medica melhorado;30;2020-10-12;UTI;Tempo E Ativid. Protrombina (Tp);Tempo de Protrombina;11.6;segundos;10,1 a 12,8;False
B22445338B4D589E3DEF8EB9E6820B9D;2EED73484737E7C5F5B30F5F527D3CA8;M;1978;2020-10-08;2020-11-07;Alta medica melhorado;30;2020-10-11;UTI;Tempo E Ativid. Protrombina (Tp);Tempo de Protrombina;12.0;segundos;10,1 a 12,8;False
B22445338B4D589E3DEF8EB9E6820B9D;2EED73484737E7C5F5B30F5F527D3CA8;M;1978;2020-10-08;2020-11-07;Alta medica melhorado;30;2020-10-13;UTI;Tempo E Ativid. Protrombina (Tp);Tempo de Protrombina;12.8;segundos;10,1 a 12,8;False
B22445338B4D589E3DEF8EB9E6820B9D;2EED73484737E7C5F5B30F5F527D3CA8;M;1978;2020-10-08;2020-11-07;Alta medica melhorado;30;2020-10-27;UTI;Tempo E Ativid. Protrombina (Tp);Tempo de Protrombina;17.1;segundos;10,1 a 12,8;True
B22445338B4D589E3DEF8EB9E6820B9D;2EED73484737E7C5F5B30F5F527D3CA8;M;1978;2020-10-08;2020-11-07;Alta medica melhorado;30;2020-11-06;Unidades de Internacao;Tempo E Ativid. Protrombina (Tp);Tempo de Protrombina;14.9;segundos;10,1 a 12,8;False
B22445338B4D589E3DEF8EB9E6820B9D;2EED73484737E7C5F5B30F5F527D3CA8;M;1978;2020-10-08;2020-11-07;Alta medica melhorado;30;2020-10-29;Unidades de Internacao;Tempo E Ativid. Protrombina (Tp);Tempo de Protrombina;15.4;segundos;10,1 a 12,8;False
B244AA758DD8D29269F83900272C568B;E6FEBE3C2EF3CFA6192482D34FD844F2;M;1975;2020-04-02;2020-04-06;Alta medica melhorado;4;2020-04-02;Unidades de Internacao;Tempo E Ativid. Protrombina (Tp);Tempo de Protrombina;13.1;segundos;10,1 a 12,8;False
B31342F6827C51BDB39A32389F8EF2AD;830EC223B194619CF0E85AE0A60A71A0;M;1983;2020-09-06;2020-09-08;Alta medica melhorado;2;2020-09-06;Unidades de Internacao;Tempo E Ativid. Protrombina (Tp);Tempo de Protrombina;11.9;segundos;10,1 a 12,8;False
B4102D002D0FF995E23072AF92302BEB;4A46C999E690B0FFF50296BE7FD25E0F;M;1981;2020-05-15;2020-05-20;Alta medica melhorado;5;2020-05-15;Unidades de Internacao;Tempo E Ativid. Protrombina (Tp);Tempo de Protrombina;11.6;segundos;10,1 a 12,8;False
B435EEE017F06ACBBE62A07316ECE076;008C37AD197F2DBFCA8D04D0CB0C67EC;M;1981;2020-11-26;2020-11-30;Alta medica melhorado;4;2020-11-26;Unidades de Internacao;Tempo E Ativid. Protrombina (Tp);Tempo de Protrombina;12.2;segundos;10,1 a 12,8;False
B8A0784D0596E9107EA2869C00266581;129B13B729D675A218B09DB59BD63EB7;M;1973;2020-10-18;2020-10-21;Alta medica melhorado;3;2020-10-18;UTI;Tempo E Ativid. Protrombina (Tp);Tempo de Protrombina;12.5;segundos;10,1 a 12,8;False
B8A0784D0596E9107EA2869C00266581;129B13B729D675A218B09DB59BD63EB7;M;1973;2020-10-18;2020-10-21;Alta medica melhorado;3;2020-10-20;UTI;Tempo E Ativid. Protrombina (Tp);Tempo de Protrombina;11.5;segundos;10,1 a 12,8;False
BA8ABA92F34E232FB03FD7628DF87109;AB1848C6A4B66BF02C1E064D18B6E659;M;1981;2020-06-22;2020-07-06;Alta medica melhorado;14;2020-06-22;UTI;Tempo E Ativid. Protrombina (Tp);Tempo de Protrombina;13.0;segundos;10,1 a 12,8;False
BAC5B6812643DE6996EDA995904C9D6D;C60D983B602025F1092A60D6F7AEF971;M;1981;2020-12-09;2020-12-11;Alta medica melhorado;2;2020-12-09;Unidades de Internacao;Tempo E Ativid. Protrombina (Tp);Tempo de Protrombina;12.6;segundos;10,1 a 12,8;False
BC55696360C76C7F68F1CC4C0B8A5F0D;A5A242D0C4884F891108CB51E6FEB585;M;1982;2020-04-27;2020-05-12;Alta medica melhorado;15;2020-04-27;Unidades de Internacao;Tempo E Ativid. Protrombina (Tp);Tempo de Protrombina;12.0;segundos;10,1 a 12,8;False
BD505E1C7E6464324F7CD011C1F8583D;3644E6FB91748F694A0CD2D0766E23DA;M;1978;2020-04-29;2020-05-17;Alta medica melhorado;18;2020-04-29;UTI;Tempo E Ativid. Protrombina (Tp);Tempo de Protrombina;13.5;segundos;10,1 a 12,8;False
BD505E1C7E6464324F7CD011C1F8583D;3644E6FB91748F694A0CD2D0766E23DA;M;1978;2020-04-29;2020-05-17;Alta medica melhorado;18;2020-04-29;UTI;Tempo E Ativid. Protrombina (Tp);Tempo de Protrombina;13.0;segundos;10,1 a 12,8;False
BDB4D02CACAC3F8DCF8E2E0B315E2711;EA3944C5C12131D5F34A5AB0DC2CCACF;M;1982;2020-06-17;2020-06-19;Alta medica melhorado;2;2020-06-17;Unidades de Internacao;Tempo E Ativid. Protrombina (Tp);Tempo de Protrombina;12.3;segundos;10,1 a 12,8;False
BEBA451E2C91A4D869D14EE790FE78FD;F00A8B071066A41020B80A1F2F590663;M;1972;2020-05-30;2020-06-01;Alta medica melhorado;2;2020-05-30;Unidades de Internacao;Tempo E Ativid. Protrombina (Tp);Tempo de Protrombina;9.3;segundos;10,1 a 12,8;True
BEBA451E2C91A4D869D14EE790FE78FD;F00A8B071066A41020B80A1F2F590663;M;1972;2020-05-30;2020-06-01;Alta medica melhorado;2;2020-05-30;Unidades de Internacao;Tempo E Ativid. Protrombina (Tp);Tempo de Protrombina;10.2;segundos;10,1 a 12,8;False
C21303F9098C9439B2BF0FF73A268D95;15A5BC655B19C0D63866052823A9D7EB;M;1973;2020-05-30;2020-06-06;Alta medica melhorado;7;2020-06-04;Unidades de Internacao;Tempo E Ativid. Protrombina (Tp);Tempo de Protrombina;11.3;segundos;10,1 a 12,8;False
C4DD39FE77D86BE0C208033AF918795A;98D8710E06AFD9CD4CB8DD68FD31549E;M;1993;2020-04-29;2020-05-23;Alta medica melhorado;24;2020-05-06;UTI;Tempo E Ativid. Protrombina (Tp);Tempo de Protrombina;16.4;segundos;10,1 a 12,8;True
C4DD39FE77D86BE0C208033AF918795A;98D8710E06AFD9CD4CB8DD68FD31549E;M;1993;2020-04-29;2020-05-23;Alta medica melhorado;24;2020-05-11;Unidades de Internacao;Tempo E Ativid. Protrombina (Tp);Tempo de Protrombina;15.0;segundos;10,1 a 12,8;False
C4DD39FE77D86BE0C208033AF918795A;98D8710E06AFD9CD4CB8DD68FD31549E;M;1993;2020-04-29;2020-05-23;Alta medica melhorado;24;2020-04-29;Unidades de Internacao;Tempo E Ativid. Protrombina (Tp);Tempo de Protrombina;15.8;segundos;10,1 a 12,8;False
C4DD39FE77D86BE0C208033AF918795A;98D8710E06AFD9CD4CB8DD68FD31549E;M;1993;2020-04-29;2020-05-23;Alta medica melhorado;24;2020-05-12;Unidades de Internacao;Tempo E Ativid. Protrombina (Tp);Tempo de Protrombina;14.4;segundos;10,1 a 12,8;False
C4DD39FE77D86BE0C208033AF918795A;98D8710E06AFD9CD4CB8DD68FD31549E;M;1993;2020-04-29;2020-05-23;Alta medica melhorado;24;2020-05-14;Unidades de Internacao;Tempo E Ativid. Protrombina (Tp);Tempo de Protrombina;13.1;segundos;10,1 a 12,8;False
C4DD39FE77D86BE0C208033AF918795A;98D8710E06AFD9CD4CB8DD68FD31549E;M;1993;2020-04-29;2020-05-23;Alta medica melhorado;24;2020-05-16;Unidades de Internacao;Tempo E Ativid. Protrombina (Tp);Tempo de Protrombina;13.3;segundos;10,1 a 12,8;False
C4DD39FE77D86BE0C208033AF918795A;98D8710E06AFD9CD4CB8DD68FD31549E;M;1993;2020-04-29;2020-05-23;Alta medica melhorado;24;2020-05-10;Unidades de Internacao;Tempo E Ativid. Protrombina (Tp);Tempo de Protrombina;17.9;segundos;10,1 a 12,8;True
C4DD39FE77D86BE0C208033AF918795A;98D8710E06AFD9CD4CB8DD68FD31549E;M;1993;2020-04-29;2020-05-23;Alta medica melhorado;24;2020-04-30;Unidades de Internacao;Tempo E Ativid. Protrombina (Tp);Tempo de Protrombina;15.4;segundos;10,1 a 12,8;False
C4DD39FE77D86BE0C208033AF918795A;98D8710E06AFD9CD4CB8DD68FD31549E;M;1993;2020-04-29;2020-05-23;Alta medica melhorado;24;2020-05-03;Unidades de Internacao;Tempo E Ativid. Protrombina (Tp);Tempo de Protrombina;15.5;segundos;10,1 a 12,8;False
C5478CEF54EF7D3C0AEC5E7C5E942D10;F9B06A7CA110254BAFE448C04F3778A5;M;1975;2020-03-19;2020-04-01;Alta medica melhorado;13;2020-03-23;UTI;Tempo E Ativid. Protrombina (Tp);Tempo de Protrombina;10.9;segundos;10,1 a 12,8;False
C5AFB467D9563559F2475B30AD0D21CD;89422667810227DF70EDDCA072C27F23;M;1975;2020-12-14;2020-12-21;Alta medica melhorado;7;2020-12-14;Unidades de Internacao;Tempo E Ativid. Protrombina (Tp);Tempo de Protrombina;13.1;segundos;10,1 a 12,8;False
C6251C08399C03360AE05CB45F6ECBFB;C33E88D1035B90665A8483846762D961;M;1974;2020-05-02;2020-05-14;Alta medica melhorado;12;2020-05-02;Unidades de Internacao;Tempo E Ativid. Protrombina (Tp);Tempo de Protrombina;12.0;segundos;10,1 a 12,8;False
C68EBE55B24381DF5BFA26FB812569FA;9B0E5D5D678D99218D332E55C4BD7F2A;M;1973;2020-11-09;2020-11-18;Alta medica melhorado;9;2020-11-09;Unidades de Internacao;Tempo E Ativid. Protrombina (Tp);Tempo de Protrombina;20.6;segundos;10,1 a 12,8;True
C6A3D60D4E5547FA8902EC3FEB0C152D;85A5E9FEFDE5B597255F519548E99600;M;1982;2020-02-26;2020-03-03;Alta medica melhorado;6;2020-02-26;Unidades de Internacao;Tempo E Ativid. Protrombina (Tp);Tempo de Protrombina;15.8;segundos;10,1 a 12,8;False
C6A3D60D4E5547FA8902EC3FEB0C152D;85A5E9FEFDE5B597255F519548E99600;M;1982;2020-02-26;2020-03-03;Alta medica melhorado;6;2020-02-29;Unidades de Internacao;Tempo E Ativid. Protrombina (Tp);Tempo de Protrombina;12.1;segundos;10,1 a 12,8;False
C72D764E4BD37B4A95CA510FC3015C2F;0EC4A1D5C3BDFFB576CF98A023EDED43;M;2000;2020-11-14;2020-11-17;Alta medica melhorado;3;2020-11-14;Unidades de Internacao;Tempo E Ativid. Protrombina (Tp);Tempo de Protrombina;13.0;segundos;10,1 a 12,8;False
C7B5F4F4EA9F6E8A25056B097827FB07;0F9972F88FF390325B06986CBFF311FC;M;1973;2020-09-17;2020-09-19;Alta medica melhorado;2;2020-09-17;Unidades de Internacao;Tempo E Ativid. Protrombina (Tp);Tempo de Protrombina;11.6;segundos;10,1 a 12,8;False
C7B5F4F4EA9F6E8A25056B097827FB07;9D9CD0B0325A406AC4C95F3D4B546999;M;1973;2020-10-23;2020-11-08;Alta medica melhorado;16;2020-10-24;UTI;Tempo E Ativid. Protrombina (Tp);Tempo de Protrombina;12.7;segundos;10,1 a 12,8;False
CB9E10D88A4C8599CA9DDDEC247BB4A5;D9343598503DB435AD6198EECF40F2F6;M;1985;2020-07-30;2020-08-04;Alta medica melhorado;5;2020-07-30;Unidades de Internacao;Tempo E Ativid. Protrombina (Tp);Tempo de Protrombina;11.7;segundos;10,1 a 12,8;False
CCD570CE2EC5DABF0C47DB655BBE2FD1;1A4D3D6F1A09727582592BFA3E4C7B4C;M;1982;2020-08-30;2020-09-04;Alta medica melhorado;5;2020-08-31;UTI;Tempo E Ativid. Protrombina (Tp);Tempo de Protrombina;12.9;segundos;10,1 a 12,8;False
CD69CB7D042C3E2CCB7BC7E7D579BFB1;ADBE3D1FD4F43B3E146FB2A01BB52736;M;1997;2020-07-23;2020-07-25;Alta medica melhorado;2;2020-07-23;Unidades de Internacao;Tempo E Ativid. Protrombina (Tp);Tempo de Protrombina;12.9;segundos;10,1 a 12,8;False
CE4F5CAD548B4ECEDB249FE8234ACC19;7206470A9F6F5F435979A6C71A1BF707;M;1980;2020-03-26;2020-04-13;Alta medica melhorado;18;2020-03-28;Unidades de Internacao;Tempo E Ativid. Protrombina (Tp);Tempo de Protrombina;12.5;segundos;10,1 a 12,8;False
CE4F5CAD548B4ECEDB249FE8234ACC19;7206470A9F6F5F435979A6C71A1BF707;M;1980;2020-03-26;2020-04-13;Alta medica melhorado;18;2020-03-26;Unidades de Internacao;Tempo E Ativid. Protrombina (Tp);Tempo de Protrombina;12.3;segundos;10,1 a 12,8;False
CE4F5CAD548B4ECEDB249FE8234ACC19;7206470A9F6F5F435979A6C71A1BF707;M;1980;2020-03-26;2020-04-13;Alta medica melhorado;18;2020-04-03;Unidades de Internacao;Tempo E Ativid. Protrombina (Tp);Tempo de Protrombina;12.8;segundos;10,1 a 12,8;False
CE4F5CAD548B4ECEDB249FE8234ACC19;7206470A9F6F5F435979A6C71A1BF707;M;1980;2020-03-26;2020-04-13;Alta medica melhorado;18;2020-04-04;Unidades de Internacao;Tempo E Ativid. Protrombina (Tp);Tempo de Protrombina;12.3;segundos;10,1 a 12,8;False
D0A8C7D4EE47551EF25B7C43CAED7559;6E12C2392850DE74734F2A47D6C81A6C;M;1987;2020-06-16;2020-06-22;Alta medica melhorado;6;2020-06-16;UTI;Tempo E Ativid. Protrombina (Tp);Tempo de Protrombina;13.3;segundos;10,1 a 12,8;False
D2EE85DB6A7868529F91EECC85C480BC;9AA0EEBC0701B22C4468C85E0012B862;M;1979;2020-09-12;2020-09-19;Alta medica melhorado;7;2020-09-12;UTI;Tempo E Ativid. Protrombina (Tp);Tempo de Protrombina;13.0;segundos;10,1 a 12,8;False
D320205DD4E0A8F541DCC04B31BD0C1D;28295886807DB0B36B213D6B88C13136;M;1976;2020-05-06;2020-05-13;Alta medica melhorado;7;2020-05-06;Unidades de Internacao;Tempo E Ativid. Protrombina (Tp);Tempo de Protrombina;11.8;segundos;10,1 a 12,8;False
D4374FB738FC59D7A523E8FF7EE47D46;750050E683DB973F2FD3FB02540F8A4F;M;1981;2020-03-23;2020-04-02;Alta medica curado;10;2020-03-26;Unidades de Internacao;Tempo E Ativid. Protrombina (Tp);Tempo de Protrombina;15.0;segundos;10,1 a 12,8;False
D48C77C8131C33EDD38D14A2310C1753;445DB1D4CB6A3E72846FEC0959A6A52B;M;1985;2020-11-04;2020-11-06;Alta medica melhorado;2;2020-11-05;Unidades de Internacao;Tempo E Ativid. Protrombina (Tp);Tempo de Protrombina;12.2;segundos;10,1 a 12,8;False
D4A8997E406D089B6B3E4056AD7E062D;6BB9F129BADE8D029E71714697D3D235;M;1976;2020-09-01;2020-09-09;Alta medica melhorado;8;2020-09-02;UTI;Tempo E Ativid. Protrombina (Tp);Tempo de Protrombina;11.4;segundos;10,1 a 12,8;False
D4A8997E406D089B6B3E4056AD7E062D;6BB9F129BADE8D029E71714697D3D235;M;1976;2020-09-01;2020-09-09;Alta medica melhorado;8;2020-09-01;UTI;Tempo E Ativid. Protrombina (Tp);Tempo de Protrombina;11.1;segundos;10,1 a 12,8;False
D561673C7D3348D2E3C7DC4C29E11E13;284EF8E153ECC4BF730FA0BEC98199D0;M;1972;2020-08-24;2020-09-05;Alta medica melhorado;12;2020-08-24;UTI;Tempo E Ativid. Protrombina (Tp);Tempo de Protrombina;11.3;segundos;10,1 a 12,8;False
D561673C7D3348D2E3C7DC4C29E11E13;284EF8E153ECC4BF730FA0BEC98199D0;M;1972;2020-08-24;2020-09-05;Alta medica melhorado;12;2020-08-28;UTI;Tempo E Ativid. Protrombina (Tp);Tempo de Protrombina;11.6;segundos;10,1 a 12,8;False
D561673C7D3348D2E3C7DC4C29E11E13;284EF8E153ECC4BF730FA0BEC98199D0;M;1972;2020-08-24;2020-09-05;Alta medica melhorado;12;2020-08-25;UTI;Tempo E Ativid. Protrombina (Tp);Tempo de Protrombina;12.2;segundos;10,1 a 12,8;False
D561673C7D3348D2E3C7DC4C29E11E13;284EF8E153ECC4BF730FA0BEC98199D0;M;1972;2020-08-24;2020-09-05;Alta medica melhorado;12;2020-08-24;UTI;Tempo E Ativid. Protrombina (Tp);Tempo de Protrombina;11.8;segundos;10,1 a 12,8;False
D6CADA50AA70957D3EE8ADB50DB81B21;B2EAD8C9327B2512DB084C953C9EDF08;M;1975;2020-05-29;2020-06-01;Alta medica melhorado;3;2020-05-29;Unidades de Internacao;Tempo E Ativid. Protrombina (Tp);Tempo de Protrombina;12.9;segundos;10,1 a 12,8;False
D73C3D1EBC3E359A8E53935B50CBF052;75A89BE4BDB9C21EFC1F3F9B48FA2359;M;1974;2020-12-07;2020-12-15;Alta medica melhorado;8;2020-12-14;Unidades de Internacao;Tempo E Ativid. Protrombina (Tp);Tempo de Protrombina;11.8;segundos;10,1 a 12,8;False
D73C3D1EBC3E359A8E53935B50CBF052;75A89BE4BDB9C21EFC1F3F9B48FA2359;M;1974;2020-12-07;2020-12-15;Alta medica melhorado;8;2020-12-12;UTI;Tempo E Ativid. Protrombina (Tp);Tempo de Protrombina;11.7;segundos;10,1 a 12,8;False
D73C3D1EBC3E359A8E53935B50CBF052;75A89BE4BDB9C21EFC1F3F9B48FA2359;M;1974;2020-12-07;2020-12-15;Alta medica melhorado;8;2020-12-09;UTI;Tempo E Ativid. Protrombina (Tp);Tempo de Protrombina;11.7;segundos;10,1 a 12,8;False
D8719DD3838FABA9B22646221CB2098D;CCFAFC7F2AC8B98B93190FA26936BB78;M;1983;2020-08-26;2020-08-31;Alta medica melhorado;5;2020-08-26;Unidades de Internacao;Tempo E Ativid. Protrombina (Tp);Tempo de Protrombina;12.4;segundos;10,1 a 12,8;False
D8719DD3838FABA9B22646221CB2098D;CCFAFC7F2AC8B98B93190FA26936BB78;M;1983;2020-08-26;2020-08-31;Alta medica melhorado;5;2020-08-29;UTI;Tempo E Ativid. Protrombina (Tp);Tempo de Protrombina;12.6;segundos;10,1 a 12,8;False
D8719DD3838FABA9B22646221CB2098D;CCFAFC7F2AC8B98B93190FA26936BB78;M;1983;2020-08-26;2020-08-31;Alta medica melhorado;5;2020-08-29;UTI;Tempo E Ativid. Protrombina (Tp);Tempo de Protrombina;11.3;segundos;10,1 a 12,8;False
DAC8CFE4B4D81DA591F539EE59C66197;959F83F65A4AAC870490E919129C71AE;M;1984;2020-07-20;2020-07-22;Alta medica melhorado;2;2020-07-20;UTI;Tempo E Ativid. Protrombina (Tp);Tempo de Protrombina;13.7;segundos;10,1 a 12,8;False
DAD74BD28CC9DF8E6B164925F2FD0A69;ABC3333C93A7098CB1DA7BBA17107D71;M;1982;2020-04-29;2020-05-03;Alta medica melhorado;4;2020-04-29;Unidades de Internacao;Tempo E Ativid. Protrombina (Tp);Tempo de Protrombina;13.0;segundos;10,1 a 12,8;False
DCEFDE8251F36244D29702A96011F73B;40DB5723E06DAD7350E3EC5F9C132E62;M;1986;2020-09-03;2020-09-14;Alta medica melhorado;11;2020-09-05;UTI;Tempo E Ativid. Protrombina (Tp);Tempo de Protrombina;13.5;segundos;10,1 a 12,8;False
E1CEA0A43CAEE48229C9F95664FA9B12;05D4C3802C542D2B3B75B146AF8515E1;M;1981;2020-10-16;2020-10-24;Alta medica melhorado;8;2020-10-23;Unidades de Internacao;Tempo E Ativid. Protrombina (Tp);Tempo de Protrombina;24.9;segundos;10,1 a 12,8;True
E1CEA0A43CAEE48229C9F95664FA9B12;05D4C3802C542D2B3B75B146AF8515E1;M;1981;2020-10-16;2020-10-24;Alta medica melhorado;8;2020-10-21;Unidades de Internacao;Tempo E Ativid. Protrombina (Tp);Tempo de Protrombina;22.9;segundos;10,1 a 12,8;True
E1CEA0A43CAEE48229C9F95664FA9B12;05D4C3802C542D2B3B75B146AF8515E1;M;1981;2020-10-16;2020-10-24;Alta medica melhorado;8;2020-10-20;Unidades de Internacao;Tempo E Ativid. Protrombina (Tp);Tempo de Protrombina;24.0;segundos;10,1 a 12,8;True
E1CEA0A43CAEE48229C9F95664FA9B12;05D4C3802C542D2B3B75B146AF8515E1;M;1981;2020-10-16;2020-10-24;Alta medica melhorado;8;2020-10-18;Unidades de Internacao;Tempo E Ativid. Protrombina (Tp);Tempo de Protrombina;12.9;segundos;10,1 a 12,8;False
E32857191989417E4C36C129E3371E05;F7ED5454C58913A6A68E7A9F697475CA;M;1977;2020-06-20;2020-06-26;Alta medica melhorado;6;2020-06-20;Unidades de Internacao;Tempo E Ativid. Protrombina (Tp);Tempo de Protrombina;11.3;segundos;10,1 a 12,8;False
E6A5300EE1E62FB8D790EE9DB90907B9;A2E760394A8BE30F4B237B64FAE11632;M;1981;2020-04-20;2020-04-22;Alta medica melhorado;2;2020-04-20;Unidades de Internacao;Tempo E Ativid. Protrombina (Tp);Tempo de Protrombina;12.6;segundos;10,1 a 12,8;False
E8B257CD19D78900C73F248B342A2AB7;5F9CEA0D368E4C8DA53613629B0B638A;M;1974;2020-05-19;2020-05-28;Alta medica melhorado;9;2020-05-23;Unidades de Internacao;Tempo E Ativid. Protrombina (Tp);Tempo de Protrombina;15.9;segundos;10,1 a 12,8;True
E8B257CD19D78900C73F248B342A2AB7;5F9CEA0D368E4C8DA53613629B0B638A;M;1974;2020-05-19;2020-05-28;Alta medica melhorado;9;2020-05-19;UTI;Tempo E Ativid. Protrombina (Tp);Tempo de Protrombina;15.3;segundos;10,1 a 12,8;False
E8B257CD19D78900C73F248B342A2AB7;5F9CEA0D368E4C8DA53613629B0B638A;M;1974;2020-05-19;2020-05-28;Alta medica melhorado;9;2020-05-20;UTI;Tempo E Ativid. Protrombina (Tp);Tempo de Protrombina;16.4;segundos;10,1 a 12,8;True
E97B99E0AB37D01565D008B2D4F9F939;F6694058DD51FAC94010F209427EC6ED;M;1993;2020-09-27;2020-10-08;Alta por abandono;11;2020-09-27;UTI;Tempo E Ativid. Protrombina (Tp);Tempo de Protrombina;13.6;segundos;10,1 a 12,8;False
ED99781E5611AB4CDA99ADB5565B8938;60705F782086222B0B2D96E898E57E47;M;1990;2020-12-08;2020-12-14;Alta medica melhorado;6;2020-12-10;Unidades de Internacao;Tempo E Ativid. Protrombina (Tp);Tempo de Protrombina;17.7;segundos;10,1 a 12,8;True
F1C72DDFD83093BD5F02037DEA10BA58;2397D7E0B59D13FE01F8AE4A5C8758CF;M;1981;2020-08-13;2020-08-17;Alta Administrativa;4;2020-08-13;Endoscopia;Tempo E Ativid. Protrombina (Tp);Tempo de Protrombina;11.0;segundos;10,1 a 12,8;False
F24152778C6EBEA830D4803C032CD7D2;3BE3B204C5FE7D1BDB817A51823C9E96;M;1983;2020-11-15;2020-11-22;Alta medica melhorado;7;2020-11-16;UTI;Tempo E Ativid. Protrombina (Tp);Tempo de Protrombina;12.8;segundos;10,1 a 12,8;False
F24152778C6EBEA830D4803C032CD7D2;3BE3B204C5FE7D1BDB817A51823C9E96;M;1983;2020-11-15;2020-11-22;Alta medica melhorado;7;2020-11-17;UTI;Tempo E Ativid. Protrombina (Tp);Tempo de Protrombina;12.9;segundos;10,1 a 12,8;False
F5147DBA5349666CCE2338A816632097;10A970AEC46B190442D6DDA0114F45B0;M;1975;2020-04-01;2020-04-04;Alta medica melhorado;3;2020-04-02;Unidades de Internacao;Tempo E Ativid. Protrombina (Tp);Tempo de Protrombina;12.7;segundos;10,1 a 12,8;False
F883E0D24A78B0F05DA41C6DAB3C54BB;D7BEF14602F56D6B4EDFF8641BFBBB41;M;1976;2020-08-17;2020-09-07;Alta medica melhorado;21;2020-08-17;UTI;Tempo E Ativid. Protrombina (Tp);Tempo de Protrombina;13.6;segundos;10,1 a 12,8;False
FA562F70751CB2D2250FB588BB924530;CBD8A7EA49C5A55698F2A006791DDB79;M;1975;2020-12-05;2020-12-08;Alta medica melhorado;3;2020-12-05;Unidades de Internacao;Tempo E Ativid. Protrombina (Tp);Tempo de Protrombina;11.1;segundos;10,1 a 12,8;False
FACA2D3CAD7DE512DFC6A52F652B25A4;2B29D7D4C13F97DA30F08952367A4DDF;M;1973;2020-03-26;2020-03-31;Alta medica curado;5;2020-03-26;Unidades de Internacao;Tempo E Ativid. Protrombina (Tp);Tempo de Protrombina;11.0;segundos;10,1 a 12,8;False
FACA2D3CAD7DE512DFC6A52F652B25A4;340535759712E53FA8DE06ACF32105DE;M;1973;2020-05-02;2020-05-09;Alta medica melhorado;7;2020-05-04;Unidades de Internacao;Tempo E Ativid. Protrombina (Tp);Tempo de Protrombina;11.4;segundos;10,1 a 12,8;False
FACA2D3CAD7DE512DFC6A52F652B25A4;340535759712E53FA8DE06ACF32105DE;M;1973;2020-05-02;2020-05-09;Alta medica melhorado;7;2020-05-02;Unidades de Internacao;Tempo E Ativid. Protrombina (Tp);Tempo de Protrombina;13.8;segundos;10,1 a 12,8;False
FC37D2ADDD33B7EFABA605F14AD17997;E2512FCA581511B20C9308A3922D6767;M;1986;2020-05-11;2020-05-20;Alta medica melhorado;9;2020-05-11;Unidades de Internacao;Tempo E Ativid. Protrombina (Tp);Tempo de Protrombina;13.2;segundos;10,1 a 12,8;False
FE6F83131CFD125E3D2C3C2CE1FD0894;93A72F34F671DF0A4BC5D3F70D9339BB;M;1985;2020-04-01;2020-04-04;Alta medica melhorado;3;2020-04-02;Unidades de Internacao;Tempo E Ativid. Protrombina (Tp);Tempo de Protrombina;13.4;segundos;10,1 a 12,8;False
FEF4E7E3DB35AA3F20DF2A5AAC850D6F;B9E9F522A1A5A1DB1A8765E25E358C6D;M;1976;2020-06-03;2020-06-09;Alta medica melhorado;6;2020-06-03;Unidades de Internacao;Tempo E Ativid. Protrombina (Tp);Tempo de Protrombina;12.5;segundos;10,1 a 12,8;False
