ID_PACIENTE;ID_ATENDIMENTO;IC_SEXO;aa_nascimento;DT_ATENDIMENTO;DT_DESFECHO;DE_DESFECHO;DAYS;DT_COLETA;DE_ORIGEM;DE_EXAME;DE_ANALITO;DE_RESULTADO;CD_UNIDADE;DE_VALOR_REFERENCIA;OUTLIERS
268635F257CBDDF689234B8ECBF265A5;929DAD351F8820C496B712DA32B03846;F;1996;2020-08-25;2020-08-27;Alta Administrativa;2;2020-08-27;Check Up - Itaim;Transaminase Oxalacetica ( Tgo );AST (TGO);14;U/L;Ate 32;False
2EE5D285C95B1C6C6508473C0A8D11BE;5226377B8AC468FEE9CD64F23C515CAB;F;1984;2020-11-26;2020-12-01;Alta Administrativa;5;2020-11-30;Check Up - Itaim;Transaminase Oxalacetica ( Tgo );AST (TGO);16;U/L;Ate 32;False
43585341FB560D7A74608A5F244ECCD2;B2C48F1E7CFF7E8DEFED07FE5777D510;F;1977;2020-06-04;2020-06-08;Alta Administrativa;4;2020-06-04;Endoscopia;Transaminase Oxalacetica ( Tgo );AST (TGO);35;U/L;Ate 32;False
48F950E1BB5D08CC479E6D02D9ABFF78;4D8BE118532CF35AF5218E2DB571A86E;F;1998;2020-11-30;2020-12-02;Alta Administrativa;2;2020-11-30;Radiologia Geral;Transaminase Oxalacetica ( Tgo );AST (TGO);20;U/L;Ate 32;False
4F410CE9F6A937EA35002D1737B821B8;A949703A35B8A0515CC760696405E48B;F;1979;2020-09-15;2020-09-17;Alta Administrativa;2;2020-09-17;Check Up - Itaim;Transaminase Oxalacetica ( Tgo );AST (TGO);20;U/L;Ate 32;False
5A80D6253DEFE6E608426618C9083FD3;774B1B00C0E680A953D8C8452ECB05DD;F;1973;2020-08-28;2020-09-02;Alta Administrativa;5;2020-08-28;Densitometria Ossea - Jardins;Transaminase Oxalacetica ( Tgo );AST (TGO);28;U/L;Ate 32;False
92D97A438C6077DEEC7624134EA7C9D5;4F961CC5F1B2578F029EC93FC3B5D8DB;F;1979;2020-08-31;2020-09-02;Alta Administrativa;2;2020-09-02;Check Up - Itaim;Transaminase Oxalacetica ( Tgo );AST (TGO);16;U/L;Ate 32;False
94D3FC92C242927FC6F8C6CD290CF80F;8721945CA57A918A02BB8F5882885356;F;1979;2020-07-28;2020-07-31;Alta Administrativa;3;2020-07-28;Ultrassonografia;Transaminase Oxalacetica ( Tgo );AST (TGO);16;U/L;Ate 32;False
C15B6D7CC883AA5ECB17DE5A3A689D9A;2AAE26377A78DC515F1652CB013E904D;F;1975;2020-12-20;2020-12-22;Alta Administrativa;2;2020-12-21;Oncologia Clinica - Brasilia II;Transaminase Oxalacetica ( Tgo );AST (TGO);260;U/L;Ate 32;True
