ID_PACIENTE;ID_ATENDIMENTO;IC_SEXO;aa_nascimento;DT_ATENDIMENTO;DT_DESFECHO;DE_DESFECHO;DAYS;DT_COLETA;DE_ORIGEM;DE_EXAME;DE_ANALITO;DE_RESULTADO;CD_UNIDADE;DE_VALOR_REFERENCIA;OUTLIERS
009F46271AA900748E4C1988E51427DC;8B850E19AEADBE71ADA977CC87601BD8;M;1974;2020-10-28;2020-10-30;Alta Administrativa;2;2020-10-28;Endoscopia - Itaim;Transaminase Oxalacetica ( Tgo );AST (TGO);20;U/L;Ate 40;False
512D9396798DD0172B614F4CBC4BCA26;23552E9D8943F174AD07C701DA9FDFB3;M;1974;2020-08-28;2020-08-31;Alta Administrativa;3;2020-08-28;Recepcao do Centro Diagnostico;Transaminase Oxalacetica ( Tgo );AST (TGO);20;U/L;Ate 40;False
56FCFBDAC40E697F6325562A0407A0C3;4CFF0978C91A2EC55F1894C39FC09F77;M;1974;2020-08-26;2020-08-31;Alta Administrativa;5;2020-08-31;Check Up - Itaim;Transaminase Oxalacetica ( Tgo );AST (TGO);20;U/L;Ate 40;False
6F0C827724760C0427F79F83E55D1A89;806BBD561AD8264D6278BD31EC24609C;M;1990;2020-03-19;2020-03-23;Alta Administrativa;4;2020-03-19;Recepcao do Centro Diagnostico;Transaminase Oxalacetica ( Tgo );AST (TGO);47;U/L;Ate 40;False
79B687D7EAC8FB4A9E272C5AD8315255;C2FD730EA57656CE8B34EA2C5416F265;M;1980;2020-06-30;2020-07-03;Alta Administrativa;3;2020-07-03;Check Up - Itaim;Transaminase Oxalacetica ( Tgo );AST (TGO);22;U/L;Ate 40;False
AA1E0A1BBB04DBFB2D4FE21BDB45FB74;645419AC86B05340C11B86E3E72C2417;M;1977;2020-08-08;2020-08-11;Alta Administrativa;3;2020-08-08;Recepcao do Centro Diagnostico;Transaminase Oxalacetica ( Tgo );AST (TGO);28;U/L;Ate 40;False
DCE803CC417DB981D4B8505344982026;23328ACDC90C35EFBAC74175444CED52;M;1980;2020-12-18;2020-12-21;Alta Administrativa;3;2020-12-21;Check Up - Itaim;Transaminase Oxalacetica ( Tgo );AST (TGO);40;U/L;Ate 40;False
E550128723721F799B9701E321A2A56B;C1530B97281843E49F533DC903467FB5;M;1981;2020-10-24;2020-10-26;Alta Administrativa;2;2020-10-24;Recepcao do Centro Diagnostico;Transaminase Oxalacetica ( Tgo );AST (TGO);20;U/L;Ate 40;False
EB1AF85CC20F1FBDA241C827E6807673;112F524BB993CDF6B10D3714563C376A;M;1974;2020-11-25;2020-11-27;Alta Administrativa;2;2020-11-27;Check Up - Itaim;Transaminase Oxalacetica ( Tgo );AST (TGO);18;U/L;Ate 40;False
EEFE7243D248E2B47A9AEEDAD177197E;0FAB23DE2A0263EC8FBE4C9B233AD5F8;M;1974;2020-11-11;2020-11-13;Alta Administrativa;2;2020-11-13;Check Up - Itaim;Transaminase Oxalacetica ( Tgo );AST (TGO);59;U/L;Ate 40;True
F1C72DDFD83093BD5F02037DEA10BA58;2397D7E0B59D13FE01F8AE4A5C8758CF;M;1981;2020-08-13;2020-08-17;Alta Administrativa;4;2020-08-13;Endoscopia;Transaminase Oxalacetica ( Tgo );AST (TGO);17;U/L;Ate 40;False
F455C5294898ED5F99C0596E6D1F33A4;F566EA085360CCCB4606C9C018B77193;M;1985;2020-08-17;2020-08-19;Alta Administrativa;2;2020-08-18;Check Up - Itaim;Transaminase Oxalacetica ( Tgo );AST (TGO);19;U/L;Ate 40;False
