ID_PACIENTE;ID_ATENDIMENTO;IC_SEXO;aa_nascimento;DT_ATENDIMENTO;DT_DESFECHO;DE_DESFECHO;DAYS;DT_COLETA;DE_ORIGEM;DE_EXAME;DE_ANALITO;DE_RESULTADO;CD_UNIDADE;DE_VALOR_REFERENCIA;OUTLIERS
4B6AE3302D691767A6BF220E359125C7;A442041A66611B42B9E120360EF6B172;F;1982;2020-11-12;2020-12-27;Alta medica melhorado;45;2020-11-12;UTI;Urina, Exame de, para Unidades, sem especificacao de jato;Proteinas, urina isolada;1.5;g/L;inferior a 0,10;False
6F0A6A0E0839924AD125035171DD456F;8868FDC3A0E8F33E56A81745A733E82B;F;1972;2020-04-08;2020-04-24;Alta medica melhorado;16;2020-04-08;Pronto Socorro;Urina, Exame de, para Unidades, sem especificacao de jato;Proteinas, urina isolada;0.25;g/L;inferior a 0,10;False
C15B6D7CC883AA5ECB17DE5A3A689D9A;529EF9CC6477BFC62F7261EE20BF91BE;F;1975;2020-10-16;2020-10-23;Alta medica melhorado;7;2020-10-16;Pronto Socorro;Urina, Exame de, para Unidades, sem especificacao de jato;Proteinas, urina isolada;;g/L;inferior a 0,10;False
