ID_PACIENTE;ID_ATENDIMENTO;IC_SEXO;aa_nascimento;DT_ATENDIMENTO;DT_DESFECHO;DE_DESFECHO;DAYS;DT_COLETA;DE_ORIGEM;DE_EXAME;DE_ANALITO;DE_RESULTADO;CD_UNIDADE;DE_VALOR_REFERENCIA;OUTLIERS
035DBD28881B01653BB23C5EC4EB78B5;209DC473A96FA8B356F8F0CF340058BA;M;1972;2020-11-13;2020-11-18;Alta medica melhorado;5;2020-11-13;Unidades de Internacao;Urina Tipo I - Jato Medio;Urobilinogenio,urina;;mg/dL;inferior a 1,0 (negativa);False
03F88C460CB54521F2310AB3663708F2;040A11F1E0218F09BBF2A7298E7BA49B;M;1976;2020-05-11;2020-05-18;Alta medica melhorado;7;2020-05-12;Unidades de Internacao;Urina Tipo I - Jato Medio;Urobilinogenio,urina;;mg/dL;inferior a 1,0 (negativa);False
049DEE3F068A7E296D556378A6731806;AD3033D4AE8FE0E12DA6869F5DF24829;M;1978;2020-03-24;2020-03-31;Alta por abandono;7;2020-03-24;Unidades de Internacao;Urina Tipo I - Jato Medio;Urobilinogenio,urina;;mg/dL;inferior a 1,0 (negativa);False
0AA76D3097610B266CE70AEB68DE4CAA;55A2828AC8DF548A9417157640B634BD;M;1975;2020-08-14;2020-08-17;Alta medica melhorado;3;2020-08-14;Pronto Socorro;Urina Tipo I - Jato Medio;Urobilinogenio,urina;;mg/dL;inferior a 1,0 (negativa);False
0B13120E7B38BC22BA4E127465B9CCB0;9FE813AA4DBE64E947EA0A71F87881DE;M;1973;2020-08-01;2020-09-16;Alta medica melhorado;46;2020-08-10;UTI;Urina Tipo I - Jato Medio;Urobilinogenio,urina;;mg/dL;inferior a 1,0 (negativa);False
0B13120E7B38BC22BA4E127465B9CCB0;9FE813AA4DBE64E947EA0A71F87881DE;M;1973;2020-08-01;2020-09-16;Alta medica melhorado;46;2020-08-26;UTI;Urina Tipo I - Jato Medio;Urobilinogenio,urina;;mg/dL;inferior a 1,0 (negativa);False
0B13120E7B38BC22BA4E127465B9CCB0;9FE813AA4DBE64E947EA0A71F87881DE;M;1973;2020-08-01;2020-09-16;Alta medica melhorado;46;2020-08-22;UTI;Urina Tipo I - Jato Medio;Urobilinogenio,urina;;mg/dL;inferior a 1,0 (negativa);False
0B13120E7B38BC22BA4E127465B9CCB0;9FE813AA4DBE64E947EA0A71F87881DE;M;1973;2020-08-01;2020-09-16;Alta medica melhorado;46;2020-08-17;UTI;Urina Tipo I - Jato Medio;Urobilinogenio,urina;;mg/dL;inferior a 1,0 (negativa);False
0B13120E7B38BC22BA4E127465B9CCB0;9FE813AA4DBE64E947EA0A71F87881DE;M;1973;2020-08-01;2020-09-16;Alta medica melhorado;46;2020-08-02;UTI;Urina Tipo I - Jato Medio;Urobilinogenio,urina;;mg/dL;inferior a 1,0 (negativa);False
0B13120E7B38BC22BA4E127465B9CCB0;9FE813AA4DBE64E947EA0A71F87881DE;M;1973;2020-08-01;2020-09-16;Alta medica melhorado;46;2020-08-01;UTI;Urina Tipo I - Jato Medio;Urobilinogenio,urina;;mg/dL;inferior a 1,0 (negativa);False
0B13120E7B38BC22BA4E127465B9CCB0;9FE813AA4DBE64E947EA0A71F87881DE;M;1973;2020-08-01;2020-09-16;Alta medica melhorado;46;2020-09-08;UTI;Urina Tipo I - Jato Medio;Urobilinogenio,urina;;mg/dL;inferior a 1,0 (negativa);False
10357584BCAB138E5845DA86DA057AE0;47B0DF6DC6A718AAF4EFC9D4EAECD0CB;M;1981;2020-10-22;2020-10-26;Alta medica melhorado;4;2020-10-22;UTI;Urina Tipo I - Jato Medio;Urobilinogenio,urina;;mg/dL;inferior a 1,0 (negativa);False
129870EDC9C04FB9F4AD5D463C73206E;BDED7A55198D595BF47008B53C8EAA8C;M;1993;2020-07-12;2020-08-03;Alta medica melhorado;22;2020-07-13;UTI;Urina Tipo I - Jato Medio;Urobilinogenio,urina;;mg/dL;inferior a 1,0 (negativa);False
129870EDC9C04FB9F4AD5D463C73206E;BDED7A55198D595BF47008B53C8EAA8C;M;1993;2020-07-12;2020-08-03;Alta medica melhorado;22;2020-07-26;UTI;Urina Tipo I - Jato Medio;Urobilinogenio,urina;;mg/dL;inferior a 1,0 (negativa);False
16DC5FD5028117F305076A30074F7FD5;BA5D3DDEAD49ABDC1C73FA5F0401C862;M;1980;2020-10-05;2020-10-07;Alta medica melhorado;2;2020-10-05;Unidades de Internacao;Urina Tipo I - Jato Medio;Urobilinogenio,urina;;mg/dL;inferior a 1,0 (negativa);False
1BB3B4F98ECF181E3E71EBD2743E69A7;A973EE096F5A17E5EAA6778939355926;M;1972;2020-11-10;2020-11-22;Alta medica melhorado;12;2020-11-11;UTI;Urina Tipo I - Jato Medio;Urobilinogenio,urina;;mg/dL;inferior a 1,0 (negativa);False
1E3EDF92D8E711CFA4F3DB90B39CAADD;3872C812F4E886EA6853527A4BA89D31;M;1976;2020-05-18;2020-05-26;Alta medica melhorado;8;2020-05-18;UTI;Urina Tipo I - Jato Medio;Urobilinogenio,urina;8.0;mg/dL;inferior a 1,0 (negativa);False
20735965EADB3D4E7E95FF6793C1AC1F;739E13E880B3BA5146A30380802566B2;M;1985;2020-08-30;2020-09-05;Alta medica melhorado;6;2020-08-30;Unidades de Internacao;Urina Tipo I - Jato Medio;Urobilinogenio,urina;;mg/dL;inferior a 1,0 (negativa);False
20BBC39E389F78D871B8253CCA27A96D;69967203EEA41B2A2AE320FC8DA3776D;M;1993;2020-12-21;2020-12-24;Alta medica melhorado;3;2020-12-21;Unidades de Internacao;Urina Tipo I - Jato Medio;Urobilinogenio,urina;;mg/dL;inferior a 1,0 (negativa);False
23BA136176838334E91571316B6F064F;02120937FF3E1404A3B170588F43FFB3;M;1990;2020-06-03;2020-06-11;Alta medica melhorado;8;2020-06-09;Unidades de Internacao;Urina Tipo I - Jato Medio;Urobilinogenio,urina;;mg/dL;inferior a 1,0 (negativa);False
23BA136176838334E91571316B6F064F;02120937FF3E1404A3B170588F43FFB3;M;1990;2020-06-03;2020-06-11;Alta medica melhorado;8;2020-06-05;UTI;Urina Tipo I - Jato Medio;Urobilinogenio,urina;;mg/dL;inferior a 1,0 (negativa);False
2D8FA64EADAC298D990AFF5056CE74E2;45586AC66465001B489E9F9C719CAAF2;M;1983;2020-12-14;2020-12-21;Alta medica melhorado;7;2020-12-15;UTI;Urina Tipo I - Jato Medio;Urobilinogenio,urina;;mg/dL;inferior a 1,0 (negativa);False
359A0501785DCA37B0C9EB14E72CB191;5D368BE8BF8743102626618C57208DED;M;1974;2020-07-31;2020-08-17;Alta medica melhorado;17;2020-08-09;UTI;Urina Tipo I - Jato Medio;Urobilinogenio,urina;;mg/dL;inferior a 1,0 (negativa);False
3FC618E35CE334C0BB939DCA3819CBD5;7F74737C9274988A6641ED16F14999CE;M;1988;2020-09-24;2020-10-05;Alta medica melhorado;11;2020-09-24;UTI;Urina Tipo I - Jato Medio;Urobilinogenio,urina;;mg/dL;inferior a 1,0 (negativa);False
42DABE2E6286CF615054F8AE42A2D912;27EE47694A56A4C3E90C6AE4D3441D8F;M;1981;2020-10-25;2020-10-27;Alta medica melhorado;2;2020-10-26;Unidades de Internacao;Urina Tipo I - Jato Medio;Urobilinogenio,urina;;mg/dL;inferior a 1,0 (negativa);False
495E67D109A9233DA13660CF0C909071;52B9B013CCCDFD24A185D09F906D7007;M;1992;2020-12-13;2020-12-18;Alta medica melhorado;5;2020-12-13;Unidades de Internacao;Urina Tipo I - Jato Medio;Urobilinogenio,urina;;mg/dL;inferior a 1,0 (negativa);False
4AD7B823E33E91F464EC0B3C88EA42E5;6FF3807680EA9A3A52D4A6DC17955B4F;M;1975;2020-03-02;2020-03-12;Alta medica melhorado;10;2020-03-02;Unidades de Internacao;Urina Tipo I - Jato Medio;Urobilinogenio,urina;;mg/dL;inferior a 1,0 (negativa);False
4AD7B823E33E91F464EC0B3C88EA42E5;84E6AA481402E87E8CAB9C4C2326E407;M;1975;2020-06-30;2020-07-11;Alta medica melhorado;11;2020-06-30;Unidades de Internacao;Urina Tipo I - Jato Medio;Urobilinogenio,urina;;mg/dL;inferior a 1,0 (negativa);False
4E47EA303D46FD96E74153C80784C16E;816B2EF2BC30CF7F6A6C7AC92D487E67;M;1984;2020-11-14;2020-11-17;Alta medica melhorado;3;2020-11-14;Unidades de Internacao;Urina Tipo I - Jato Medio;Urobilinogenio,urina;;mg/dL;inferior a 1,0 (negativa);False
4EF8F819365BE6F1CDBEF0CF30A93171;9991FD8F66F76154F69A75444A5BA3D7;M;1993;2020-04-20;2020-04-23;Alta medica melhorado;3;2020-04-20;Unidades de Internacao;Urina Tipo I - Jato Medio;Urobilinogenio,urina;;mg/dL;inferior a 1,0 (negativa);False
4FF4D80A41C10D1FB3789904B43DC5BD;4A187A8F5C213F2B9DD345079D4586FC;M;1974;2020-04-17;2020-05-14;Alta medica melhorado;27;2020-04-18;UTI;Urina Tipo I - Jato Medio;Urobilinogenio,urina;;mg/dL;inferior a 1,0 (negativa);False
4FF4D80A41C10D1FB3789904B43DC5BD;4A187A8F5C213F2B9DD345079D4586FC;M;1974;2020-04-17;2020-05-14;Alta medica melhorado;27;2020-04-25;UTI;Urina Tipo I - Jato Medio;Urobilinogenio,urina;;mg/dL;inferior a 1,0 (negativa);False
4FF4D80A41C10D1FB3789904B43DC5BD;4A187A8F5C213F2B9DD345079D4586FC;M;1974;2020-04-17;2020-05-14;Alta medica melhorado;27;2020-04-24;UTI;Urina Tipo I - Jato Medio;Urobilinogenio,urina;;mg/dL;inferior a 1,0 (negativa);False
52D08F816B29ABCD4FA05EFA0A4B5E22;62B7D13B05955A300AB147EB611784D9;M;1993;2020-03-04;2020-03-07;Alta medica melhorado;3;2020-03-04;Unidades de Internacao;Urina Tipo I - Jato Medio;Urobilinogenio,urina;;mg/dL;inferior a 1,0 (negativa);False
52D08F816B29ABCD4FA05EFA0A4B5E22;62B7D13B05955A300AB147EB611784D9;M;1993;2020-03-04;2020-03-07;Alta medica melhorado;3;2020-03-06;Unidades de Internacao;Urina Tipo I - Jato Medio;Urobilinogenio,urina;;mg/dL;inferior a 1,0 (negativa);False
5494273A26E9ADA1E7800FB968D09819;EB4F0FBAB232916DB8AEB4E57849E655;M;1978;2020-05-08;2020-06-02;Alta medica melhorado;25;2020-05-14;UTI;Urina Tipo I - Jato Medio;Urobilinogenio,urina;;mg/dL;inferior a 1,0 (negativa);False
56FCFBDAC40E697F6325562A0407A0C3;4CFF0978C91A2EC55F1894C39FC09F77;M;1974;2020-08-26;2020-08-31;Alta Administrativa;5;2020-08-31;Check Up - Itaim;Urina Tipo I - Jato Medio;Urobilinogenio,urina;;mg/dL;inferior a 1,0 (negativa);False
578BB4C29D0146720385F5D340BAA303;E5AF1C5180988A0E18A1F5D6028E7A3B;M;1972;2020-12-10;2020-12-13;Alta medica melhorado;3;2020-12-10;Unidades de Internacao;Urina Tipo I - Jato Medio;Urobilinogenio,urina;;mg/dL;inferior a 1,0 (negativa);False
65F50FFCAFE403B0A63D9B962C96AF75;A44B4F24BA3FBC57EC9BB8460376CA38;M;1981;2020-11-28;2020-12-04;Alta medica melhorado;6;2020-11-28;Unidades de Internacao;Urina Tipo I - Jato Medio;Urobilinogenio,urina;;mg/dL;inferior a 1,0 (negativa);False
6688522AB8A03FA659460E58C4693832;A06A54F2F609DC32DF568C0A3133FB7E;M;1979;2020-04-13;2020-05-15;Alta medica melhorado;32;2020-04-22;UTI;Urina Tipo I - Jato Medio;Urobilinogenio,urina;8.0;mg/dL;inferior a 1,0 (negativa);False
6688522AB8A03FA659460E58C4693832;A06A54F2F609DC32DF568C0A3133FB7E;M;1979;2020-04-13;2020-05-15;Alta medica melhorado;32;2020-04-15;UTI;Urina Tipo I - Jato Medio;Urobilinogenio,urina;;mg/dL;inferior a 1,0 (negativa);False
6719ED11DF53988643E038B42D1E09F9;0A8B826C2A245ED4A313C0C2204447C0;M;1979;2020-04-07;2020-04-26;Alta medica melhorado;19;2020-04-07;Unidades de Internacao;Urina Tipo I - Jato Medio;Urobilinogenio,urina;;mg/dL;inferior a 1,0 (negativa);False
6719ED11DF53988643E038B42D1E09F9;0A8B826C2A245ED4A313C0C2204447C0;M;1979;2020-04-07;2020-04-26;Alta medica melhorado;19;2020-04-11;UTI;Urina Tipo I - Jato Medio;Urobilinogenio,urina;;mg/dL;inferior a 1,0 (negativa);False
6A0F152CFA8FC4FCC3B316344AE1D921;24B33251FB66EC9CD1CB595CB8D234AC;M;1981;2020-10-28;2020-10-30;Alta medica melhorado;2;2020-10-28;Unidades de Internacao;Urina Tipo I - Jato Medio;Urobilinogenio,urina;;mg/dL;inferior a 1,0 (negativa);False
6E87F162304A22C5DD44097E6EF8CFC2;9A8D2C355F92C7C8447E75B62E260EDB;M;1980;2020-10-02;2020-10-06;Alta medica melhorado;4;2020-10-02;Unidades de Internacao;Urina Tipo I - Jato Medio;Urobilinogenio,urina;;mg/dL;inferior a 1,0 (negativa);False
6E90A1D7EE0808B255B597990B861430;FF85894FAD964212BE5879B264202AE1;M;1978;2020-08-06;2020-09-12;Alta medica melhorado;37;2020-08-19;UTI;Urina Tipo I - Jato Medio;Urobilinogenio,urina;;mg/dL;inferior a 1,0 (negativa);False
71A95C40D67FC91FFED0098A3627ABB3;4268B356C82A9FDC6C7C21BE209CFD76;M;2000;2020-12-11;2020-12-14;Alta medica melhorado;3;2020-12-11;Unidades de Internacao;Urina Tipo I - Jato Medio;Urobilinogenio,urina;;mg/dL;inferior a 1,0 (negativa);False
71A95C40D67FC91FFED0098A3627ABB3;5C78C01AA7B46330BFFFD2104128F440;M;2000;2020-05-02;2020-05-10;Alta medica melhorado;8;2020-05-02;Unidades de Internacao;Urina Tipo I - Jato Medio;Urobilinogenio,urina;;mg/dL;inferior a 1,0 (negativa);False
71A95C40D67FC91FFED0098A3627ABB3;ABE9EEDF894CA55405DF0165760B749F;M;2000;2020-04-01;2020-04-05;Alta Administrativa;4;2020-04-03;Centro de Oncologia;Urina Tipo I - Jato Medio;Urobilinogenio,urina;;mg/dL;inferior a 1,0 (negativa);False
71A95C40D67FC91FFED0098A3627ABB3;CF5D403CF4F61A9F39444FA4CF7D0F64;M;2000;2020-06-12;2020-06-18;Alta medica melhorado;6;2020-06-12;Unidades de Internacao;Urina Tipo I - Jato Medio;Urobilinogenio,urina;;mg/dL;inferior a 1,0 (negativa);False
71A95C40D67FC91FFED0098A3627ABB3;DCD20A0833DFE9B484D2073790F072F5;M;2000;2020-04-18;2020-04-24;Alta Administrativa;6;2020-04-20;Centro de Oncologia;Urina Tipo I - Jato Medio;Urobilinogenio,urina;;mg/dL;inferior a 1,0 (negativa);False
71A95C40D67FC91FFED0098A3627ABB3;E56E6A2B896B653A9F32241E31932052;M;2000;2020-10-24;2020-10-29;Alta medica melhorado;5;2020-10-24;Unidades de Internacao;Urina Tipo I - Jato Medio;Urobilinogenio,urina;;mg/dL;inferior a 1,0 (negativa);False
71A95C40D67FC91FFED0098A3627ABB3;EEA8E6B09B2C59A11E82432D1A5E2C51;M;2000;2020-04-25;2020-05-01;Alta Administrativa;6;2020-04-28;Centro de Oncologia;Urina Tipo I - Jato Medio;Urobilinogenio,urina;;mg/dL;inferior a 1,0 (negativa);False
72961C81E9323CCCE15B06955B5158D8;F64D620902F096D3900A18279CF58AC6;M;1981;2020-07-29;2020-08-10;Alta medica melhorado;12;2020-07-30;UTI;Urina Tipo I - Jato Medio;Urobilinogenio,urina;;mg/dL;inferior a 1,0 (negativa);False
77F68CC16EC923772C068A18CF4801D2;691644A3F4DC55291AF3AC958F6A8CAE;M;1973;2020-05-02;2020-05-08;Alta medica melhorado;6;2020-05-02;Unidades de Internacao;Urina Tipo I - Jato Medio;Urobilinogenio,urina;;mg/dL;inferior a 1,0 (negativa);False
79B687D7EAC8FB4A9E272C5AD8315255;C2FD730EA57656CE8B34EA2C5416F265;M;1980;2020-06-30;2020-07-03;Alta Administrativa;3;2020-07-03;Check Up - Itaim;Urina Tipo I - Jato Medio;Urobilinogenio,urina;;mg/dL;inferior a 1,0 (negativa);False
7A07FF0A25CFC843C77F905C23F7D114;B7448D7ED1B230E901AE05D0E500400A;M;1984;2020-07-12;2020-07-17;Alta medica melhorado;5;2020-07-13;Unidades de Internacao;Urina Tipo I - Jato Medio;Urobilinogenio,urina;;mg/dL;inferior a 1,0 (negativa);False
83544E8DF14082545BA63AE6974BD258;8AED7A376C4D7A088D9422C7D388F2DF;M;1973;2020-07-29;2020-10-02;Alta medica melhorado;65;2020-09-03;UTI;Urina Tipo I - Jato Medio;Urobilinogenio,urina;;mg/dL;inferior a 1,0 (negativa);False
83544E8DF14082545BA63AE6974BD258;8AED7A376C4D7A088D9422C7D388F2DF;M;1973;2020-07-29;2020-10-02;Alta medica melhorado;65;2020-09-11;UTI;Urina Tipo I - Jato Medio;Urobilinogenio,urina;;mg/dL;inferior a 1,0 (negativa);False
83544E8DF14082545BA63AE6974BD258;8AED7A376C4D7A088D9422C7D388F2DF;M;1973;2020-07-29;2020-10-02;Alta medica melhorado;65;2020-08-19;UTI;Urina Tipo I - Jato Medio;Urobilinogenio,urina;4.0;mg/dL;inferior a 1,0 (negativa);False
8C1CCAC70235541BCE271FA2EB28D797;E4FEECFF2FF0D891EE8EFAF1EFC05192;M;1972;2020-08-17;2020-08-27;Alta medica melhorado;10;2020-08-18;Unidades de Internacao;Urina Tipo I - Jato Medio;Urobilinogenio,urina;;mg/dL;inferior a 1,0 (negativa);False
8D418771A4DC9248AE8E04F451A121F8;D722B5972B89C8688F6AC3178A1617C8;M;1975;2020-07-06;2020-07-13;Alta medica melhorado;7;2020-07-06;Unidades de Internacao;Urina Tipo I - Jato Medio;Urobilinogenio,urina;;mg/dL;inferior a 1,0 (negativa);False
8D80443957B88EB53A5072036AD6488A;31E1B03E21E9F9FD4561AD7FB139E94F;M;1990;2020-11-08;2020-11-11;Alta medica melhorado;3;2020-11-10;Unidades de Internacao;Urina Tipo I - Jato Medio;Urobilinogenio,urina;;mg/dL;inferior a 1,0 (negativa);False
9281233AE14A8ECDA7F98387F2129324;5D46F392D6CE17CF383344C99C35C6D7;M;1978;2020-07-11;2020-07-19;Alta Administrativa;8;2020-07-12;Unidades de Internacao;Urina Tipo I - Jato Medio;Urobilinogenio,urina;;mg/dL;inferior a 1,0 (negativa);False
9A2FEF0E972CE7E63B4D268080E58085;2CEE5CBCA4AA85F449F7B4EE9764F456;M;1998;2020-03-10;2020-03-12;Alta Administrativa;2;2020-03-11;Oncologia Clinica - Brasilia;Urina Tipo I - Jato Medio;Urobilinogenio,urina;;mg/dL;inferior a 1,0 (negativa);False
9A4D0A9915AC7A7E4DE5853ECA648E5E;BCE6D6F3C9DC242514A0DC0D8D9029B8;M;1976;2020-08-03;2020-08-15;Alta medica melhorado;12;2020-08-03;UTI;Urina Tipo I - Jato Medio;Urobilinogenio,urina;;mg/dL;inferior a 1,0 (negativa);False
9DB0200C0CA6AFA4FCDDAF31A655BA50;26AFA473D21D927309D0EB143F2C1C61;M;1994;2020-08-05;2020-08-07;Alta medica melhorado;2;2020-08-05;Unidades de Internacao;Urina Tipo I - Jato Medio;Urobilinogenio,urina;;mg/dL;inferior a 1,0 (negativa);False
9F0062E1BD4A5603EBAF4593C7866332;A13779924543E5A8F2125C7B4DF07940;M;1985;2020-07-18;2020-07-22;Alta medica melhorado;4;2020-07-18;Unidades de Internacao;Urina Tipo I - Jato Medio;Urobilinogenio,urina;;mg/dL;inferior a 1,0 (negativa);False
AA1E0A1BBB04DBFB2D4FE21BDB45FB74;645419AC86B05340C11B86E3E72C2417;M;1977;2020-08-08;2020-08-11;Alta Administrativa;3;2020-08-08;Recepcao do Centro Diagnostico;Urina Tipo I - Jato Medio;Urobilinogenio,urina;;mg/dL;inferior a 1,0 (negativa);False
AF513D11AFDA9E48A94836A3F587D9EA;3578F59885E3ED195EADAEDDC4CB8A85;M;1981;2020-06-02;2020-07-31;Alta medica curado;59;2020-06-02;UTI;Urina Tipo I - Jato Medio;Urobilinogenio,urina;;mg/dL;inferior a 1,0 (negativa);False
AF513D11AFDA9E48A94836A3F587D9EA;3578F59885E3ED195EADAEDDC4CB8A85;M;1981;2020-06-02;2020-07-31;Alta medica curado;59;2020-07-13;Unidades de Internacao;Urina Tipo I - Jato Medio;Urobilinogenio,urina;;mg/dL;inferior a 1,0 (negativa);False
AF513D11AFDA9E48A94836A3F587D9EA;5902E52764E9CBD360069CB5F4B14A3A;M;1981;2020-05-11;2020-05-26;Alta medica melhorado;15;2020-05-11;UTI;Urina Tipo I - Jato Medio;Urobilinogenio,urina;;mg/dL;inferior a 1,0 (negativa);False
AFE2660E2B8D0BF1C0FEE02B5FBC6FD5;ECDE810DAD24E884B601E49A807303F4;M;1980;2020-10-31;2020-11-02;Alta medica melhorado;2;2020-10-31;Unidades de Internacao;Urina Tipo I - Jato Medio;Urobilinogenio,urina;;mg/dL;inferior a 1,0 (negativa);False
B244AA758DD8D29269F83900272C568B;E6FEBE3C2EF3CFA6192482D34FD844F2;M;1975;2020-04-02;2020-04-06;Alta medica melhorado;4;2020-04-03;Unidades de Internacao;Urina Tipo I - Jato Medio;Urobilinogenio,urina;;mg/dL;inferior a 1,0 (negativa);False
B31342F6827C51BDB39A32389F8EF2AD;830EC223B194619CF0E85AE0A60A71A0;M;1983;2020-09-06;2020-09-08;Alta medica melhorado;2;2020-09-06;Unidades de Internacao;Urina Tipo I - Jato Medio;Urobilinogenio,urina;;mg/dL;inferior a 1,0 (negativa);False
B4102D002D0FF995E23072AF92302BEB;4A46C999E690B0FFF50296BE7FD25E0F;M;1981;2020-05-15;2020-05-20;Alta medica melhorado;5;2020-05-15;Unidades de Internacao;Urina Tipo I - Jato Medio;Urobilinogenio,urina;;mg/dL;inferior a 1,0 (negativa);False
B8A0784D0596E9107EA2869C00266581;129B13B729D675A218B09DB59BD63EB7;M;1973;2020-10-18;2020-10-21;Alta medica melhorado;3;2020-10-18;UTI;Urina Tipo I - Jato Medio;Urobilinogenio,urina;;mg/dL;inferior a 1,0 (negativa);False
BC55696360C76C7F68F1CC4C0B8A5F0D;A5A242D0C4884F891108CB51E6FEB585;M;1982;2020-04-27;2020-05-12;Alta medica melhorado;15;2020-05-09;Unidades de Internacao;Urina Tipo I - Jato Medio;Urobilinogenio,urina;;mg/dL;inferior a 1,0 (negativa);False
BC55696360C76C7F68F1CC4C0B8A5F0D;A5A242D0C4884F891108CB51E6FEB585;M;1982;2020-04-27;2020-05-12;Alta medica melhorado;15;2020-05-10;Unidades de Internacao;Urina Tipo I - Jato Medio;Urobilinogenio,urina;;mg/dL;inferior a 1,0 (negativa);False
BC55696360C76C7F68F1CC4C0B8A5F0D;A5A242D0C4884F891108CB51E6FEB585;M;1982;2020-04-27;2020-05-12;Alta medica melhorado;15;2020-04-27;Unidades de Internacao;Urina Tipo I - Jato Medio;Urobilinogenio,urina;;mg/dL;inferior a 1,0 (negativa);False
BD505E1C7E6464324F7CD011C1F8583D;3644E6FB91748F694A0CD2D0766E23DA;M;1978;2020-04-29;2020-05-17;Alta medica melhorado;18;2020-04-29;UTI;Urina Tipo I - Jato Medio;Urobilinogenio,urina;;mg/dL;inferior a 1,0 (negativa);False
C5478CEF54EF7D3C0AEC5E7C5E942D10;F9B06A7CA110254BAFE448C04F3778A5;M;1975;2020-03-19;2020-04-01;Alta medica melhorado;13;2020-03-27;Unidades de Internacao;Urina Tipo I - Jato Medio;Urobilinogenio,urina;;mg/dL;inferior a 1,0 (negativa);False
C6251C08399C03360AE05CB45F6ECBFB;C33E88D1035B90665A8483846762D961;M;1974;2020-05-02;2020-05-14;Alta medica melhorado;12;2020-05-11;Unidades de Internacao;Urina Tipo I - Jato Medio;Urobilinogenio,urina;;mg/dL;inferior a 1,0 (negativa);False
C6251C08399C03360AE05CB45F6ECBFB;C33E88D1035B90665A8483846762D961;M;1974;2020-05-02;2020-05-14;Alta medica melhorado;12;2020-05-02;Unidades de Internacao;Urina Tipo I - Jato Medio;Urobilinogenio,urina;;mg/dL;inferior a 1,0 (negativa);False
C6251C08399C03360AE05CB45F6ECBFB;C33E88D1035B90665A8483846762D961;M;1974;2020-05-02;2020-05-14;Alta medica melhorado;12;2020-05-05;Unidades de Internacao;Urina Tipo I - Jato Medio;Urobilinogenio,urina;;mg/dL;inferior a 1,0 (negativa);False
C7B5F4F4EA9F6E8A25056B097827FB07;0F9972F88FF390325B06986CBFF311FC;M;1973;2020-09-17;2020-09-19;Alta medica melhorado;2;2020-09-17;Unidades de Internacao;Urina Tipo I - Jato Medio;Urobilinogenio,urina;;mg/dL;inferior a 1,0 (negativa);False
C7B5F4F4EA9F6E8A25056B097827FB07;9D9CD0B0325A406AC4C95F3D4B546999;M;1973;2020-10-23;2020-11-08;Alta medica melhorado;16;2020-10-31;UTI;Urina Tipo I - Jato Medio;Urobilinogenio,urina;;mg/dL;inferior a 1,0 (negativa);False
C872677CC8F2CB18D7C6F2AC065FBE48;F211D6064911CB65891FDCD96A78EB86;M;1982;2020-07-02;2020-07-05;Alta medica melhorado;3;2020-07-02;Unidades de Internacao;Urina Tipo I - Jato Medio;Urobilinogenio,urina;;mg/dL;inferior a 1,0 (negativa);False
CD69CB7D042C3E2CCB7BC7E7D579BFB1;ADBE3D1FD4F43B3E146FB2A01BB52736;M;1997;2020-07-23;2020-07-25;Alta medica melhorado;2;2020-07-24;Unidades de Internacao;Urina Tipo I - Jato Medio;Urobilinogenio,urina;;mg/dL;inferior a 1,0 (negativa);False
CE4F5CAD548B4ECEDB249FE8234ACC19;7206470A9F6F5F435979A6C71A1BF707;M;1980;2020-03-26;2020-04-13;Alta medica melhorado;18;2020-03-27;Unidades de Internacao;Urina Tipo I - Jato Medio;Urobilinogenio,urina;;mg/dL;inferior a 1,0 (negativa);False
D0A8C7D4EE47551EF25B7C43CAED7559;6E12C2392850DE74734F2A47D6C81A6C;M;1987;2020-06-16;2020-06-22;Alta medica melhorado;6;2020-06-16;UTI;Urina Tipo I - Jato Medio;Urobilinogenio,urina;;mg/dL;inferior a 1,0 (negativa);False
D2EE85DB6A7868529F91EECC85C480BC;9AA0EEBC0701B22C4468C85E0012B862;M;1979;2020-09-12;2020-09-19;Alta medica melhorado;7;2020-09-14;UTI;Urina Tipo I - Jato Medio;Urobilinogenio,urina;;mg/dL;inferior a 1,0 (negativa);False
D48C77C8131C33EDD38D14A2310C1753;445DB1D4CB6A3E72846FEC0959A6A52B;M;1985;2020-11-04;2020-11-06;Alta medica melhorado;2;2020-11-04;Unidades de Internacao;Urina Tipo I - Jato Medio;Urobilinogenio,urina;;mg/dL;inferior a 1,0 (negativa);False
D561673C7D3348D2E3C7DC4C29E11E13;284EF8E153ECC4BF730FA0BEC98199D0;M;1972;2020-08-24;2020-09-05;Alta medica melhorado;12;2020-08-24;UTI;Urina Tipo I - Jato Medio;Urobilinogenio,urina;;mg/dL;inferior a 1,0 (negativa);False
D9833C43AE13CFD23AD5B0D688F7D31C;980B1244A379800E6489BC1B61D2E591;M;1984;2020-05-01;2020-05-21;Alta medica melhorado;20;2020-05-13;Unidades de Internacao;Urina Tipo I - Jato Medio;Urobilinogenio,urina;;mg/dL;inferior a 1,0 (negativa);False
DCE803CC417DB981D4B8505344982026;23328ACDC90C35EFBAC74175444CED52;M;1980;2020-12-18;2020-12-21;Alta Administrativa;3;2020-12-21;Check Up - Itaim;Urina Tipo I - Jato Medio;Urobilinogenio,urina;;mg/dL;inferior a 1,0 (negativa);False
E1CEA0A43CAEE48229C9F95664FA9B12;05D4C3802C542D2B3B75B146AF8515E1;M;1981;2020-10-16;2020-10-24;Alta medica melhorado;8;2020-10-16;Unidades de Internacao;Urina Tipo I - Jato Medio;Urobilinogenio,urina;;mg/dL;inferior a 1,0 (negativa);False
E1CEA0A43CAEE48229C9F95664FA9B12;620B100959B181B535C80F5EF6637CC3;M;1981;2020-09-13;2020-09-17;Alta medica curado;4;2020-09-14;Unidades de Internacao;Urina Tipo I - Jato Medio;Urobilinogenio,urina;;mg/dL;inferior a 1,0 (negativa);False
E32857191989417E4C36C129E3371E05;F7ED5454C58913A6A68E7A9F697475CA;M;1977;2020-06-20;2020-06-26;Alta medica melhorado;6;2020-06-20;Unidades de Internacao;Urina Tipo I - Jato Medio;Urobilinogenio,urina;4.0;mg/dL;inferior a 1,0 (negativa);False
E550128723721F799B9701E321A2A56B;C1530B97281843E49F533DC903467FB5;M;1981;2020-10-24;2020-10-26;Alta Administrativa;2;2020-10-24;Recepcao do Centro Diagnostico;Urina Tipo I - Jato Medio;Urobilinogenio,urina;;mg/dL;inferior a 1,0 (negativa);False
E5C58416EA9731D44441E9DA99AEBA67;8275AD915017FB81E3E9E988963B2618;M;1981;2020-07-04;2020-07-10;Alta medica melhorado;6;2020-07-04;Unidades de Internacao;Urina Tipo I - Jato Medio;Urobilinogenio,urina;;mg/dL;inferior a 1,0 (negativa);False
EB1AF85CC20F1FBDA241C827E6807673;112F524BB993CDF6B10D3714563C376A;M;1974;2020-11-25;2020-11-27;Alta Administrativa;2;2020-11-27;Check Up - Itaim;Urina Tipo I - Jato Medio;Urobilinogenio,urina;;mg/dL;inferior a 1,0 (negativa);False
EEDC998B91314BC89F352F4DAF360050;C492F2DECA550A51210EBC4182C35D24;M;1983;2020-12-10;2020-12-14;Alta medica melhorado;4;2020-12-12;Unidades de Internacao;Urina Tipo I - Jato Medio;Urobilinogenio,urina;;mg/dL;inferior a 1,0 (negativa);False
EEDC998B91314BC89F352F4DAF360050;C492F2DECA550A51210EBC4182C35D24;M;1983;2020-12-10;2020-12-14;Alta medica melhorado;4;2020-12-10;Unidades de Internacao;Urina Tipo I - Jato Medio;Urobilinogenio,urina;;mg/dL;inferior a 1,0 (negativa);False
EEFE7243D248E2B47A9AEEDAD177197E;0FAB23DE2A0263EC8FBE4C9B233AD5F8;M;1974;2020-11-11;2020-11-13;Alta Administrativa;2;2020-11-13;Check Up - Itaim;Urina Tipo I - Jato Medio;Urobilinogenio,urina;;mg/dL;inferior a 1,0 (negativa);False
F1C72DDFD83093BD5F02037DEA10BA58;2397D7E0B59D13FE01F8AE4A5C8758CF;M;1981;2020-08-13;2020-08-17;Alta Administrativa;4;2020-08-13;Endoscopia;Urina Tipo I - Jato Medio;Urobilinogenio,urina;;mg/dL;inferior a 1,0 (negativa);False
F455C5294898ED5F99C0596E6D1F33A4;F566EA085360CCCB4606C9C018B77193;M;1985;2020-08-17;2020-08-19;Alta Administrativa;2;2020-08-18;Check Up - Itaim;Urina Tipo I - Jato Medio;Urobilinogenio,urina;;mg/dL;inferior a 1,0 (negativa);False
FA562F70751CB2D2250FB588BB924530;CBD8A7EA49C5A55698F2A006791DDB79;M;1975;2020-12-05;2020-12-08;Alta medica melhorado;3;2020-12-06;Unidades de Internacao;Urina Tipo I - Jato Medio;Urobilinogenio,urina;;mg/dL;inferior a 1,0 (negativa);False
FACA2D3CAD7DE512DFC6A52F652B25A4;340535759712E53FA8DE06ACF32105DE;M;1973;2020-05-02;2020-05-09;Alta medica melhorado;7;2020-05-02;Unidades de Internacao;Urina Tipo I - Jato Medio;Urobilinogenio,urina;;mg/dL;inferior a 1,0 (negativa);False
FC37D2ADDD33B7EFABA605F14AD17997;E2512FCA581511B20C9308A3922D6767;M;1986;2020-05-11;2020-05-20;Alta medica melhorado;9;2020-05-11;Unidades de Internacao;Urina Tipo I - Jato Medio;Urobilinogenio,urina;;mg/dL;inferior a 1,0 (negativa);False
FDE1E9704B82A4A9F559332B31425EA0;327A240322A89CA0BDB871E95B4A4B90;M;1975;2020-06-26;2020-06-28;Alta medica melhorado;2;2020-06-26;Unidades de Internacao;Urina Tipo I - Jato Medio;Urobilinogenio,urina;;mg/dL;inferior a 1,0 (negativa);False
FEF4E7E3DB35AA3F20DF2A5AAC850D6F;B9E9F522A1A5A1DB1A8765E25E358C6D;M;1976;2020-06-03;2020-06-09;Alta medica melhorado;6;2020-06-03;Unidades de Internacao;Urina Tipo I - Jato Medio;Urobilinogenio,urina;;mg/dL;inferior a 1,0 (negativa);False
